6898849		45DS42	21473513	RELS	SHP		Aborted	False
6898850		45DS42	21473513	RELS	SHP		Aborted	False
6898851		45DS42	21473513	RELS	SHP		Aborted	False
6898852		45DS42	21473513	RELS	SHP		Aborted	False
6898853	SAV1040023432	45DS42	21473513	RELS	SHP		Completed	True
6898854	SAV1040023431	45DS42	21473513	RELS	SHP		Completed	True
6898855		45DS42	21473513	RELS	SHP		Aborted	False
6898856		45DS42	21473513	RELS	SHP		Aborted	False
6898857	SAV1040023422	45DS42	21473513	RELS	SHP		Completed	True
6898858	SAV1040023421	45DS42	21473513	RELS	SHP		Completed	True
6898859		45DS42	21473513	RELS	SHP		Aborted	False
6898860		45DS42	21473513	RELS	SHP		Aborted	False
6898861	SAV1040023416	45DS42	21473513	RELS	SHP		Completed	True
6898862	SAV1040023415	45DS42	21473513	RELS	SHP		Completed	True
6898863		45DS42	21473513	RELS	SHP		Aborted	False
6898864		45DS42	21473513	RELS	SHP		Aborted	False
6898865	SAV1040021117	45DS42	21473513	RELS	SHP		Completed	True
6898866	SAV1040021118	45DS42	21473513	RELS	SHP		Completed	True
6898867		45DS42	21473513	RELS	SHP		Aborted	False
6898868		45DS42	21473513	RELS	SHP		Aborted	False
6898869	SAV1040023448	45DS42	21473513	RELS	SHP		Completed	True
6898870	SAV1040023447	45DS42	21473513	RELS	SHP		Completed	True
6898871		45DS42	21473513	RELS	SHP		Aborted	False
6898872		45DS42	21473513	RELS	SHP		Aborted	False
6898873		45DS42	21473513	RELS	SHP		Aborted	False
6898874		45DS42	21473513	RELS	SHP		Aborted	False
6898875		45DS42	21473513	RELS	SHP		Aborted	False
6898876		45DS42	21473513	RELS	SHP		Aborted	False
6898877		45DS42	21473513	RELS	SHP		Aborted	False
6898878		45DS42	21473513	RELS	SHP		Aborted	False
6898879	SAV1040021030	45DS42	21473513	RELS	SHP		Completed	True
6898880	SAV1040021448	45DS42	21473513	RELS	SHP		Completed	True
6898881	SAV1040021026	45DS42	21473513	RELS	SHP		Completed	True
6898882		45DS42	21473513	RELS	SHP		Aborted	False
6898883		45DS42	21473513	RELS	SHP		Aborted	False
6898884	SAV1040021446	45DS42	21473513	RELS	SHP		Completed	True
6898885	SAV1040021445	45DS42	21473513	RELS	SHP		Completed	True
6898886	SAV1040021444	45DS42	21473513	RELS	SHP		Completed	True
6898887	SAV1040021443	45DS42	21473513	RELS	SHP		Completed	True
6898888	SAV1040023438	45DS42	21473513	RELS	SHP		Completed	True
6898889	SAV1040023437	45DS42	21473513	RELS	SHP		Completed	True
6898890	SAV1040021424	45DS42	21473513	RELS	SHP		Completed	True
6898891	SAV1040021423	45DS42	21473513	RELS	SHP		Completed	True
6898892	SAV1040023436	45DS42	21473513	RELS	SHP		Completed	True
6898893	SAV1040023435	45DS42	21473513	RELS	SHP		Completed	True
6898894	SAV1040021416	45DS42	21473513	RELS	SHP		Completed	True
6898895	SAV1040021415	45DS42	21473513	RELS	SHP		Completed	True
6898896	SAV1040023434	45DS42	21473513	RELS	SHP		Completed	True
6898897	SAV1040023433	45DS42	21473513	RELS	SHP		Completed	True
6898898	SAV1040021404	45DS42	21473513	RELS	SHP		Completed	True
6898899	SAV1040021403	45DS42	21473513	RELS	SHP		Completed	True
6898902		45DS42	21473513	RELS	SHP		Aborted	False
6898903		45DS42	21473513	RELS	SHP		Aborted	False
6898904	SAV1040023430	45DS42	21473513	RELS	SHP		Completed	True
6898905	SAV1040023429	45DS42	21473513	RELS	SHP		Completed	True
6898906		45DS42	21473513	RELS	SHP		Aborted	False
6898907		45DS42	21473513	RELS	SHP		Aborted	False
6898908	SAV1040023426	45DS42	21473513	RELS	SHP		Completed	True
6898909	SAV1040023425	45DS42	21473513	RELS	SHP		Completed	True
6898910		45DS42	21473513	RELS	SHP		Aborted	False
