6898911		45DS42	21473513	RELS	SHP		Aborted	False
6898912		45DS42	21473513	RELS	SHP		Aborted	False
6898913		45DS42	21473513	RELS	SHP		Aborted	False
6898914		45DS42	21473513	RELS	SHP		Aborted	False
6898915		45DS42	21473513	RELS	SHP		Aborted	False
6898916	SAV1040023414	45DS42	21473513	RELS	SHP		Completed	True
6898917	SAV1040023413	45DS42	21473513	RELS	SHP		Completed	True
6898918	SAV1040023452	45DS42	21473513	RELS	SHP		Completed	True
6898919	SAV1040023451	45DS42	21473513	RELS	SHP		Completed	True
6898920	SAV1040023444	45DS42	21473513	RELS	SHP		Completed	True
6898921	SAV1040023443	45DS42	21473513	RELS	SHP		Completed	True
6898953	SAV1040023442	45DS42	21473513	RELS	SHP		Completed	True
6898954	SAV1040023441	45DS42	21473513	RELS	SHP		Completed	True
6899072	SAV1040023450	45DS42	21473513	RELS	SHP		Completed	True
6899073	SAV1040023449	45DS42	21473513	RELS	SHP		Completed	True
6899169		45DS42	21473513	RELS	SHP		Cancelled	True
6899170		45DS42	21473513	RELS	SHP		Cancelled	True
6899171		45DS42	21473513	RELS	SHP		Cancelled	True
6899172		45DS42	21473513	RELS	SHP		Cancelled	True
6899173		45DS42	21473513	RELS	SHP		Aborted	False
6899174		45DS42	21473513	RELS	SHP		Aborted	False
6899193		45DS42	21473513	RELS	SHP		Cancelled	True
6899194		45DS42	21473513	RELS	SHP		Cancelled	True
6899195	SAV1040023410	45DS42	21473513	RELS	SHP		Completed	True
6899196	SAV1040023409	45DS42	21473513	RELS	SHP		Completed	True
6899197		45DS42	21473513	RELS	SHP		Cancelled	True
6899198		45DS42	21473513	RELS	SHP		Cancelled	True
6899199		45DS42	21473513	RELS	SHP		Cancelled	True
6899200		45DS42	21473513	RELS	SHP		Cancelled	True
6899201		45DS42	21473513	RELS	SHP		Cancelled	True
6899202		45DS42	21473513	RELS	SHP		Cancelled	True
6899322		45DS42	21473513	RELS	SHP		Cancelled	True
6899323		45DS42	21473513	RELS	SHP		Cancelled	True
6899324		45DS42	21473513	RELS	SHP		Cancelled	True
6899325		45DS42	21473513	RELS	SHP		Cancelled	True
6899326		45DS42	21473513	RELS	SHP		Cancelled	True
6899327		45DS42	21473513	RELS	SHP		Cancelled	True
6899328		45DS42	21473513	RELS	SHP		Cancelled	True
6899329		45DS42	21473513	RELS	SHP		Cancelled	True
6899330		45DS42	21473513	RELS	SHP		Cancelled	True
6899331		45DS42	21473513	RELS	SHP		Cancelled	True
6899334		45DS42	21473513	RELS	SHP		Cancelled	True
6899335		45DS42	21473513	RELS	SHP		Cancelled	True
6899336		45DS42	21473513	RELS	SHP		Cancelled	True
6899337		45DS42	21473513	RELS	SHP		Cancelled	True
6899338		45DS42	21473513	RELS	SHP		Cancelled	True
6899339		45DS42	21473513	RELS	SHP		Cancelled	True
6899340		45DS42	21473513	RELS	SHP		Cancelled	True
6899341		45DS42	21473513	RELS	SHP		Cancelled	True
6899342		45DS42	21473513	RELS	SHP		Cancelled	True
6899343		45DS42	21473513	RELS	SHP		Cancelled	True
6899344		45DS42	21473513	RELS	SHP		Cancelled	True
6899345		45DS42	21473513	RELS	SHP		Cancelled	True
6899346	SAV1040023454	45DS42	21473513	RELS	SHP		Completed	True
6899347	SAV1040023453	45DS42	21473513	RELS	SHP		Completed	True
6899348		45DS42	21473513	RELS	SHP		Cancelled	True
6899349		45DS42	21473513	RELS	SHP		Cancelled	True
6899350	SAV1040023456	45DS42	21473513	RELS	SHP		Completed	True
6899351	SAV1040023455	45DS42	21473513	RELS	SHP		Completed	True
6899352		45DS42	21473513	RELS	SHP		Started	True
6899353		45DS42	21473513	RELS	SHP		Started	True
