﻿Dbf_l_Id	Dbf_l_Version	Dbf_l_Id_TransportOrder	Dbf_s_ItemType	Dbf_dt_InsertTime	Dbf_s_Location	Dbf_l_Status	Dbf_l_Code	Dbf_s_StockUnitLpn
8722631	2	7212805	STUB_AUTO_PMAN_PLTF	2012-10-13 20:09:15.000	PLTZ12	1	0	SA041377
8726151	2	7215400	STUB_AUTO_PMAN_PLTF	2012-10-14 04:54:19.000	PLTZ12	1	0	SA041634
8728464	2	7216624	STUB_AUTO_PMAN_PLTF	2012-10-14 10:57:44.000	PLTZ12	1	0	SA041824
