4;101898;205864;0;32                                
                        
6;249413;137275;0;32                                
           
24;170189;262897;0;32                                
             
268;150722;205279;0;32                                
                   
270;156994;205281;0;32                                
            
281;165169;205271;0;32                                
                         
447;239141;128300;0;32                                
               
                    
                          
