InternalMessage	ActionTimeStamp
MessageName = Ticket Announcement - Manual PRN;TransactionDate = 20140423;TransactionTime = 008425400;TicketNumber = 04618673480;ItemNumber = 00210000269900;FreshFrozenCode = 3;CodeDate = 20141119;SuspectCodeDateFlag = N;TicketQty = 120.00;AppointmentDate = 20140424;AppointmentTime = 008000000;TQCreatedDate = 00000000;TQCreatedTime = 000000000;SubTask = 0000;DispositionCode1_3 = QT;FromLocation = DPUSL2;OrderInvoiceNumber = 0000000;ShipmentTruckNumber = 0000000;ProjectModuleID = ;SwapAlwdFlag = Y;DataEarliestCodeDate = 20141117;DataLatestCodeDate = 20141123;DockLoadSeqNum = 0;StandardItemWeight = 13.958;MixedItem = N;MixedCodeDate = 1;TierNumber = ;GRAINr = 330835563C61000000D84830;PalletType = I;StackWithTicket = 00000000000;Level = null;Filler = 0000000;PalletHeight = 48;SingleMsgMaxLength = 450;TotalBlockedMsgs = 0;BytesOffset = 0;	2014-04-23 08:46:55.627
MessageName = Ticket Delete Message;TransactionDate = 20140423;TransactionTime = 008424229;TicketNumber = 04619253760;Filler = ;SingleMsgMaxLength = 450;TotalBlockedMsgs = 0;BytesOffset = 0;	2014-04-23 08:46:54.883
MessageName = Ticket Delete Message;TransactionDate = 20140423;TransactionTime = 008423954;TicketNumber = 04616120160;Filler = ;SingleMsgMaxLength = 450;TotalBlockedMsgs = 0;BytesOffset = 0;	2014-04-23 08:46:54.413
MessageName = Ticket Delete Message;TransactionDate = 20140423;TransactionTime = 008422399;TicketNumber = 04616707450;Filler = ;SingleMsgMaxLength = 450;TotalBlockedMsgs = 0;BytesOffset = 0;	2014-04-23 08:46:53.130
MessageName = Ticket Delete Message;TransactionDate = 20140423;TransactionTime = 008415498;TicketNumber = 04616120100;Filler = ;SingleMsgMaxLength = 450;TotalBlockedMsgs = 0;BytesOffset = 0;	2014-04-23 08:46:52.640
MessageName = Ticket Delete Message;TransactionDate = 20140423;TransactionTime = 008415451;TicketNumber = 04618673280;Filler = ;SingleMsgMaxLength = 450;TotalBlockedMsgs = 0;BytesOffset = 0;	2014-04-23 08:46:52.093
MessageName = Ticket Delete Message;TransactionDate = 20140423;TransactionTime = 008412586;TicketNumber = 04614862860;Filler = ;SingleMsgMaxLength = 450;TotalBlockedMsgs = 0;BytesOffset = 0;	2014-04-23 08:46:51.563
MessageName = Ticket Delete Message;TransactionDate = 20140423;TransactionTime = 008412365;TicketNumber = 04616707590;Filler = ;SingleMsgMaxLength = 450;TotalBlockedMsgs = 0;BytesOffset = 0;	2014-04-23 08:46:50.960
MessageName = Ticket Delete Message;TransactionDate = 20140423;TransactionTime = 008410781;TicketNumber = 04618673270;Filler = ;SingleMsgMaxLength = 450;TotalBlockedMsgs = 0;BytesOffset = 0;	2014-04-23 08:46:50.477
MessageName = Ticket Delete Message;TransactionDate = 20140423;TransactionTime = 008410015;TicketNumber = 04616664190;Filler = ;SingleMsgMaxLength = 450;TotalBlockedMsgs = 0;BytesOffset = 0;	2014-04-23 08:46:49.890
MessageName = Ticket Announcement - Manual PRN;TransactionDate = 20140423;TransactionTime = 000384883;TicketNumber = 04615004390;ItemNumber = 00210006532000;FreshFrozenCode = 3;CodeDate = 20150216;SuspectCodeDateFlag = N;TicketQty = 120.00;AppointmentDate = 20140423;AppointmentTime = 012000000;TQCreatedDate = 00000000;TQCreatedTime = 000000000;SubTask = 0000;DispositionCode1_3 = QT;FromLocation = DPUDIN;OrderInvoiceNumber = 0000000;ShipmentTruckNumber = 0000000;ProjectModuleID = ;SwapAlwdFlag = Y;DataEarliestCodeDate = 20150216;DataLatestCodeDate = 20150222;DockLoadSeqNum = 0;StandardItemWeight = 15.666;MixedItem = N;MixedCodeDate = 1;TierNumber = ;GRAINr = 330835563C610000000B9F8B;PalletType = I;StackWithTicket = 00000000000;Level = null;Filler = 0000000;PalletHeight = 78;SingleMsgMaxLength = 450;TotalBlockedMsgs = 0;BytesOffset = 0;	2014-04-23 00:38:49.850
MessageName = Ticket Announcement - Manual PRN;TransactionDate = 20140423;TransactionTime = 000383366;TicketNumber = 04619318970;ItemNumber = 00210000263100;FreshFrozenCode = 3;CodeDate = 20141023;SuspectCodeDateFlag = N;TicketQty = 123.00;AppointmentDate = 00000000;AppointmentTime = 000000000;TQCreatedDate = 00000000;TQCreatedTime = 000000000;SubTask = 0000;DispositionCode1_3 = ;FromLocation = DPSWPP1;OrderInvoiceNumber = 0901785;ShipmentTruckNumber = 1083824;ProjectModuleID = ;SwapAlwdFlag = N;DataEarliestCodeDate = 20141023;DataLatestCodeDate = 20141023;DockLoadSeqNum = 0;StandardItemWeight = 1741.500;MixedItem = Y;MixedCodeDate = 2;TierNumber = ;GRAINr = 330835563C610000007B8A9D;PalletType = I;StackWithTicket = 00000000000;Level = null;Filler = 0000000;PalletHeight = 58;SingleMsgMaxLength = 450;TotalBlockedMsgs = 0;BytesOffset = 0;	2014-04-23 00:38:34.710
MessageName = Ticket Announcement - Manual PRN;TransactionDate = 20140423;TransactionTime = 000382790;TicketNumber = 04619871520;ItemNumber = 00210000233900;FreshFrozenCode = 3;CodeDate = 20141218;SuspectCodeDateFlag = N;TicketQty = 48.00;AppointmentDate = 20140423;AppointmentTime = 012000000;TQCreatedDate = 00000000;TQCreatedTime = 000000000;SubTask = 0000;DispositionCode1_3 = QT;FromLocation = DPUSL1;OrderInvoiceNumber = 0000000;ShipmentTruckNumber = 0000000;ProjectModuleID = ;SwapAlwdFlag = Y;DataEarliestCodeDate = 20141215;DataLatestCodeDate = 20141221;DockLoadSeqNum = 0;StandardItemWeight = 5.375;MixedItem = N;MixedCodeDate = 1;TierNumber = ;GRAINr = 330835563C61000000CA6544;PalletType = I;StackWithTicket = 00000000000;Level = null;Filler = 0000000;PalletHeight = 42;SingleMsgMaxLength = 450;TotalBlockedMsgs = 0;BytesOffset = 0;	2014-04-23 00:38:28.373
MessageName = Location Clear Message;TransactionDate = 20140423;TransactionTime = 000382378;TicketNumber = 04619207890;FromLocation = DREP04A;FromE80LocHD = ;ToLocation = null;ToE80LocHD = null;Filler = ;SingleMsgMaxLength = 450;TotalBlockedMsgs = 0;BytesOffset = 0;	2014-04-23 00:38:25.210
MessageName = Ticket Announcement - Manual PRN;TransactionDate = 20140423;TransactionTime = 000381944;TicketNumber = 04618934660;ItemNumber = 00210007327700;FreshFrozenCode = 3;CodeDate = 20141118;SuspectCodeDateFlag = N;TicketQty = 252.00;AppointmentDate = 20140425;AppointmentTime = 000000000;TQCreatedDate = 00000000;TQCreatedTime = 000000000;SubTask = 0000;DispositionCode1_3 = QT;FromLocation = DPUDIN;OrderInvoiceNumber = 0000000;ShipmentTruckNumber = 0000000;ProjectModuleID = ;SwapAlwdFlag = Y;DataEarliestCodeDate = 20141117;DataLatestCodeDate = 20141123;DockLoadSeqNum = 0;StandardItemWeight = 7.426;MixedItem = N;MixedCodeDate = 1;TierNumber = ;GRAINr = 330835563C61000000891858;PalletType = I;StackWithTicket = 00000000000;Level = null;Filler = 0000000;PalletHeight = 59;SingleMsgMaxLength = 450;TotalBlockedMsgs = 0;BytesOffset = 0;	2014-04-23 00:38:20.197
MessageName = Ticket Announcement - Manual PRN;TransactionDate = 20140423;TransactionTime = 000381189;TicketNumber = 04619871510;ItemNumber = 00210000233900;FreshFrozenCode = 3;CodeDate = 20141218;SuspectCodeDateFlag = N;TicketQty = 48.00;AppointmentDate = 20140423;AppointmentTime = 012000000;TQCreatedDate = 00000000;TQCreatedTime = 000000000;SubTask = 0000;DispositionCode1_3 = QT;FromLocation = DPUSL1;OrderInvoiceNumber = 0000000;ShipmentTruckNumber = 0000000;ProjectModuleID = ;SwapAlwdFlag = Y;DataEarliestCodeDate = 20141215;DataLatestCodeDate = 20141221;DockLoadSeqNum = 0;StandardItemWeight = 5.375;MixedItem = N;MixedCodeDate = 1;TierNumber = ;GRAINr = 330835563C6100000022E7CE;PalletType = I;StackWithTicket = 00000000000;Level = null;Filler = 0000000;PalletHeight = 42;SingleMsgMaxLength = 450;TotalBlockedMsgs = 0;BytesOffset = 0;	2014-04-23 00:38:12.740
MessageName = Ticket Announcement - Manual PRN;TransactionDate = 20140423;TransactionTime = 000375324;TicketNumber = 04610081430;ItemNumber = 00210000284200;FreshFrozenCode = 3;CodeDate = 20141118;SuspectCodeDateFlag = N;TicketQty = 1.00;AppointmentDate = 20140424;AppointmentTime = 008000000;TQCreatedDate = 00000000;TQCreatedTime = 000000000;SubTask = 0000;DispositionCode1_3 = QT;FromLocation = DPUSL1;OrderInvoiceNumber = 0000000;ShipmentTruckNumber = 0000000;ProjectModuleID = ;SwapAlwdFlag = Y;DataEarliestCodeDate = 20141117;DataLatestCodeDate = 20141123;DockLoadSeqNum = 0;StandardItemWeight = 757.770;MixedItem = N;MixedCodeDate = 1;TierNumber = ;GRAINr = 330835563C610000002BC912;PalletType = I;StackWithTicket = 00000000000;Level = null;Filler = 0000000;PalletHeight = 25;SingleMsgMaxLength = 450;TotalBlockedMsgs = 0;BytesOffset = 0;	2014-04-23 00:37:53.653
MessageName = Location Clear Message;TransactionDate = 20140423;TransactionTime = 000375081;TicketNumber = 09000576940;FromLocation = DS2040B;FromE80LocHD = ;ToLocation = null;ToE80LocHD = null;Filler = ;SingleMsgMaxLength = 450;TotalBlockedMsgs = 0;BytesOffset = 0;	2014-04-23 00:37:51.313
MessageName = Ticket Announcement - Manual PRN;TransactionDate = 20140423;TransactionTime = 000372805;TicketNumber = 04610081420;ItemNumber = 00210000284200;FreshFrozenCode = 3;CodeDate = 20141118;SuspectCodeDateFlag = N;TicketQty = 1.00;AppointmentDate = 20140424;AppointmentTime = 008000000;TQCreatedDate = 00000000;TQCreatedTime = 000000000;SubTask = 0000;DispositionCode1_3 = QT;FromLocation = DPUSL1;OrderInvoiceNumber = 0000000;ShipmentTruckNumber = 0000000;ProjectModuleID = ;SwapAlwdFlag = Y;DataEarliestCodeDate = 20141117;DataLatestCodeDate = 20141123;DockLoadSeqNum = 0;StandardItemWeight = 757.770;MixedItem = N;MixedCodeDate = 1;TierNumber = ;GRAINr = 330835563C61000000E19538;PalletType = I;StackWithTicket = 00000000000;Level = null;Filler = 0000000;PalletHeight = 25;SingleMsgMaxLength = 450;TotalBlockedMsgs = 0;BytesOffset = 0;	2014-04-23 00:37:28.300
MessageName = Ticket Announcement - Manual PRN;TransactionDate = 20140423;TransactionTime = 000372198;TicketNumber = 04610081410;ItemNumber = 00210000284200;FreshFrozenCode = 3;CodeDate = 20141118;SuspectCodeDateFlag = N;TicketQty = 1.00;AppointmentDate = 20140424;AppointmentTime = 008000000;TQCreatedDate = 00000000;TQCreatedTime = 000000000;SubTask = 0000;DispositionCode1_3 = QT;FromLocation = DPUSL1;OrderInvoiceNumber = 0000000;ShipmentTruckNumber = 0000000;ProjectModuleID = ;SwapAlwdFlag = Y;DataEarliestCodeDate = 20141117;DataLatestCodeDate = 20141123;DockLoadSeqNum = 0;StandardItemWeight = 757.770;MixedItem = N;MixedCodeDate = 1;TierNumber = ;GRAINr = 330835563C61000000929CBD;PalletType = I;StackWithTicket = 00000000000;Level = null;Filler = 0000000;PalletHeight = 25;SingleMsgMaxLength = 450;TotalBlockedMsgs = 0;BytesOffset = 0;	2014-04-23 00:37:22.453
MessageName = Ticket Announcement - Manual PRN;TransactionDate = 20140423;TransactionTime = 000371886;TicketNumber = 04618934650;ItemNumber = 00210007290600;FreshFrozenCode = 3;CodeDate = 20141118;SuspectCodeDateFlag = N;TicketQty = 252.00;AppointmentDate = 20140424;AppointmentTime = 008000000;TQCreatedDate = 00000000;TQCreatedTime = 000000000;SubTask = 0000;DispositionCode1_3 = QT;FromLocation = DPUDIN;OrderInvoiceNumber = 0000000;ShipmentTruckNumber = 0000000;ProjectModuleID = ;SwapAlwdFlag = Y;DataEarliestCodeDate = 20141117;DataLatestCodeDate = 20141123;DockLoadSeqNum = 0;StandardItemWeight = 7.610;MixedItem = N;MixedCodeDate = 1;TierNumber = ;GRAINr = 330835563C6100000056F24C;PalletType = I;StackWithTicket = 00000000000;Level = null;Filler = 0000000;PalletHeight = 59;SingleMsgMaxLength = 450;TotalBlockedMsgs = 0;BytesOffset = 0;	2014-04-23 00:37:18.977