Search "GPCD4f22301a" (26 hits in 1 files)
  C:\Elettric80\Logs\LgvManager\Wms.txt (26 hits)
	Line 2884: 2014-06-23 03.22.41.8646 | Trace | WMSINTERFACE | TX | STST | StationName:PM_PR_PU LPN_1:GPCD4F22301A SKU_1:SKU empty Weight_1:3936 Height_1:0 Lenght_1:0 Width_1:0 Diameter_1:2641 LPN_2:LPN empty SKU_2:SKU empty Weight_2:0 Height_2:0 Lenght_2:0 Width_2:0 Diameter_2:0 LPN_3:LPN empty SKU_3:SKU empty Weight_3:0 Height_3:0 Lenght_3:0 Width_3:0 Diameter_3:0
	Line 2893: 2014-06-23 03.23.07.8591 | Trace | WMSINTERFACE | TX | STST | StationName:PM_PR_PU LPN_1:GPCD4F22301A SKU_1:SKU empty Weight_1:3936 Height_1:0 Lenght_1:0 Width_1:0 Diameter_1:2641 LPN_2:LPN empty SKU_2:SKU empty Weight_2:0 Height_2:0 Lenght_2:0 Width_2:0 Diameter_2:0 LPN_3:LPN empty SKU_3:SKU empty Weight_3:0 Height_3:0 Lenght_3:0 Width_3:0 Diameter_3:0
	Line 2904: 2014-06-23 03.23.33.7705 | Trace | WMSINTERFACE | TX | STST | StationName:PM_PR_PU LPN_1:GPCD4F22301A SKU_1:SKU empty Weight_1:3936 Height_1:0 Lenght_1:0 Width_1:0 Diameter_1:2641 LPN_2:LPN empty SKU_2:SKU empty Weight_2:0 Height_2:0 Lenght_2:0 Width_2:0 Diameter_2:0 LPN_3:LPN empty SKU_3:SKU empty Weight_3:0 Height_3:0 Lenght_3:0 Width_3:0 Diameter_3:0
	Line 2911: 2014-06-23 03.23.59.1270 | Trace | WMSINTERFACE | TX | STST | StationName:PM_PR_PU LPN_1:GPCD4F22301A SKU_1:SKU empty Weight_1:3936 Height_1:0 Lenght_1:0 Width_1:0 Diameter_1:2641 LPN_2:LPN empty SKU_2:SKU empty Weight_2:0 Height_2:0 Lenght_2:0 Width_2:0 Diameter_2:0 LPN_3:LPN empty SKU_3:SKU empty Weight_3:0 Height_3:0 Lenght_3:0 Width_3:0 Diameter_3:0
	Line 2916: 2014-06-23 03.24.25.1235 | Trace | WMSINTERFACE | TX | STST | StationName:PM_PR_PU LPN_1:GPCD4F22301A SKU_1:SKU empty Weight_1:3936 Height_1:0 Lenght_1:0 Width_1:0 Diameter_1:2641 LPN_2:LPN empty SKU_2:SKU empty Weight_2:0 Height_2:0 Lenght_2:0 Width_2:0 Diameter_2:0 LPN_3:LPN empty SKU_3:SKU empty Weight_3:0 Height_3:0 Lenght_3:0 Width_3:0 Diameter_3:0
	Line 2939: 2014-06-23 03.25.26.1720 | Trace | WMSINTERFACE | TX | STST | StationName:PM_PR_PU LPN_1:GPCD4F22301A SKU_1:SKU empty Weight_1:3936 Height_1:0 Lenght_1:0 Width_1:0 Diameter_1:2641 LPN_2:LPN empty SKU_2:SKU empty Weight_2:0 Height_2:0 Lenght_2:0 Width_2:0 Diameter_2:0 LPN_3:LPN empty SKU_3:SKU empty Weight_3:0 Height_3:0 Lenght_3:0 Width_3:0 Diameter_3:0
	Line 2960: 2014-06-23 03.26.27.0335 | Trace | WMSINTERFACE | TX | STST | StationName:PM_PR_PU LPN_1:GPCD4F22301A SKU_1:SKU empty Weight_1:3936 Height_1:0 Lenght_1:0 Width_1:0 Diameter_1:2641 LPN_2:LPN empty SKU_2:SKU empty Weight_2:0 Height_2:0 Lenght_2:0 Width_2:0 Diameter_2:0 LPN_3:LPN empty SKU_3:SKU empty Weight_3:0 Height_3:0 Lenght_3:0 Width_3:0 Diameter_3:0
	Line 2979: 2014-06-23 03.27.27.1259 | Trace | WMSINTERFACE | TX | STST | StationName:PM_PR_PU LPN_1:GPCD4F22301A SKU_1:SKU empty Weight_1:3936 Height_1:0 Lenght_1:0 Width_1:0 Diameter_1:2641 LPN_2:LPN empty SKU_2:SKU empty Weight_2:0 Height_2:0 Lenght_2:0 Width_2:0 Diameter_2:0 LPN_3:LPN empty SKU_3:SKU empty Weight_3:0 Height_3:0 Lenght_3:0 Width_3:0 Diameter_3:0
	Line 2999: 2014-06-23 03.28.27.7934 | Trace | WMSINTERFACE | TX | STST | StationName:PM_PR_PU LPN_1:GPCD4F22301A SKU_1:SKU empty Weight_1:3936 Height_1:0 Lenght_1:0 Width_1:0 Diameter_1:2641 LPN_2:LPN empty SKU_2:SKU empty Weight_2:0 Height_2:0 Lenght_2:0 Width_2:0 Diameter_2:0 LPN_3:LPN empty SKU_3:SKU empty Weight_3:0 Height_3:0 Lenght_3:0 Width_3:0 Diameter_3:0
	Line 3031: 2014-06-23 03.30.15.9235 | Trace | WMSINTERFACE | TX | STST | StationName:PM_PR_PU LPN_1:GPCD4F22301A SKU_1:SKU empty Weight_1:3936 Height_1:0 Lenght_1:0 Width_1:0 Diameter_1:2641 LPN_2:LPN empty SKU_2:SKU empty Weight_2:0 Height_2:0 Lenght_2:0 Width_2:0 Diameter_2:0 LPN_3:LPN empty SKU_3:SKU empty Weight_3:0 Height_3:0 Lenght_3:0 Width_3:0 Diameter_3:0
	Line 3044: 2014-06-23 03.31.16.6880 | Trace | WMSINTERFACE | TX | STST | StationName:PM_PR_PU LPN_1:GPCD4F22301A SKU_1:SKU empty Weight_1:3936 Height_1:0 Lenght_1:0 Width_1:0 Diameter_1:2641 LPN_2:LPN empty SKU_2:SKU empty Weight_2:0 Height_2:0 Lenght_2:0 Width_2:0 Diameter_2:0 LPN_3:LPN empty SKU_3:SKU empty Weight_3:0 Height_3:0 Lenght_3:0 Width_3:0 Diameter_3:0
	Line 3051: 2014-06-23 03.32.16.9275 | Trace | WMSINTERFACE | TX | STST | StationName:PM_PR_PU LPN_1:GPCD4F22301A SKU_1:SKU empty Weight_1:3936 Height_1:0 Lenght_1:0 Width_1:0 Diameter_1:2641 LPN_2:LPN empty SKU_2:SKU empty Weight_2:0 Height_2:0 Lenght_2:0 Width_2:0 Diameter_2:0 LPN_3:LPN empty SKU_3:SKU empty Weight_3:0 Height_3:0 Lenght_3:0 Width_3:0 Diameter_3:0
	Line 3066: 2014-06-23 03.33.17.9300 | Trace | WMSINTERFACE | TX | STST | StationName:PM_PR_PU LPN_1:GPCD4F22301A SKU_1:SKU empty Weight_1:3936 Height_1:0 Lenght_1:0 Width_1:0 Diameter_1:2641 LPN_2:LPN empty SKU_2:SKU empty Weight_2:0 Height_2:0 Lenght_2:0 Width_2:0 Diameter_2:0 LPN_3:LPN empty SKU_3:SKU empty Weight_3:0 Height_3:0 Lenght_3:0 Width_3:0 Diameter_3:0
	Line 3078: 2014-06-23 03.34.18.8864 | Trace | WMSINTERFACE | TX | STST | StationName:PM_PR_PU LPN_1:GPCD4F22301A SKU_1:SKU empty Weight_1:3936 Height_1:0 Lenght_1:0 Width_1:0 Diameter_1:2641 LPN_2:LPN empty SKU_2:SKU empty Weight_2:0 Height_2:0 Lenght_2:0 Width_2:0 Diameter_2:0 LPN_3:LPN empty SKU_3:SKU empty Weight_3:0 Height_3:0 Lenght_3:0 Width_3:0 Diameter_3:0
	Line 3085: 2014-06-23 03.35.19.0869 | Trace | WMSINTERFACE | TX | STST | StationName:PM_PR_PU LPN_1:GPCD4F22301A SKU_1:SKU empty Weight_1:3936 Height_1:0 Lenght_1:0 Width_1:0 Diameter_1:2641 LPN_2:LPN empty SKU_2:SKU empty Weight_2:0 Height_2:0 Lenght_2:0 Width_2:0 Diameter_2:0 LPN_3:LPN empty SKU_3:SKU empty Weight_3:0 Height_3:0 Lenght_3:0 Width_3:0 Diameter_3:0
	Line 3100: 2014-06-23 03.36.20.0384 | Trace | WMSINTERFACE | TX | STST | StationName:PM_PR_PU LPN_1:GPCD4F22301A SKU_1:SKU empty Weight_1:3936 Height_1:0 Lenght_1:0 Width_1:0 Diameter_1:2641 LPN_2:LPN empty SKU_2:SKU empty Weight_2:0 Height_2:0 Lenght_2:0 Width_2:0 Diameter_2:0 LPN_3:LPN empty SKU_3:SKU empty Weight_3:0 Height_3:0 Lenght_3:0 Width_3:0 Diameter_3:0
	Line 3111: 2014-06-23 03.37.21.0119 | Trace | WMSINTERFACE | TX | STST | StationName:PM_PR_PU LPN_1:GPCD4F22301A SKU_1:SKU empty Weight_1:3936 Height_1:0 Lenght_1:0 Width_1:0 Diameter_1:2641 LPN_2:LPN empty SKU_2:SKU empty Weight_2:0 Height_2:0 Lenght_2:0 Width_2:0 Diameter_2:0 LPN_3:LPN empty SKU_3:SKU empty Weight_3:0 Height_3:0 Lenght_3:0 Width_3:0 Diameter_3:0
	Line 3128: 2014-06-23 03.38.21.8563 | Trace | WMSINTERFACE | TX | STST | StationName:PM_PR_PU LPN_1:GPCD4F22301A SKU_1:SKU empty Weight_1:3936 Height_1:0 Lenght_1:0 Width_1:0 Diameter_1:2641 LPN_2:LPN empty SKU_2:SKU empty Weight_2:0 Height_2:0 Lenght_2:0 Width_2:0 Diameter_2:0 LPN_3:LPN empty SKU_3:SKU empty Weight_3:0 Height_3:0 Lenght_3:0 Width_3:0 Diameter_3:0
	Line 3143: 2014-06-23 03.39.22.8588 | Trace | WMSINTERFACE | TX | STST | StationName:PM_PR_PU LPN_1:GPCD4F22301A SKU_1:SKU empty Weight_1:3936 Height_1:0 Lenght_1:0 Width_1:0 Diameter_1:2641 LPN_2:LPN empty SKU_2:SKU empty Weight_2:0 Height_2:0 Lenght_2:0 Width_2:0 Diameter_2:0 LPN_3:LPN empty SKU_3:SKU empty Weight_3:0 Height_3:0 Lenght_3:0 Width_3:0 Diameter_3:0
	Line 3155: 2014-06-23 03.40.23.4423 | Trace | WMSINTERFACE | TX | STST | StationName:PM_PR_PU LPN_1:GPCD4F22301A SKU_1:SKU empty Weight_1:3936 Height_1:0 Lenght_1:0 Width_1:0 Diameter_1:2641 LPN_2:LPN empty SKU_2:SKU empty Weight_2:0 Height_2:0 Lenght_2:0 Width_2:0 Diameter_2:0 LPN_3:LPN empty SKU_3:SKU empty Weight_3:0 Height_3:0 Lenght_3:0 Width_3:0 Diameter_3:0
	Line 3169: 2014-06-23 03.41.23.6407 | Trace | WMSINTERFACE | TX | STST | StationName:PM_PR_PU LPN_1:GPCD4F22301A SKU_1:SKU empty Weight_1:3936 Height_1:0 Lenght_1:0 Width_1:0 Diameter_1:2641 LPN_2:LPN empty SKU_2:SKU empty Weight_2:0 Height_2:0 Lenght_2:0 Width_2:0 Diameter_2:0 LPN_3:LPN empty SKU_3:SKU empty Weight_3:0 Height_3:0 Lenght_3:0 Width_3:0 Diameter_3:0
	Line 3188: 2014-06-23 03.42.24.0732 | Trace | WMSINTERFACE | TX | STST | StationName:PM_PR_PU LPN_1:GPCD4F22301A SKU_1:SKU empty Weight_1:3936 Height_1:0 Lenght_1:0 Width_1:0 Diameter_1:2641 LPN_2:LPN empty SKU_2:SKU empty Weight_2:0 Height_2:0 Lenght_2:0 Width_2:0 Diameter_2:0 LPN_3:LPN empty SKU_3:SKU empty Weight_3:0 Height_3:0 Lenght_3:0 Width_3:0 Diameter_3:0
	Line 3189: 2014-06-23 03.42.24.1562 | Trace | WMSINTERFACE | RX | PQTY | StationName:PM_PR_PU TrackingId:GPCD4F22301A PalletType:3 Side:0 JoinMode:0 DestinationStation:CC_PR LgvBuffer:1 Diameter:2641 Weight:3936
	Line 3196: 2014-06-23 03.43.16.6802 | Trace | WMSINTERFACE | TX | ARWP | Lgv:5 StationName:PM_PR_PU Lev:1 OrderRef:L00006865052  LPN_1:GPCD4F22301A SKU_1:SKU empty Weight_1:3936 Height_1:0 Lenght_1:0 Width_1:0 Diameter_1:2641 LPN_2:LPN empty SKU_2:SKU empty Weight_2:0 Height_2:0 Lenght_2:0 Width_2:0 Diameter_2:0 LPN_3:LPN empty SKU_3:SKU empty Weight_3:0 Height_3:0 Lenght_3:0 Width_3:0 Diameter_3:0
	Line 3197: 2014-06-23 03.43.17.9833 | Trace | WMSINTERFACE | RX | PPOS | SourceStation:PM_PR_PU Pos:1 Row:1 Lev:1 OrderRef:L00006865052 PalletType:3 LPN:GPCD4F22301A SKU:R9181 Side:0 JoinMode:0 Diameter:2641 Weight:1802 Destination OpHeight:0
	Line 3220: 2014-06-23 03.44.37.1238 | Trace | WMSINTERFACE | TX | PKUP | Lgv:5 StationName:PM_PR_PU Pos:1 Row:1 Lev:1 OrderRef:L00006865052 LPN_1:GPCD4F22301A SKU_1:R9181 Side_1:0 Weight_1:1802 Height_1:2590 Lenght_1:3352 Width_1:3352 Diameter_1:2641 LPN_2:LPN empty SKU_2:SKU empty Side_2:0 Weight_2:0 Height_2:0 Lenght_2:0 Width_2:0 Diameter_2:0 LPN_3:LPN empty SKU_3:SKU empty Side_3:0 Weight_3:0 Height_3:0 Lenght_3:0 Width_3:0 Diameter_3:0
Search "GPCD4f22301a" (116 hits in 1 files)
  C:\Elettric80\Logs\LgvManager\Latest.txt (116 hits)
	Line 21237: 03.22.41.119 | Trace | OFFERING STATION - READ (new tracking): Station:PM_PR_PU Level:0 LPN:GPCD4F22301A SKU: Diameter:1040 Weight:3936 Status:0 ReasonCode:0
	Line 21266: 03.22.51.729 | Trace | OFFERING STATION - READ (update): Station:PM_PR_PU Level:0 LPN:GPCD4F22301A SKU: Diameter:1040 Weight:3936 Status:0 Reason:0
	Line 21297: 03.23.01.935 | Trace | OFFERING STATION - READ (update): Station:PM_PR_PU Level:0 LPN:GPCD4F22301A SKU: Diameter:1040 Weight:3936 Status:0 Reason:0
	Line 21313: 03.23.12.465 | Trace | OFFERING STATION - READ (update): Station:PM_PR_PU Level:0 LPN:GPCD4F22301A SKU: Diameter:1040 Weight:3936 Status:0 Reason:0
	Line 21350: 03.23.23.051 | Trace | OFFERING STATION - READ (update): Station:PM_PR_PU Level:0 LPN:GPCD4F22301A SKU: Diameter:1040 Weight:3936 Status:0 Reason:0
	Line 21371: 03.23.33.227 | Trace | OFFERING STATION - READ (update): Station:PM_PR_PU Level:0 LPN:GPCD4F22301A SKU: Diameter:1040 Weight:3936 Status:0 Reason:0
	Line 21398: 03.23.43.797 | Trace | OFFERING STATION - READ (update): Station:PM_PR_PU Level:0 LPN:GPCD4F22301A SKU: Diameter:1040 Weight:3936 Status:0 Reason:0
	Line 21416: 03.23.54.331 | Trace | OFFERING STATION - READ (update): Station:PM_PR_PU Level:0 LPN:GPCD4F22301A SKU: Diameter:1040 Weight:3936 Status:0 Reason:0
	Line 21431: 03.24.04.504 | Trace | OFFERING STATION - READ (update): Station:PM_PR_PU Level:0 LPN:GPCD4F22301A SKU: Diameter:1040 Weight:3936 Status:0 Reason:0
	Line 21447: 03.24.14.508 | Trace | OFFERING STATION - READ (update): Station:PM_PR_PU Level:0 LPN:GPCD4F22301A SKU: Diameter:1040 Weight:3936 Status:0 Reason:0
	Line 21460: 03.24.24.562 | Trace | OFFERING STATION - READ (update): Station:PM_PR_PU Level:0 LPN:GPCD4F22301A SKU: Diameter:1040 Weight:3936 Status:0 Reason:0
	Line 21486: 03.24.34.750 | Trace | OFFERING STATION - READ (update): Station:PM_PR_PU Level:0 LPN:GPCD4F22301A SKU: Diameter:1040 Weight:3936 Status:0 Reason:0
	Line 21524: 03.24.45.315 | Trace | OFFERING STATION - READ (update): Station:PM_PR_PU Level:0 LPN:GPCD4F22301A SKU: Diameter:1040 Weight:3936 Status:0 Reason:0
	Line 21553: 03.24.55.523 | Trace | OFFERING STATION - READ (update): Station:PM_PR_PU Level:0 LPN:GPCD4F22301A SKU: Diameter:1040 Weight:3936 Status:0 Reason:0
	Line 21567: 03.25.05.662 | Trace | OFFERING STATION - READ (update): Station:PM_PR_PU Level:0 LPN:GPCD4F22301A SKU: Diameter:1040 Weight:3936 Status:0 Reason:0
	Line 21597: 03.25.16.267 | Trace | OFFERING STATION - READ (update): Station:PM_PR_PU Level:0 LPN:GPCD4F22301A SKU: Diameter:1040 Weight:3936 Status:0 Reason:0
	Line 21612: 03.25.26.403 | Trace | OFFERING STATION - READ (update): Station:PM_PR_PU Level:0 LPN:GPCD4F22301A SKU: Diameter:1040 Weight:3936 Status:0 Reason:0
	Line 21629: 03.25.36.463 | Trace | OFFERING STATION - READ (update): Station:PM_PR_PU Level:0 LPN:GPCD4F22301A SKU: Diameter:1040 Weight:3936 Status:0 Reason:0
	Line 21652: 03.25.47.034 | Trace | OFFERING STATION - READ (update): Station:PM_PR_PU Level:0 LPN:GPCD4F22301A SKU: Diameter:1040 Weight:3936 Status:0 Reason:0
	Line 21670: 03.25.57.264 | Trace | OFFERING STATION - READ (update): Station:PM_PR_PU Level:0 LPN:GPCD4F22301A SKU: Diameter:1040 Weight:3936 Status:0 Reason:0
	Line 21687: 03.26.07.285 | Trace | OFFERING STATION - READ (update): Station:PM_PR_PU Level:0 LPN:GPCD4F22301A SKU: Diameter:1040 Weight:3936 Status:0 Reason:0
	Line 21720: 03.26.17.311 | Trace | OFFERING STATION - READ (update): Station:PM_PR_PU Level:0 LPN:GPCD4F22301A SKU: Diameter:1040 Weight:3936 Status:0 Reason:0
	Line 21744: 03.26.27.451 | Trace | OFFERING STATION - READ (update): Station:PM_PR_PU Level:0 LPN:GPCD4F22301A SKU: Diameter:1040 Weight:3936 Status:0 Reason:0
	Line 21768: 03.26.37.561 | Trace | OFFERING STATION - READ (update): Station:PM_PR_PU Level:0 LPN:GPCD4F22301A SKU: Diameter:1040 Weight:3936 Status:0 Reason:0
	Line 21796: 03.26.47.574 | Trace | OFFERING STATION - READ (update): Station:PM_PR_PU Level:0 LPN:GPCD4F22301A SKU: Diameter:1040 Weight:3936 Status:0 Reason:0
	Line 21829: 03.26.57.707 | Trace | OFFERING STATION - READ (update): Station:PM_PR_PU Level:0 LPN:GPCD4F22301A SKU: Diameter:1040 Weight:3936 Status:0 Reason:0
	Line 21847: 03.27.07.709 | Trace | OFFERING STATION - READ (update): Station:PM_PR_PU Level:0 LPN:GPCD4F22301A SKU: Diameter:1040 Weight:3936 Status:0 Reason:0
	Line 21868: 03.27.18.262 | Trace | OFFERING STATION - READ (update): Station:PM_PR_PU Level:0 LPN:GPCD4F22301A SKU: Diameter:1040 Weight:3936 Status:0 Reason:0
	Line 21890: 03.27.28.476 | Trace | OFFERING STATION - READ (update): Station:PM_PR_PU Level:0 LPN:GPCD4F22301A SKU: Diameter:1040 Weight:3936 Status:0 Reason:0
	Line 21920: 03.27.38.591 | Trace | OFFERING STATION - READ (update): Station:PM_PR_PU Level:0 LPN:GPCD4F22301A SKU: Diameter:1040 Weight:3936 Status:0 Reason:0
	Line 21935: 03.27.49.172 | Trace | OFFERING STATION - READ (update): Station:PM_PR_PU Level:0 LPN:GPCD4F22301A SKU: Diameter:1040 Weight:3936 Status:0 Reason:0
	Line 21967: 03.27.59.472 | Trace | OFFERING STATION - READ (update): Station:PM_PR_PU Level:0 LPN:GPCD4F22301A SKU: Diameter:1040 Weight:3936 Status:0 Reason:0
	Line 21980: 03.28.09.601 | Trace | OFFERING STATION - READ (update): Station:PM_PR_PU Level:0 LPN:GPCD4F22301A SKU: Diameter:1040 Weight:3936 Status:0 Reason:0
	Line 22024: 03.28.20.169 | Trace | OFFERING STATION - READ (update): Station:PM_PR_PU Level:0 LPN:GPCD4F22301A SKU: Diameter:1040 Weight:3936 Status:0 Reason:0
	Line 22051: 03.28.30.223 | Trace | OFFERING STATION - READ (update): Station:PM_PR_PU Level:0 LPN:GPCD4F22301A SKU: Diameter:1040 Weight:3936 Status:0 Reason:0
	Line 22067: 03.28.40.301 | Trace | OFFERING STATION - READ (update): Station:PM_PR_PU Level:0 LPN:GPCD4F22301A SKU: Diameter:1040 Weight:3936 Status:0 Reason:0
	Line 22109: 03.28.50.868 | Trace | OFFERING STATION - READ (update): Station:PM_PR_PU Level:0 LPN:GPCD4F22301A SKU: Diameter:1040 Weight:3936 Status:0 Reason:0
	Line 22270: 03.30.14.746 | Trace | OFFERING STATION - READ (new tracking): Station:PM_PR_PU Level:0 LPN:GPCD4F22301A SKU: Diameter:1040 Weight:3936 Status:0 ReasonCode:0
	Line 22290: 03.30.25.320 | Trace | OFFERING STATION - READ (update): Station:PM_PR_PU Level:0 LPN:GPCD4F22301A SKU: Diameter:1040 Weight:3936 Status:0 Reason:0
	Line 22308: 03.30.35.487 | Trace | OFFERING STATION - READ (update): Station:PM_PR_PU Level:0 LPN:GPCD4F22301A SKU: Diameter:1040 Weight:3936 Status:0 Reason:0
	Line 22327: 03.30.46.043 | Trace | OFFERING STATION - READ (update): Station:PM_PR_PU Level:0 LPN:GPCD4F22301A SKU: Diameter:1040 Weight:3936 Status:0 Reason:0
	Line 22339: 03.30.56.587 | Trace | OFFERING STATION - READ (update): Station:PM_PR_PU Level:0 LPN:GPCD4F22301A SKU: Diameter:1040 Weight:3936 Status:0 Reason:0
	Line 22355: 03.31.06.860 | Trace | OFFERING STATION - READ (update): Station:PM_PR_PU Level:0 LPN:GPCD4F22301A SKU: Diameter:1040 Weight:3936 Status:0 Reason:0
	Line 22373: 03.31.17.401 | Trace | OFFERING STATION - READ (update): Station:PM_PR_PU Level:0 LPN:GPCD4F22301A SKU: Diameter:1040 Weight:3936 Status:0 Reason:0
	Line 22394: 03.31.28.003 | Trace | OFFERING STATION - READ (update): Station:PM_PR_PU Level:0 LPN:GPCD4F22301A SKU: Diameter:1040 Weight:3936 Status:0 Reason:0
	Line 22413: 03.31.38.187 | Trace | OFFERING STATION - READ (update): Station:PM_PR_PU Level:0 LPN:GPCD4F22301A SKU: Diameter:1040 Weight:3936 Status:0 Reason:0
	Line 22424: 03.31.48.710 | Trace | OFFERING STATION - READ (update): Station:PM_PR_PU Level:0 LPN:GPCD4F22301A SKU: Diameter:1040 Weight:3936 Status:0 Reason:0
	Line 22440: 03.31.58.812 | Trace | OFFERING STATION - READ (update): Station:PM_PR_PU Level:0 LPN:GPCD4F22301A SKU: Diameter:1040 Weight:3936 Status:0 Reason:0
	Line 22461: 03.32.09.015 | Trace | OFFERING STATION - READ (update): Station:PM_PR_PU Level:0 LPN:GPCD4F22301A SKU: Diameter:1040 Weight:3936 Status:0 Reason:0
	Line 22473: 03.32.19.569 | Trace | OFFERING STATION - READ (update): Station:PM_PR_PU Level:0 LPN:GPCD4F22301A SKU: Diameter:1040 Weight:3936 Status:0 Reason:0
	Line 22498: 03.32.29.733 | Trace | OFFERING STATION - READ (update): Station:PM_PR_PU Level:0 LPN:GPCD4F22301A SKU: Diameter:1040 Weight:3936 Status:0 Reason:0
	Line 22506: 03.32.39.836 | Trace | OFFERING STATION - READ (update): Station:PM_PR_PU Level:0 LPN:GPCD4F22301A SKU: Diameter:1040 Weight:3936 Status:0 Reason:0
	Line 22530: 03.32.50.395 | Trace | OFFERING STATION - READ (update): Station:PM_PR_PU Level:0 LPN:GPCD4F22301A SKU: Diameter:1040 Weight:3936 Status:0 Reason:0
	Line 22539: 03.33.00.520 | Trace | OFFERING STATION - READ (update): Station:PM_PR_PU Level:0 LPN:GPCD4F22301A SKU: Diameter:1040 Weight:3936 Status:0 Reason:0
	Line 22551: 03.33.10.616 | Trace | OFFERING STATION - READ (update): Station:PM_PR_PU Level:0 LPN:GPCD4F22301A SKU: Diameter:1040 Weight:3936 Status:0 Reason:0
	Line 22567: 03.33.21.168 | Trace | OFFERING STATION - READ (update): Station:PM_PR_PU Level:0 LPN:GPCD4F22301A SKU: Diameter:1040 Weight:3936 Status:0 Reason:0
	Line 22587: 03.33.31.381 | Trace | OFFERING STATION - READ (update): Station:PM_PR_PU Level:0 LPN:GPCD4F22301A SKU: Diameter:1040 Weight:3936 Status:0 Reason:0
	Line 22598: 03.33.41.439 | Trace | OFFERING STATION - READ (update): Station:PM_PR_PU Level:0 LPN:GPCD4F22301A SKU: Diameter:1040 Weight:3936 Status:0 Reason:0
	Line 22623: 03.33.52.019 | Trace | OFFERING STATION - READ (update): Station:PM_PR_PU Level:0 LPN:GPCD4F22301A SKU: Diameter:1040 Weight:3936 Status:0 Reason:0
	Line 22638: 03.34.02.231 | Trace | OFFERING STATION - READ (update): Station:PM_PR_PU Level:0 LPN:GPCD4F22301A SKU: Diameter:1040 Weight:3936 Status:0 Reason:0
	Line 22656: 03.34.12.454 | Trace | OFFERING STATION - READ (update): Station:PM_PR_PU Level:0 LPN:GPCD4F22301A SKU: Diameter:1040 Weight:3936 Status:0 Reason:0
	Line 22666: 03.34.22.474 | Trace | OFFERING STATION - READ (update): Station:PM_PR_PU Level:0 LPN:GPCD4F22301A SKU: Diameter:1040 Weight:3936 Status:0 Reason:0
	Line 22686: 03.34.32.625 | Trace | OFFERING STATION - READ (update): Station:PM_PR_PU Level:0 LPN:GPCD4F22301A SKU: Diameter:1040 Weight:3936 Status:0 Reason:0
	Line 22706: 03.34.42.751 | Trace | OFFERING STATION - READ (update): Station:PM_PR_PU Level:0 LPN:GPCD4F22301A SKU: Diameter:1040 Weight:3936 Status:0 Reason:0
	Line 22724: 03.34.53.342 | Trace | OFFERING STATION - READ (update): Station:PM_PR_PU Level:0 LPN:GPCD4F22301A SKU: Diameter:1040 Weight:3936 Status:0 Reason:0
	Line 22732: 03.35.03.513 | Trace | OFFERING STATION - READ (update): Station:PM_PR_PU Level:0 LPN:GPCD4F22301A SKU: Diameter:1040 Weight:3936 Status:0 Reason:0
	Line 22740: 03.35.13.581 | Trace | OFFERING STATION - READ (update): Station:PM_PR_PU Level:0 LPN:GPCD4F22301A SKU: Diameter:1040 Weight:3936 Status:0 Reason:0
	Line 22748: 03.35.23.588 | Trace | OFFERING STATION - READ (update): Station:PM_PR_PU Level:0 LPN:GPCD4F22301A SKU: Diameter:1040 Weight:3936 Status:0 Reason:0
	Line 22771: 03.35.33.772 | Trace | OFFERING STATION - READ (update): Station:PM_PR_PU Level:0 LPN:GPCD4F22301A SKU: Diameter:1040 Weight:3936 Status:0 Reason:0
	Line 22787: 03.35.43.935 | Trace | OFFERING STATION - READ (update): Station:PM_PR_PU Level:0 LPN:GPCD4F22301A SKU: Diameter:1040 Weight:3936 Status:0 Reason:0
	Line 22809: 03.35.53.973 | Trace | OFFERING STATION - READ (update): Station:PM_PR_PU Level:0 LPN:GPCD4F22301A SKU: Diameter:1040 Weight:3936 Status:0 Reason:0
	Line 22827: 03.36.04.131 | Trace | OFFERING STATION - READ (update): Station:PM_PR_PU Level:0 LPN:GPCD4F22301A SKU: Diameter:1040 Weight:3936 Status:0 Reason:0
	Line 22840: 03.36.14.224 | Trace | OFFERING STATION - READ (update): Station:PM_PR_PU Level:0 LPN:GPCD4F22301A SKU: Diameter:1040 Weight:3936 Status:0 Reason:0
	Line 22848: 03.36.24.744 | Trace | OFFERING STATION - READ (update): Station:PM_PR_PU Level:0 LPN:GPCD4F22301A SKU: Diameter:1040 Weight:3936 Status:0 Reason:0
	Line 22854: 03.36.34.913 | Trace | OFFERING STATION - READ (update): Station:PM_PR_PU Level:0 LPN:GPCD4F22301A SKU: Diameter:1040 Weight:3936 Status:0 Reason:0
	Line 22865: 03.36.45.085 | Trace | OFFERING STATION - READ (update): Station:PM_PR_PU Level:0 LPN:GPCD4F22301A SKU: Diameter:1040 Weight:3936 Status:0 Reason:0
	Line 22883: 03.36.55.190 | Trace | OFFERING STATION - READ (update): Station:PM_PR_PU Level:0 LPN:GPCD4F22301A SKU: Diameter:1040 Weight:3936 Status:0 Reason:0
	Line 22906: 03.37.05.363 | Trace | OFFERING STATION - READ (update): Station:PM_PR_PU Level:0 LPN:GPCD4F22301A SKU: Diameter:1040 Weight:3936 Status:0 Reason:0
	Line 22940: 03.37.15.500 | Trace | OFFERING STATION - READ (update): Station:PM_PR_PU Level:0 LPN:GPCD4F22301A SKU: Diameter:1040 Weight:3936 Status:0 Reason:0
	Line 22948: 03.37.26.036 | Trace | OFFERING STATION - READ (update): Station:PM_PR_PU Level:0 LPN:GPCD4F22301A SKU: Diameter:1040 Weight:3936 Status:0 Reason:0
	Line 22962: 03.37.36.272 | Trace | OFFERING STATION - READ (update): Station:PM_PR_PU Level:0 LPN:GPCD4F22301A SKU: Diameter:1040 Weight:3936 Status:0 Reason:0
	Line 22982: 03.37.46.850 | Trace | OFFERING STATION - READ (update): Station:PM_PR_PU Level:0 LPN:GPCD4F22301A SKU: Diameter:1040 Weight:3936 Status:0 Reason:0
	Line 23014: 03.37.57.432 | Trace | OFFERING STATION - READ (update): Station:PM_PR_PU Level:0 LPN:GPCD4F22301A SKU: Diameter:1040 Weight:3936 Status:0 Reason:0
	Line 23030: 03.38.07.679 | Trace | OFFERING STATION - READ (update): Station:PM_PR_PU Level:0 LPN:GPCD4F22301A SKU: Diameter:1040 Weight:3936 Status:0 Reason:0
	Line 23039: 03.38.17.727 | Trace | OFFERING STATION - READ (update): Station:PM_PR_PU Level:0 LPN:GPCD4F22301A SKU: Diameter:1040 Weight:3936 Status:0 Reason:0
	Line 23053: 03.38.28.306 | Trace | OFFERING STATION - READ (update): Station:PM_PR_PU Level:0 LPN:GPCD4F22301A SKU: Diameter:1040 Weight:3936 Status:0 Reason:0
	Line 23068: 03.38.38.653 | Trace | OFFERING STATION - READ (update): Station:PM_PR_PU Level:0 LPN:GPCD4F22301A SKU: Diameter:1040 Weight:3936 Status:0 Reason:0
	Line 23097: 03.38.48.714 | Trace | OFFERING STATION - READ (update): Station:PM_PR_PU Level:0 LPN:GPCD4F22301A SKU: Diameter:1040 Weight:3936 Status:0 Reason:0
	Line 23112: 03.38.58.757 | Trace | OFFERING STATION - READ (update): Station:PM_PR_PU Level:0 LPN:GPCD4F22301A SKU: Diameter:1040 Weight:3936 Status:0 Reason:0
	Line 23134: 03.39.09.014 | Trace | OFFERING STATION - READ (update): Station:PM_PR_PU Level:0 LPN:GPCD4F22301A SKU: Diameter:1040 Weight:3936 Status:0 Reason:0
	Line 23144: 03.39.19.022 | Trace | OFFERING STATION - READ (update): Station:PM_PR_PU Level:0 LPN:GPCD4F22301A SKU: Diameter:1040 Weight:3936 Status:0 Reason:0
	Line 23158: 03.39.29.127 | Trace | OFFERING STATION - READ (update): Station:PM_PR_PU Level:0 LPN:GPCD4F22301A SKU: Diameter:1040 Weight:3936 Status:0 Reason:0
	Line 23166: 03.39.39.327 | Trace | OFFERING STATION - READ (update): Station:PM_PR_PU Level:0 LPN:GPCD4F22301A SKU: Diameter:1040 Weight:3936 Status:0 Reason:0
	Line 23180: 03.39.49.350 | Trace | OFFERING STATION - READ (update): Station:PM_PR_PU Level:0 LPN:GPCD4F22301A SKU: Diameter:1040 Weight:3936 Status:0 Reason:0
	Line 23189: 03.39.59.908 | Trace | OFFERING STATION - READ (update): Station:PM_PR_PU Level:0 LPN:GPCD4F22301A SKU: Diameter:1040 Weight:3936 Status:0 Reason:0
	Line 23210: 03.40.10.093 | Trace | OFFERING STATION - READ (update): Station:PM_PR_PU Level:0 LPN:GPCD4F22301A SKU: Diameter:1040 Weight:3936 Status:0 Reason:0
	Line 23231: 03.40.20.154 | Trace | OFFERING STATION - READ (update): Station:PM_PR_PU Level:0 LPN:GPCD4F22301A SKU: Diameter:1040 Weight:3936 Status:0 Reason:0
	Line 23256: 03.40.30.203 | Trace | OFFERING STATION - READ (update): Station:PM_PR_PU Level:0 LPN:GPCD4F22301A SKU: Diameter:1040 Weight:3936 Status:0 Reason:0
	Line 23270: 03.40.40.426 | Trace | OFFERING STATION - READ (update): Station:PM_PR_PU Level:0 LPN:GPCD4F22301A SKU: Diameter:1040 Weight:3936 Status:0 Reason:0
	Line 23296: 03.40.51.050 | Trace | OFFERING STATION - READ (update): Station:PM_PR_PU Level:0 LPN:GPCD4F22301A SKU: Diameter:1040 Weight:3936 Status:0 Reason:0
	Line 23304: 03.41.01.627 | Trace | OFFERING STATION - READ (update): Station:PM_PR_PU Level:0 LPN:GPCD4F22301A SKU: Diameter:1040 Weight:3936 Status:0 Reason:0
	Line 23325: 03.41.11.869 | Trace | OFFERING STATION - READ (update): Station:PM_PR_PU Level:0 LPN:GPCD4F22301A SKU: Diameter:1040 Weight:3936 Status:0 Reason:0
	Line 23341: 03.41.21.872 | Trace | OFFERING STATION - READ (update): Station:PM_PR_PU Level:0 LPN:GPCD4F22301A SKU: Diameter:1040 Weight:3936 Status:0 Reason:0
	Line 23360: 03.41.31.901 | Trace | OFFERING STATION - READ (update): Station:PM_PR_PU Level:0 LPN:GPCD4F22301A SKU: Diameter:1040 Weight:3936 Status:0 Reason:0
	Line 23371: 03.41.42.123 | Trace | OFFERING STATION - READ (update): Station:PM_PR_PU Level:0 LPN:GPCD4F22301A SKU: Diameter:1040 Weight:3936 Status:0 Reason:0
	Line 23387: 03.41.52.645 | Trace | OFFERING STATION - READ (update): Station:PM_PR_PU Level:0 LPN:GPCD4F22301A SKU: Diameter:1040 Weight:3936 Status:0 Reason:0
	Line 23408: 03.42.02.662 | Trace | OFFERING STATION - READ (update): Station:PM_PR_PU Level:0 LPN:GPCD4F22301A SKU: Diameter:1040 Weight:3936 Status:0 Reason:0
	Line 23417: 03.42.12.859 | Trace | OFFERING STATION - READ (update): Station:PM_PR_PU Level:0 LPN:GPCD4F22301A SKU: Diameter:1040 Weight:3936 Status:0 Reason:0
	Line 23448: 03.42.23.408 | Trace | OFFERING STATION - READ (update): Station:PM_PR_PU Level:0 LPN:GPCD4F22301A SKU: Diameter:1040 Weight:3936 Status:0 Reason:0
	Line 23470: 03.42.33.472 | Trace | OFFERING STATION - READ (update): Station:PM_PR_PU Level:0 LPN:GPCD4F22301A SKU: Diameter:1040 Weight:3936 Status:0 Reason:0
	Line 23485: 03.42.43.729 | Trace | OFFERING STATION - READ (update): Station:PM_PR_PU Level:0 LPN:GPCD4F22301A SKU: Diameter:1040 Weight:3936 Status:0 Reason:0
	Line 23499: 03.42.53.774 | Trace | OFFERING STATION - READ (update): Station:PM_PR_PU Level:0 LPN:GPCD4F22301A SKU: Diameter:1040 Weight:3936 Status:0 Reason:0
	Line 23513: 03.43.03.794 | Trace | OFFERING STATION - READ (update): Station:PM_PR_PU Level:0 LPN:GPCD4F22301A SKU: Diameter:1040 Weight:3936 Status:0 Reason:0
	Line 23526: 03.43.13.905 | Trace | OFFERING STATION - READ (update): Station:PM_PR_PU Level:0 LPN:GPCD4F22301A SKU: Diameter:1040 Weight:3936 Status:0 Reason:0
	Line 23533: 03.43.18.586 | Trace | OFFERING STATION - READ (update): Station:PM_PR_PU Level:0 LPN:GPCD4F22301A SKU: Diameter:1040 Weight:3936 Status:0 Reason:0
	Line 62406: 04.34.31.205 | Info | 891371 | Moving tracking GPCD4F22301A from LGV05 [1,1,1] to CARWASH_CLAMPS [1,1,1]

C:\Elettric80\Logs\Wms\Info.log (48 hits)
	Line 5455: 03.22.41.864 | Info | Message received from Lgvcs: 20140623032241CPCROE80MSTRD1      L00000009075STSTPM_PR_PU            00100100100000000000000000000001GPCD4F22301A                            00000100000000000000000000026410039360000000000000000000                                        00000000000000000000000000000000000000000000000000000000                                        0000000000000000000000000000000000000000000000000000000
	Line 5456: 03.22.41.864 | Info | Processing messsage 20140623032241CPCROE80MSTRD1      L00000009075STSTPM_PR_PU            00100100100000000000000000000001GPCD4F22301A                            00000100000000000000000000026410039360000000000000000000                                        00000000000000000000000000000000000000000000000000000000                                        0000000000000000000000000000000000000000000000000000000
	Line 5473: 03.23.07.859 | Info | Message received from Lgvcs: 20140623032307CPCROE80MSTRD1      L00000009080STSTPM_PR_PU            00100100100000000000000000000001GPCD4F22301A                            00000100000000000000000000026410039360000000000000000000                                        00000000000000000000000000000000000000000000000000000000                                        0000000000000000000000000000000000000000000000000000000
	Line 5474: 03.23.07.859 | Info | Processing messsage 20140623032307CPCROE80MSTRD1      L00000009080STSTPM_PR_PU            00100100100000000000000000000001GPCD4F22301A                            00000100000000000000000000026410039360000000000000000000                                        00000000000000000000000000000000000000000000000000000000                                        0000000000000000000000000000000000000000000000000000000
	Line 5493: 03.23.33.767 | Info | Message received from Lgvcs: 20140623032333CPCROE80MSTRD1      L00000009086STSTPM_PR_PU            00100100100000000000000000000001GPCD4F22301A                            00000100000000000000000000026410039360000000000000000000                                        00000000000000000000000000000000000000000000000000000000                                        0000000000000000000000000000000000000000000000000000000
	Line 5494: 03.23.33.767 | Info | Processing messsage 20140623032333CPCROE80MSTRD1      L00000009086STSTPM_PR_PU            00100100100000000000000000000001GPCD4F22301A                            00000100000000000000000000026410039360000000000000000000                                        00000000000000000000000000000000000000000000000000000000                                        0000000000000000000000000000000000000000000000000000000
	Line 5507: 03.23.59.127 | Info | Message received from Lgvcs: 20140623032359CPCROE80MSTRD1      L00000009090STSTPM_PR_PU            00100100100000000000000000000001GPCD4F22301A                            00000100000000000000000000026410039360000000000000000000                                        00000000000000000000000000000000000000000000000000000000                                        0000000000000000000000000000000000000000000000000000000
	Line 5508: 03.23.59.127 | Info | Processing messsage 20140623032359CPCROE80MSTRD1      L00000009090STSTPM_PR_PU            00100100100000000000000000000001GPCD4F22301A                            00000100000000000000000000026410039360000000000000000000                                        00000000000000000000000000000000000000000000000000000000                                        0000000000000000000000000000000000000000000000000000000
	Line 5517: 03.24.25.122 | Info | Message received from Lgvcs: 20140623032425CPCROE80MSTRD1      L00000009093STSTPM_PR_PU            00100100100000000000000000000001GPCD4F22301A                            00000100000000000000000000026410039360000000000000000000                                        00000000000000000000000000000000000000000000000000000000                                        0000000000000000000000000000000000000000000000000000000
	Line 5518: 03.24.25.122 | Info | Processing messsage 20140623032425CPCROE80MSTRD1      L00000009093STSTPM_PR_PU            00100100100000000000000000000001GPCD4F22301A                            00000100000000000000000000026410039360000000000000000000                                        00000000000000000000000000000000000000000000000000000000                                        0000000000000000000000000000000000000000000000000000000
	Line 5561: 03.25.26.172 | Info | Message received from Lgvcs: 20140623032526CPCROE80MSTRD1      L00000009105STSTPM_PR_PU            00100100100000000000000000000001GPCD4F22301A                            00000100000000000000000000026410039360000000000000000000                                        00000000000000000000000000000000000000000000000000000000                                        0000000000000000000000000000000000000000000000000000000
	Line 5562: 03.25.26.172 | Info | Processing messsage 20140623032526CPCROE80MSTRD1      L00000009105STSTPM_PR_PU            00100100100000000000000000000001GPCD4F22301A                            00000100000000000000000000026410039360000000000000000000                                        00000000000000000000000000000000000000000000000000000000                                        0000000000000000000000000000000000000000000000000000000
	Line 5597: 03.26.27.033 | Info | Message received from Lgvcs: 20140623032627CPCROE80MSTRD1      L00000009116STSTPM_PR_PU            00100100100000000000000000000001GPCD4F22301A                            00000100000000000000000000026410039360000000000000000000                                        00000000000000000000000000000000000000000000000000000000                                        0000000000000000000000000000000000000000000000000000000
	Line 5598: 03.26.27.033 | Info | Processing messsage 20140623032627CPCROE80MSTRD1      L00000009116STSTPM_PR_PU            00100100100000000000000000000001GPCD4F22301A                            00000100000000000000000000026410039360000000000000000000                                        00000000000000000000000000000000000000000000000000000000                                        0000000000000000000000000000000000000000000000000000000
	Line 5633: 03.27.27.125 | Info | Message received from Lgvcs: 20140623032727CPCROE80MSTRD1      L00000009126STSTPM_PR_PU            00100100100000000000000000000001GPCD4F22301A                            00000100000000000000000000026410039360000000000000000000                                        00000000000000000000000000000000000000000000000000000000                                        0000000000000000000000000000000000000000000000000000000
	Line 5634: 03.27.27.125 | Info | Processing messsage 20140623032727CPCROE80MSTRD1      L00000009126STSTPM_PR_PU            00100100100000000000000000000001GPCD4F22301A                            00000100000000000000000000026410039360000000000000000000                                        00000000000000000000000000000000000000000000000000000000                                        0000000000000000000000000000000000000000000000000000000
	Line 5667: 03.28.27.793 | Info | Message received from Lgvcs: 20140623032827CPCROE80MSTRD1      L00000009136STSTPM_PR_PU            00100100100000000000000000000001GPCD4F22301A                            00000100000000000000000000026410039360000000000000000000                                        00000000000000000000000000000000000000000000000000000000                                        0000000000000000000000000000000000000000000000000000000
	Line 5668: 03.28.27.793 | Info | Processing messsage 20140623032827CPCROE80MSTRD1      L00000009136STSTPM_PR_PU            00100100100000000000000000000001GPCD4F22301A                            00000100000000000000000000026410039360000000000000000000                                        00000000000000000000000000000000000000000000000000000000                                        0000000000000000000000000000000000000000000000000000000
	Line 5729: 03.30.15.923 | Info | Message received from Lgvcs: 20140623033015CPCROE80MSTRD1      L00000009152STSTPM_PR_PU            00100100100000000000000000000001GPCD4F22301A                            00000100000000000000000000026410039360000000000000000000                                        00000000000000000000000000000000000000000000000000000000                                        0000000000000000000000000000000000000000000000000000000
	Line 5730: 03.30.15.923 | Info | Processing messsage 20140623033015CPCROE80MSTRD1      L00000009152STSTPM_PR_PU            00100100100000000000000000000001GPCD4F22301A                            00000100000000000000000000026410039360000000000000000000                                        00000000000000000000000000000000000000000000000000000000                                        0000000000000000000000000000000000000000000000000000000
	Line 5753: 03.31.16.688 | Info | Message received from Lgvcs: 20140623033116CPCROE80MSTRD1      L00000009159STSTPM_PR_PU            00100100100000000000000000000001GPCD4F22301A                            00000100000000000000000000026410039360000000000000000000                                        00000000000000000000000000000000000000000000000000000000                                        0000000000000000000000000000000000000000000000000000000
	Line 5754: 03.31.16.688 | Info | Processing messsage 20140623033116CPCROE80MSTRD1      L00000009159STSTPM_PR_PU            00100100100000000000000000000001GPCD4F22301A                            00000100000000000000000000026410039360000000000000000000                                        00000000000000000000000000000000000000000000000000000000                                        0000000000000000000000000000000000000000000000000000000
	Line 5769: 03.32.16.927 | Info | Message received from Lgvcs: 20140623033216CPCROE80MSTRD1      L00000009163STSTPM_PR_PU            00100100100000000000000000000001GPCD4F22301A                            00000100000000000000000000026410039360000000000000000000                                        00000000000000000000000000000000000000000000000000000000                                        0000000000000000000000000000000000000000000000000000000
	Line 5770: 03.32.16.927 | Info | Processing messsage 20140623033216CPCROE80MSTRD1      L00000009163STSTPM_PR_PU            00100100100000000000000000000001GPCD4F22301A                            00000100000000000000000000026410039360000000000000000000                                        00000000000000000000000000000000000000000000000000000000                                        0000000000000000000000000000000000000000000000000000000
	Line 5799: 03.33.18.045 | Info | Message received from Lgvcs: 20140623033317CPCROE80MSTRD1      L00000009171STSTPM_PR_PU            00100100100000000000000000000001GPCD4F22301A                            00000100000000000000000000026410039360000000000000000000                                        00000000000000000000000000000000000000000000000000000000                                        0000000000000000000000000000000000000000000000000000000
	Line 5800: 03.33.18.045 | Info | Processing messsage 20140623033317CPCROE80MSTRD1      L00000009171STSTPM_PR_PU            00100100100000000000000000000001GPCD4F22301A                            00000100000000000000000000026410039360000000000000000000                                        00000000000000000000000000000000000000000000000000000000                                        0000000000000000000000000000000000000000000000000000000
	Line 5819: 03.34.18.886 | Info | Message received from Lgvcs: 20140623033418CPCROE80MSTRD1      L00000009177STSTPM_PR_PU            00100100100000000000000000000001GPCD4F22301A                            00000100000000000000000000026410039360000000000000000000                                        00000000000000000000000000000000000000000000000000000000                                        0000000000000000000000000000000000000000000000000000000
	Line 5820: 03.34.18.886 | Info | Processing messsage 20140623033418CPCROE80MSTRD1      L00000009177STSTPM_PR_PU            00100100100000000000000000000001GPCD4F22301A                            00000100000000000000000000026410039360000000000000000000                                        00000000000000000000000000000000000000000000000000000000                                        0000000000000000000000000000000000000000000000000000000
	Line 5835: 03.35.19.086 | Info | Message received from Lgvcs: 20140623033519CPCROE80MSTRD1      L00000009181STSTPM_PR_PU            00100100100000000000000000000001GPCD4F22301A                            00000100000000000000000000026410039360000000000000000000                                        00000000000000000000000000000000000000000000000000000000                                        0000000000000000000000000000000000000000000000000000000
	Line 5836: 03.35.19.086 | Info | Processing messsage 20140623033519CPCROE80MSTRD1      L00000009181STSTPM_PR_PU            00100100100000000000000000000001GPCD4F22301A                            00000100000000000000000000026410039360000000000000000000                                        00000000000000000000000000000000000000000000000000000000                                        0000000000000000000000000000000000000000000000000000000
	Line 5865: 03.36.20.038 | Info | Message received from Lgvcs: 20140623033620CPCROE80MSTRD1      L00000009189STSTPM_PR_PU            00100100100000000000000000000001GPCD4F22301A                            00000100000000000000000000026410039360000000000000000000                                        00000000000000000000000000000000000000000000000000000000                                        0000000000000000000000000000000000000000000000000000000
	Line 5866: 03.36.20.038 | Info | Processing messsage 20140623033620CPCROE80MSTRD1      L00000009189STSTPM_PR_PU            00100100100000000000000000000001GPCD4F22301A                            00000100000000000000000000026410039360000000000000000000                                        00000000000000000000000000000000000000000000000000000000                                        0000000000000000000000000000000000000000000000000000000
	Line 5887: 03.37.21.011 | Info | Message received from Lgvcs: 20140623033721CPCROE80MSTRD1      L00000009195STSTPM_PR_PU            00100100100000000000000000000001GPCD4F22301A                            00000100000000000000000000026410039360000000000000000000                                        00000000000000000000000000000000000000000000000000000000                                        0000000000000000000000000000000000000000000000000000000
	Line 5888: 03.37.21.011 | Info | Processing messsage 20140623033721CPCROE80MSTRD1      L00000009195STSTPM_PR_PU            00100100100000000000000000000001GPCD4F22301A                            00000100000000000000000000026410039360000000000000000000                                        00000000000000000000000000000000000000000000000000000000                                        0000000000000000000000000000000000000000000000000000000
	Line 5923: 03.38.21.856 | Info | Message received from Lgvcs: 20140623033821CPCROE80MSTRD1      L00000009204STSTPM_PR_PU            00100100100000000000000000000001GPCD4F22301A                            00000100000000000000000000026410039360000000000000000000                                        00000000000000000000000000000000000000000000000000000000                                        0000000000000000000000000000000000000000000000000000000
	Line 5924: 03.38.21.856 | Info | Processing messsage 20140623033821CPCROE80MSTRD1      L00000009204STSTPM_PR_PU            00100100100000000000000000000001GPCD4F22301A                            00000100000000000000000000026410039360000000000000000000                                        00000000000000000000000000000000000000000000000000000000                                        0000000000000000000000000000000000000000000000000000000
	Line 5947: 03.39.22.858 | Info | Message received from Lgvcs: 20140623033922CPCROE80MSTRD1      L00000009212STSTPM_PR_PU            00100100100000000000000000000001GPCD4F22301A                            00000100000000000000000000026410039360000000000000000000                                        00000000000000000000000000000000000000000000000000000000                                        0000000000000000000000000000000000000000000000000000000
	Line 5948: 03.39.22.858 | Info | Processing messsage 20140623033922CPCROE80MSTRD1      L00000009212STSTPM_PR_PU            00100100100000000000000000000001GPCD4F22301A                            00000100000000000000000000026410039360000000000000000000                                        00000000000000000000000000000000000000000000000000000000                                        0000000000000000000000000000000000000000000000000000000
	Line 5971: 03.40.24.398 | Info | Message received from Lgvcs: 20140623034023CPCROE80MSTRD1      L00000009219STSTPM_PR_PU            00100100100000000000000000000001GPCD4F22301A                            00000100000000000000000000026410039360000000000000000000                                        00000000000000000000000000000000000000000000000000000000                                        0000000000000000000000000000000000000000000000000000000
	Line 5972: 03.40.24.398 | Info | Processing messsage 20140623034023CPCROE80MSTRD1      L00000009219STSTPM_PR_PU            00100100100000000000000000000001GPCD4F22301A                            00000100000000000000000000026410039360000000000000000000                                        00000000000000000000000000000000000000000000000000000000                                        0000000000000000000000000000000000000000000000000000000
	Line 5999: 03.41.23.640 | Info | Message received from Lgvcs: 20140623034123CPCROE80MSTRD1      L00000009226STSTPM_PR_PU            00100100100000000000000000000001GPCD4F22301A                            00000100000000000000000000026410039360000000000000000000                                        00000000000000000000000000000000000000000000000000000000                                        0000000000000000000000000000000000000000000000000000000
	Line 6000: 03.41.23.640 | Info | Processing messsage 20140623034123CPCROE80MSTRD1      L00000009226STSTPM_PR_PU            00100100100000000000000000000001GPCD4F22301A                            00000100000000000000000000026410039360000000000000000000                                        00000000000000000000000000000000000000000000000000000000                                        0000000000000000000000000000000000000000000000000000000
	Line 6035: 03.42.24.073 | Info | Message received from Lgvcs: 20140623034224CPCROE80MSTRD1      L00000009236STSTPM_PR_PU            00100100100000000000000000000001GPCD4F22301A                            00000100000000000000000000026410039360000000000000000000                                        00000000000000000000000000000000000000000000000000000000                                        0000000000000000000000000000000000000000000000000000000
	Line 6036: 03.42.24.073 | Info | Processing messsage 20140623034224CPCROE80MSTRD1      L00000009236STSTPM_PR_PU            00100100100000000000000000000001GPCD4F22301A                            00000100000000000000000000026410039360000000000000000000                                        00000000000000000000000000000000000000000000000000000000                                        0000000000000000000000000000000000000000000000000000000
	Line 6053: 03.43.16.687 | Info | Message received from Lgvcs: 20140623034316CPCROE80MSTRD1      L00000009240ARWPL0000686505200005PM_PR_PU            00100100100000000000000000000001GPCD4F22301A                            00000100000000000000000000026410039360030000000000000000                                        00000000000000000000000000000000000000000000000000000000                                        0000000000000000000000000000000000000000000000000000000
	Line 6054: 03.43.16.687 | Info | Processing messsage 20140623034316CPCROE80MSTRD1      L00000009240ARWPL0000686505200005PM_PR_PU            00100100100000000000000000000001GPCD4F22301A                            00000100000000000000000000026410039360030000000000000000                                        00000000000000000000000000000000000000000000000000000000                                        0000000000000000000000000000000000000000000000000000000
	Line 6093: 03.44.37.123 | Info | Message received from Lgvcs: 20140623034437CPCROE80MSTRD1      L00000009252PKUPL0000686505200005PM_PR_PU            00100100100000000000000000000001GPCD4F22301A        R9181               00000100033520033520025900026410018020030000000011000010                                        00000000000000000000000000000000000000000000000000000000                                        0000000000000000000000000000000000000000000000000000000
	Line 6094: 03.44.37.124 | Info | Processing messsage 20140623034437CPCROE80MSTRD1      L00000009252PKUPL0000686505200005PM_PR_PU            00100100100000000000000000000001GPCD4F22301A        R9181               00000100033520033520025900026410018020030000000011000010                                        00000000000000000000000000000000000000000000000000000000                                        0000000000000000000000000000000000000000000000000000000