RSLinx Classic v2.56.13.00 started Wednesday, April 02, 2014   08:54:28 AM
Log written Friday, April 04, 2014   11:24:27 AM

AB_ETHIP-1\0.(172.20.2.150).1.0 : TxLgv[0],L210 : 04/02/14 - 10:24:56 : 1E00204h
	Items: TxLgv[0],L210
	Type: READ
	Mfg: Allen-Bradley
	PlcType: Logix5000
	Desc: CIP Messaging Error: a message timed out waiting for a response
	Number of occurrences: 4
	Last Error occurred: 04/04/14 - 09:53:09
TransferPoint1 : RxLgv[0],L10 : 04/02/14 - 10:24:56 : 1E00204h
	Items: RxLgv[0],L10
	Type: WRITE
	Mfg: Allen-Bradley
	PlcType: Logix5000
	Desc: CIP Messaging Error: a message timed out waiting for a response
	Number of occurrences: 7
	Last Error occurred: 04/04/14 - 09:53:09
AB_ETH-1\0.(172.23.97.66).1.0 : -none- : 04/02/14 - 12:55:25 : 00h
	Items: -none-
	Type: READ
	Mfg: Allen-Bradley
	PlcType: Logix5000
	Desc: Online change was made to tag information.
	Number of occurrences: 1
	Last Error occurred: 04/02/14 - 12:55:25
AB_ETH-1\0.(172.23.97.66).1.0 : -none- : 04/02/14 - 12:57:33 : 00h
	Items: -none-
	Type: READ
	Mfg: Allen-Bradley
	PlcType: Logix5000
	Desc: Online change was made to tag information.
	Number of occurrences: 1
	Last Error occurred: 04/02/14 - 12:57:33
AB_ETHIP-1\0.(172.20.2.151).1.0 : TxLgv[0],L210 : 04/02/14 - 16:15:15 : 1E00204h
	Items: TxLgv[0],L210
	Type: READ
	Mfg: Allen-Bradley
	PlcType: Logix5000
	Desc: CIP Messaging Error: a message timed out waiting for a response
	Number of occurrences: 8
	Last Error occurred: 04/04/14 - 08:29:24
AB_ETHIP-1\0.(172.20.2.151).1.0 : RxLgv[0],L10 : 04/02/14 - 16:15:15 : 1E00204h
	Items: RxLgv[0],L10
	Type: READ
	Mfg: Allen-Bradley
	PlcType: Logix5000
	Desc: CIP Messaging Error: a message timed out waiting for a response
	Number of occurrences: 11
	Last Error occurred: 04/04/14 - 08:31:01
TransferPoint2 : RxLgv[0],L10 : 04/02/14 - 16:15:16 : 1E00204h
	Items: RxLgv[0],L10
	Type: WRITE
	Mfg: Allen-Bradley
	PlcType: Logix5000
	Desc: CIP Messaging Error: a message timed out waiting for a response
	Number of occurrences: 15
	Last Error occurred: 04/04/14 - 08:31:42
AB_ETHIP-1\0.(172.20.2.151).1.0 : RxLgv[10],L200 : 04/02/14 - 18:43:03 : 1E00204h
	Items: RxLgv[10],L200
	Type: READ
	Mfg: Allen-Bradley
	PlcType: Logix5000
	Desc: CIP Messaging Error: a message timed out waiting for a response
	Number of occurrences: 9
	Last Error occurred: 04/04/14 - 07:38:17
AB_ETHIP-1\0.(172.20.2.151).1.0 : RxLgv[210],L200 : 04/02/14 - 18:43:03 : 1E00204h
	Items: RxLgv[210],L200
	Type: READ
	Mfg: Allen-Bradley
	PlcType: Logix5000
	Desc: CIP Messaging Error: a message timed out waiting for a response
	Number of occurrences: 7
	Last Error occurred: 04/04/14 - 08:31:01
TransferPoint2 : RxLgv[10],L200 : 04/02/14 - 18:43:23 : 1E00204h
	Items: RxLgv[10],L200
	Type: WRITE
	Mfg: Allen-Bradley
	PlcType: Logix5000
	Desc: CIP Messaging Error: a message timed out waiting for a response
	Number of occurrences: 3
	Last Error occurred: 04/04/14 - 07:38:37
AB_ETHIP-1\0.(172.20.2.150).1.0 : RxLgv[210],L200 : 04/03/14 - 01:42:38 : 1E00204h
	Items: RxLgv[210],L200
	Type: READ
	Mfg: Allen-Bradley
	PlcType: Logix5000
	Desc: CIP Messaging Error: a message timed out waiting for a response
	Number of occurrences: 5
	Last Error occurred: 04/04/14 - 08:29:24
AB_ETHIP-1\0.(172.20.2.150).1.0 : RxLgv[210],L50 : 04/03/14 - 08:24:13 : 1E00204h
	Items: RxLgv[210],L50
	Type: READ
	Mfg: Allen-Bradley
	PlcType: Logix5000
	Desc: CIP Messaging Error: a message timed out waiting for a response
	Number of occurrences: 1
	Last Error occurred: 04/03/14 - 08:24:13
AB_ETHIP-1\0.(172.20.2.150).1.0 : RxLgv[10],L200 : 04/03/14 - 08:24:13 : 1E00204h
	Items: RxLgv[10],L200
	Type: READ
	Mfg: Allen-Bradley
	PlcType: Logix5000
	Desc: CIP Messaging Error: a message timed out waiting for a response
	Number of occurrences: 5
	Last Error occurred: 04/04/14 - 09:53:09
AB_ETH-1\0.(172.23.97.66).1.0 : -none- : 04/03/14 - 10:04:30 : 00h
	Items: -none-
	Type: READ
	Mfg: Allen-Bradley
	PlcType: Logix5000
	Desc: Online change was made to tag information.
	Number of occurrences: 1
	Last Error occurred: 04/03/14 - 10:04:30
AB_ETH-1\0.(172.23.97.66).1.0 : -none- : 04/03/14 - 10:29:32 : 00h
	Items: -none-
	Type: READ
	Mfg: Allen-Bradley
	PlcType: Logix5000
	Desc: Online change was made to tag information.
	Number of occurrences: 1
	Last Error occurred: 04/03/14 - 10:29:32
AB_ETH-1\0.(172.23.97.66).1.0 : -none- : 04/03/14 - 10:34:32 : 00h
	Items: -none-
	Type: READ
	Mfg: Allen-Bradley
	PlcType: Logix5000
	Desc: Online change was made to tag information.
	Number of occurrences: 1
	Last Error occurred: 04/03/14 - 10:34:32
AB_ETH-1\0.(172.23.97.66).1.0 : -none- : 04/03/14 - 10:38:12 : 00h
	Items: -none-
	Type: READ
	Mfg: Allen-Bradley
	PlcType: Logix5000
	Desc: Online change was made to tag information.
	Number of occurrences: 1
	Last Error occurred: 04/03/14 - 10:38:12
AB_ETHIP-1\0.(172.20.2.151).1.0 : -none- : 04/03/14 - 10:40:06 : 00h
	Items: -none-
	Type: READ
	Mfg: Allen-Bradley
	PlcType: Logix5000
	Desc: ControlLogix connection 613 got disconnected.
	Number of occurrences: 1
	Last Error occurred: 04/03/14 - 10:40:06
AB_ETHIP-1\0.(172.20.2.151).1.0 : RxLgv[210],L200 : 04/03/14 - 10:40:06 : 00h
	Items: RxLgv[210],L200
	Type: READ
	Mfg: Allen-Bradley
	PlcType: Logix5000
	Desc: ControlLogix Optimized packet being reinitialized 682f008, connection 613, packet's connection 613, packet's read connection 607, packet's state --Add_Remove_Read--Pending
	Number of occurrences: 1
	Last Error occurred: 04/03/14 - 10:40:06
AB_ETHIP-1\0.(172.20.2.151).1.0 : -none- : 04/03/14 - 10:40:06 : 00h
	Items: -none-
	Type: READ
	Mfg: Allen-Bradley
	PlcType: Logix5000
	Desc: ControlLogix connection 13 got disconnected.
	Number of occurrences: 1
	Last Error occurred: 04/03/14 - 10:40:06
AB_ETHIP-1\0.(172.20.2.151).1.0 : TxLgv[0],L210 : 04/03/14 - 10:40:06 : 00h
	Items: TxLgv[0],L210
	Type: READ
	Mfg: Allen-Bradley
	PlcType: Logix5000
	Desc: ControlLogix Optimized packet being reinitialized dccbc8, connection 13, packet's connection 13, packet's read connection 39, packet's state --Add_Remove_Read--Pending
	Number of occurrences: 1
	Last Error occurred: 04/03/14 - 10:40:06
AB_ETHIP-1\0.(172.20.2.151).1.0 : -none- : 04/03/14 - 10:40:19 : 00h
	Items: -none-
	Type: READ
	Mfg: Allen-Bradley
	PlcType: Logix5000
	Desc: ControlLogix connection 17933559 got disconnected.
	Number of occurrences: 1
	Last Error occurred: 04/03/14 - 10:40:19
AB_ETHIP-1\0.(172.20.2.151).1.0 : -none- : 04/03/14 - 10:40:19 : 00h
	Items: -none-
	Type: READ
	Mfg: Allen-Bradley
	PlcType: Logix5000
	Desc: ControlLogix connection 17933565 got disconnected.
	Number of occurrences: 1
	Last Error occurred: 04/03/14 - 10:40:19
AB_ETHIP-1\0.(172.20.2.151).1.0 : RxLgv[0],L10 : 04/03/14 - 10:40:19 : 00h
	Items: RxLgv[0],L10
	Type: READ
	Mfg: Allen-Bradley
	PlcType: Logix5000
	Desc: ControlLogix Optimized packet being reinitialized dcdcc0, connection 17933559, packet's connection 17933559, packet's read connection 0, packet's state --Creating Optimized Packet--Pending
	Number of occurrences: 1
	Last Error occurred: 04/03/14 - 10:40:19
AB_ETHIP-1\0.(172.20.2.151).1.0 : RxLgv[210],L200 : 04/03/14 - 10:40:19 : 00h
	Items: RxLgv[210],L200
	Type: READ
	Mfg: Allen-Bradley
	PlcType: Logix5000
	Desc: ControlLogix Optimized packet being reinitialized 682f008, connection 17933565, packet's connection 17933565, packet's read connection 0, packet's state --Creating Optimized Packet--Pending
	Number of occurrences: 1
	Last Error occurred: 04/03/14 - 10:40:19
AB_ETHIP-1\0.(172.20.2.151).1.0 : TxLgv[0] : 04/03/14 - 10:40:29 : 00h
	Items: TxLgv[0]
	Type: READ
	Mfg: Allen-Bradley
	PlcType: Logix5000
	Desc: Failed to create a ControlLogix optimized packet [204].
	Number of occurrences: 1
	Last Error occurred: 04/03/14 - 10:40:29
AB_ETHIP-1\0.(172.20.2.151).1.0 : RxLgv[10] : 04/03/14 - 10:40:29 : 00h
	Items: RxLgv[10]
	Type: READ
	Mfg: Allen-Bradley
	PlcType: Logix5000
	Desc: Failed to create a ControlLogix optimized packet [204].
	Number of occurrences: 1
	Last Error occurred: 04/03/14 - 10:40:29
AB_ETHIP-1\0.(172.20.2.151).1.0 : -none- : 04/03/14 - 10:40:32 : 00h
	Items: -none-
	Type: READ
	Mfg: Allen-Bradley
	PlcType: Logix5000
	Desc: ControlLogix connection 17935861 got disconnected.
	Number of occurrences: 1
	Last Error occurred: 04/03/14 - 10:40:32
AB_ETHIP-1\0.(172.20.2.151).1.0 : TxLgv[0],L210 : 04/03/14 - 10:40:32 : 00h
	Items: TxLgv[0],L210
	Type: READ
	Mfg: Allen-Bradley
	PlcType: Logix5000
	Desc: ControlLogix Optimized packet being reinitialized dccbc8, connection 17935861, packet's connection 17935861, packet's read connection 0, packet's state --Creating Optimized Packet--Pending
	Number of occurrences: 1
	Last Error occurred: 04/03/14 - 10:40:32
AB_ETHIP-1\0.(172.20.2.151).1.0 : -none- : 04/03/14 - 10:40:32 : 00h
	Items: -none-
	Type: READ
	Mfg: Allen-Bradley
	PlcType: Logix5000
	Desc: ControlLogix connection 17935867 got disconnected.
	Number of occurrences: 1
	Last Error occurred: 04/03/14 - 10:40:32
AB_ETHIP-1\0.(172.20.2.151).1.0 : RxLgv[0],L10 : 04/03/14 - 10:40:32 : 00h
	Items: RxLgv[0],L10
	Type: READ
	Mfg: Allen-Bradley
	PlcType: Logix5000
	Desc: ControlLogix Optimized packet being reinitialized dcdcc0, connection 17935861, packet's connection 17935861, packet's read connection 0, packet's state --Creating Optimized Packet--Pending
	Number of occurrences: 1
	Last Error occurred: 04/03/14 - 10:40:32
AB_ETHIP-1\0.(172.20.2.151).1.0 : RxLgv[10],L200 : 04/03/14 - 10:40:32 : 00h
	Items: RxLgv[10],L200
	Type: READ
	Mfg: Allen-Bradley
	PlcType: Logix5000
	Desc: ControlLogix Optimized packet being reinitialized 682e658, connection 17935867, packet's connection 17935867, packet's read connection 0, packet's state --Creating Optimized Packet--Pending
	Number of occurrences: 1
	Last Error occurred: 04/03/14 - 10:40:32
AB_ETHIP-1\0.(172.20.2.151).1.0 : RxLgv[210],L200 : 04/03/14 - 10:40:32 : 00h
	Items: RxLgv[210],L200
	Type: READ
	Mfg: Allen-Bradley
	PlcType: Logix5000
	Desc: ControlLogix Optimized packet being reinitialized 682f008, connection 17935867, packet's connection 17935867, packet's read connection 0, packet's state --Creating Optimized Packet--Pending
	Number of occurrences: 1
	Last Error occurred: 04/03/14 - 10:40:32
AB_ETHIP-1\0.(172.20.2.151).1.0 : -none- : 04/03/14 - 10:40:36 : 00h
	Items: -none-
	Type: READ
	Mfg: Allen-Bradley
	PlcType: Logix5000
	Desc: Connection dropped while attempting to read a ControlLogix Optimized Packet.
	Number of occurrences: 12
	Last Error occurred: 04/04/14 - 08:31:43
AB_ETHIP-1\0.(172.20.2.151).1.0 : RxLgv[0],L10 : 04/03/14 - 10:40:36 : 00h
	Items: RxLgv[0],L10
	Type: READ
	Mfg: Allen-Bradley
	PlcType: Logix5000
	Desc: ControlLogix Optimized packet being reinitialized dcdcc0, connection 0, packet's connection 17938017, packet's read connection 0, packet's state --Creating Optimized Packet--Pending
	Number of occurrences: 1
	Last Error occurred: 04/03/14 - 10:40:36
AB_ETHIP-1\0.(172.20.2.151).1.0 : RxLgv[10],L200 : 04/03/14 - 10:40:36 : 00h
	Items: RxLgv[10],L200
	Type: READ
	Mfg: Allen-Bradley
	PlcType: Logix5000
	Desc: ControlLogix Optimized packet being reinitialized 682e658, connection 0, packet's connection 17938011, packet's read connection 0, packet's state --Creating Optimized Packet--Pending
	Number of occurrences: 1
	Last Error occurred: 04/03/14 - 10:40:36
AB_ETHIP-1\0.(172.20.2.151).1.0 : -none- : 04/03/14 - 10:40:37 : 00h
	Items: -none-
	Type: READ
	Mfg: Allen-Bradley
	PlcType: Logix5000
	Desc: ControlLogix connection 39 got disconnected.
	Number of occurrences: 1
	Last Error occurred: 04/03/14 - 10:40:37
AB_ETHIP-1\0.(172.20.2.151).1.0 : -none- : 04/03/14 - 10:40:37 : 00h
	Items: -none-
	Type: READ
	Mfg: Allen-Bradley
	PlcType: Logix5000
	Desc: ControlLogix connection 607 got disconnected.
	Number of occurrences: 1
	Last Error occurred: 04/03/14 - 10:40:37
AB_ETHIP-1\0.(172.20.2.151).1.0 : -none- : 04/03/14 - 10:40:45 : 00h
	Items: -none-
	Type: READ
	Mfg: Allen-Bradley
	PlcType: Logix5000
	Desc: ControlLogix connection 17938011 got disconnected.
	Number of occurrences: 1
	Last Error occurred: 04/03/14 - 10:40:45
AB_ETHIP-1\0.(172.20.2.151).1.0 : -none- : 04/03/14 - 10:40:45 : 00h
	Items: -none-
	Type: READ
	Mfg: Allen-Bradley
	PlcType: Logix5000
	Desc: ControlLogix connection 17938017 got disconnected.
	Number of occurrences: 1
	Last Error occurred: 04/03/14 - 10:40:45
AB_ETHIP-1\0.(172.20.2.151).1.0 : TxLgv[0],L210 : 04/03/14 - 10:40:45 : 00h
	Items: TxLgv[0],L210
	Type: READ
	Mfg: Allen-Bradley
	PlcType: Logix5000
	Desc: ControlLogix Optimized packet being reinitialized dccbc8, connection 17938011, packet's connection 17938011, packet's read connection 0, packet's state --Creating Optimized Packet--Pending
	Number of occurrences: 1
	Last Error occurred: 04/03/14 - 10:40:45
AB_ETHIP-1\0.(172.20.2.151).1.0 : RxLgv[10],L200 : 04/03/14 - 10:40:45 : 00h
	Items: RxLgv[10],L200
	Type: READ
	Mfg: Allen-Bradley
	PlcType: Logix5000
	Desc: ControlLogix Optimized packet being reinitialized 682e658, connection 17938011, packet's connection 17938011, packet's read connection 0, packet's state --Creating Optimized Packet
	Number of occurrences: 1
	Last Error occurred: 04/03/14 - 10:40:45
AB_ETHIP-1\0.(172.20.2.151).1.0 : RxLgv[0],L10 : 04/03/14 - 10:40:45 : 00h
	Items: RxLgv[0],L10
	Type: READ
	Mfg: Allen-Bradley
	PlcType: Logix5000
	Desc: ControlLogix Optimized packet being reinitialized dcdcc0, connection 17938017, packet's connection 17938017, packet's read connection 0, packet's state --Creating Optimized Packet
	Number of occurrences: 1
	Last Error occurred: 04/03/14 - 10:40:45
AB_ETHIP-1\0.(172.20.2.151).1.0 : RxLgv[210],L200 : 04/03/14 - 10:40:45 : 00h
	Items: RxLgv[210],L200
	Type: READ
	Mfg: Allen-Bradley
	PlcType: Logix5000
	Desc: ControlLogix Optimized packet being reinitialized 682f008, connection 17938017, packet's connection 17938017, packet's read connection 0, packet's state --Creating Optimized Packet--Pending
	Number of occurrences: 1
	Last Error occurred: 04/03/14 - 10:40:45
AB_ETHIP-1\0.(172.20.2.151).1.0 : RxLgv[0],L10 : 04/03/14 - 10:40:55 : 00h
	Items: RxLgv[0],L10
	Type: READ
	Mfg: Allen-Bradley
	PlcType: Logix5000
	Desc: ControlLogix Optimized packet being reinitialized dcdcc0, connection 0, packet's connection 0, packet's read connection 0, packet's state --Initialized
	Number of occurrences: 1
	Last Error occurred: 04/03/14 - 10:40:55
AB_ETHIP-1\0.(172.20.2.151).1.0 : RxLgv[10],L200 : 04/03/14 - 10:40:55 : 00h
	Items: RxLgv[10],L200
	Type: READ
	Mfg: Allen-Bradley
	PlcType: Logix5000
	Desc: ControlLogix Optimized packet being reinitialized 682e658, connection 0, packet's connection 0, packet's read connection 0, packet's state --Initialized
	Number of occurrences: 1
	Last Error occurred: 04/03/14 - 10:40:55
AB_ETH-1\0.(172.23.97.66).1.0 : -none- : 04/03/14 - 10:52:08 : 00h
	Items: -none-
	Type: READ
	Mfg: Allen-Bradley
	PlcType: Logix5000
	Desc: Online change was made to tag information.
	Number of occurrences: 1
	Last Error occurred: 04/03/14 - 10:52:08
AB_ETH-1\0.(172.23.97.66).1.0 : -none- : 04/03/14 - 10:53:58 : 00h
	Items: -none-
	Type: READ
	Mfg: Allen-Bradley
	PlcType: Logix5000
	Desc: Online change was made to tag information.
	Number of occurrences: 1
	Last Error occurred: 04/03/14 - 10:53:58
AB_ETH-1\0.(172.23.97.66).1.0 : -none- : 04/03/14 - 16:00:26 : 00h
	Items: -none-
	Type: READ
	Mfg: Allen-Bradley
	PlcType: Logix5000
	Desc: Online change was made to tag information.
	Number of occurrences: 1
	Last Error occurred: 04/03/14 - 16:00:26
AB_ETHIP-1\0.(172.20.2.150).1.0 : RxLgv[0],L10 : 04/03/14 - 20:36:33 : 1E00204h
	Items: RxLgv[0],L10
	Type: READ
	Mfg: Allen-Bradley
	PlcType: Logix5000
	Desc: CIP Messaging Error: a message timed out waiting for a response
	Number of occurrences: 4
	Last Error occurred: 04/04/14 - 09:53:09
AB_ETHIP-1\0.(172.20.2.150).1.0 : -none- : 04/03/14 - 20:36:44 : 00h
	Items: -none-
	Type: READ
	Mfg: Allen-Bradley
	PlcType: Logix5000
	Desc: ControlLogix connection 599 got disconnected.
	Number of occurrences: 1
	Last Error occurred: 04/03/14 - 20:36:44
AB_ETHIP-1\0.(172.20.2.150).1.0 : RxLgv[10],L200 : 04/03/14 - 20:36:44 : 00h
	Items: RxLgv[10],L200
	Type: READ
	Mfg: Allen-Bradley
	PlcType: Logix5000
	Desc: ControlLogix Optimized packet being reinitialized 6826e38, connection 599, packet's connection 599, packet's read connection 3, packet's state --Add_Remove_Read--Pending
	Number of occurrences: 1
	Last Error occurred: 04/03/14 - 20:36:44
AB_ETHIP-1\0.(172.20.2.150).1.0 : -none- : 04/03/14 - 20:36:44 : 00h
	Items: -none-
	Type: READ
	Mfg: Allen-Bradley
	PlcType: Logix5000
	Desc: ControlLogix connection 3 got disconnected.
	Number of occurrences: 1
	Last Error occurred: 04/03/14 - 20:36:44
AB_ETHIP-1\0.(172.20.2.150).1.0 : TxLgv[0],L210 : 04/03/14 - 20:36:44 : 00h
	Items: TxLgv[0],L210
	Type: READ
	Mfg: Allen-Bradley
	PlcType: Logix5000
	Desc: ControlLogix Optimized packet being reinitialized dbf190, connection 3, packet's connection 3, packet's read connection 63, packet's state --Add_Remove_Read--Pending
	Number of occurrences: 1
	Last Error occurred: 04/03/14 - 20:36:44
AB_ETHIP-1\0.(172.20.2.150).1.0 : RxLgv[210],L200 : 04/03/14 - 20:36:44 : 00h
	Items: RxLgv[210],L200
	Type: READ
	Mfg: Allen-Bradley
	PlcType: Logix5000
	Desc: ControlLogix Optimized packet being reinitialized 68278b8, connection 3, packet's connection 3, packet's read connection 63, packet's state --Add_Remove_Read--Pending
	Number of occurrences: 1
	Last Error occurred: 04/03/14 - 20:36:44
AB_ETHIP-1\0.(172.20.2.150).1.0 : -none- : 04/03/14 - 20:36:44 : 00h
	Items: -none-
	Type: READ
	Mfg: Allen-Bradley
	PlcType: Logix5000
	Desc: ControlLogix connection 63 got disconnected.
	Number of occurrences: 1
	Last Error occurred: 04/03/14 - 20:36:44
AB_ETHIP-1\0.(172.20.2.150).1.0 : -none- : 04/03/14 - 20:36:44 : 00h
	Items: -none-
	Type: READ
	Mfg: Allen-Bradley
	PlcType: Logix5000
	Desc: ControlLogix connection 85 got disconnected.
	Number of occurrences: 1
	Last Error occurred: 04/03/14 - 20:36:44
AB_ETHIP-1\0.(172.20.2.150).1.0 : RxLgv[0],L10 : 04/03/14 - 20:36:44 : 00h
	Items: RxLgv[0],L10
	Type: READ
	Mfg: Allen-Bradley
	PlcType: Logix5000
	Desc: ControlLogix Optimized packet being reinitialized dc0268, connection 63, packet's connection 63, packet's read connection 85, packet's state --Add_Remove_Read--Pending
	Number of occurrences: 1
	Last Error occurred: 04/03/14 - 20:36:44
AB_ETHIP-1\0.(172.20.2.150).1.0 : -none- : 04/03/14 - 20:36:44 : 00h
	Items: -none-
	Type: READ
	Mfg: Allen-Bradley
	PlcType: Logix5000
	Desc: ControlLogix optimized packet response while in Initialized state:  dc0268
	Number of occurrences: 2
	Last Error occurred: 04/04/14 - 08:29:25
AB_ETHIP-1\0.(172.20.2.150).1.0 : -none- : 04/03/14 - 20:36:57 : 00h
	Items: -none-
	Type: READ
	Mfg: Allen-Bradley
	PlcType: Logix5000
	Desc: ControlLogix connection 24865763 got disconnected.
	Number of occurrences: 1
	Last Error occurred: 04/03/14 - 20:36:57
AB_ETHIP-1\0.(172.20.2.150).1.0 : -none- : 04/03/14 - 20:36:57 : 00h
	Items: -none-
	Type: READ
	Mfg: Allen-Bradley
	PlcType: Logix5000
	Desc: ControlLogix connection 24865769 got disconnected.
	Number of occurrences: 1
	Last Error occurred: 04/03/14 - 20:36:57
AB_ETHIP-1\0.(172.20.2.150).1.0 : RxLgv[210],L50 : 04/03/14 - 20:36:57 : 00h
	Items: RxLgv[210],L50
	Type: READ
	Mfg: Allen-Bradley
	PlcType: Logix5000
	Desc: ControlLogix Optimized packet being reinitialized dc1380, connection 24865763, packet's connection 24865763, packet's read connection 0, packet's state --Creating Optimized Packet--Pending
	Number of occurrences: 1
	Last Error occurred: 04/03/14 - 20:36:57
AB_ETHIP-1\0.(172.20.2.150).1.0 : RxLgv[210],L200 : 04/03/14 - 20:36:57 : 00h
	Items: RxLgv[210],L200
	Type: READ
	Mfg: Allen-Bradley
	PlcType: Logix5000
	Desc: ControlLogix Optimized packet being reinitialized 68278b8, connection 24865763, packet's connection 24865763, packet's read connection 0, packet's state --Creating Optimized Packet--Pending
	Number of occurrences: 1
	Last Error occurred: 04/03/14 - 20:36:57
AB_ETHIP-1\0.(172.20.2.150).1.0 : RxLgv[10],L200 : 04/03/14 - 20:36:57 : 00h
	Items: RxLgv[10],L200
	Type: READ
	Mfg: Allen-Bradley
	PlcType: Logix5000
	Desc: ControlLogix Optimized packet being reinitialized 6826e38, connection 24865769, packet's connection 24865769, packet's read connection 0, packet's state --Creating Optimized Packet--Pending
	Number of occurrences: 1
	Last Error occurred: 04/03/14 - 20:36:57
AB_ETHIP-1\0.(172.20.2.150).1.0 : -none- : 04/03/14 - 20:36:58 : 00h
	Items: -none-
	Type: READ
	Mfg: Allen-Bradley
	PlcType: Logix5000
	Desc: ControlLogix connection 24865821 got disconnected.
	Number of occurrences: 1
	Last Error occurred: 04/03/14 - 20:36:58
AB_ETHIP-1\0.(172.20.2.150).1.0 : -none- : 04/03/14 - 20:36:58 : 00h
	Items: -none-
	Type: READ
	Mfg: Allen-Bradley
	PlcType: Logix5000
	Desc: ControlLogix connection 24865827 got disconnected.
	Number of occurrences: 1
	Last Error occurred: 04/03/14 - 20:36:58
AB_ETHIP-1\0.(172.20.2.150).1.0 : TxLgv[0],L210 : 04/03/14 - 20:36:58 : 00h
	Items: TxLgv[0],L210
	Type: READ
	Mfg: Allen-Bradley
	PlcType: Logix5000
	Desc: ControlLogix Optimized packet being reinitialized dbf190, connection 24865821, packet's connection 24865821, packet's read connection 0, packet's state --Creating Optimized Packet--Pending
	Number of occurrences: 1
	Last Error occurred: 04/03/14 - 20:36:58
AB_ETHIP-1\0.(172.20.2.150).1.0 : RxLgv[0],L10 : 04/03/14 - 20:36:58 : 00h
	Items: RxLgv[0],L10
	Type: READ
	Mfg: Allen-Bradley
	PlcType: Logix5000
	Desc: ControlLogix Optimized packet being reinitialized dc0268, connection 24865827, packet's connection 24865827, packet's read connection 0, packet's state --Creating Optimized Packet--Pending
	Number of occurrences: 1
	Last Error occurred: 04/03/14 - 20:36:58
AB_ETHIP-1\0.(172.20.2.150).1.0 : -none- : 04/03/14 - 20:36:59 : 00h
	Items: -none-
	Type: READ
	Mfg: Allen-Bradley
	PlcType: Logix5000
	Desc: Connection dropped while attempting to read a ControlLogix Optimized Packet.
	Number of occurrences: 6
	Last Error occurred: 04/04/14 - 09:53:51
AB_ETHIP-1\0.(172.20.2.150).1.0 : RxLgv[210],L50 : 04/03/14 - 20:36:59 : 00h
	Items: RxLgv[210],L50
	Type: READ
	Mfg: Allen-Bradley
	PlcType: Logix5000
	Desc: ControlLogix Optimized packet being reinitialized dc1380, connection 0, packet's connection 0, packet's read connection 0, packet's state --Initialized
	Number of occurrences: 1
	Last Error occurred: 04/03/14 - 20:36:59
AB_ETHIP-1\0.(172.20.2.151).1.0 : -none- : 04/04/14 - 07:38:29 : 00h
	Items: -none-
	Type: READ
	Mfg: Allen-Bradley
	PlcType: Logix5000
	Desc: ControlLogix connection 17940167 got disconnected.
	Number of occurrences: 1
	Last Error occurred: 04/04/14 - 07:38:29
AB_ETHIP-1\0.(172.20.2.151).1.0 : -none- : 04/04/14 - 07:38:29 : 00h
	Items: -none-
	Type: READ
	Mfg: Allen-Bradley
	PlcType: Logix5000
	Desc: ControlLogix connection 17940173 got disconnected.
	Number of occurrences: 1
	Last Error occurred: 04/04/14 - 07:38:29
AB_ETHIP-1\0.(172.20.2.151).1.0 : -none- : 04/04/14 - 07:38:29 : 00h
	Items: -none-
	Type: READ
	Mfg: Allen-Bradley
	PlcType: Logix5000
	Desc: ControlLogix connection 17940155 got disconnected.
	Number of occurrences: 1
	Last Error occurred: 04/04/14 - 07:38:29
AB_ETHIP-1\0.(172.20.2.151).1.0 : -none- : 04/04/14 - 07:38:29 : 00h
	Items: -none-
	Type: READ
	Mfg: Allen-Bradley
	PlcType: Logix5000
	Desc: ControlLogix connection 17940161 got disconnected.
	Number of occurrences: 1
	Last Error occurred: 04/04/14 - 07:38:29
AB_ETHIP-1\0.(172.20.2.151).1.0 : TxLgv[0],L210 : 04/04/14 - 07:38:29 : 00h
	Items: TxLgv[0],L210
	Type: READ
	Mfg: Allen-Bradley
	PlcType: Logix5000
	Desc: ControlLogix Optimized packet being reinitialized dccbc8, connection 17940155, packet's connection 17940155, packet's read connection 17940161, packet's state --Add_Remove_Read--Pending
	Number of occurrences: 1
	Last Error occurred: 04/04/14 - 07:38:29
AB_ETHIP-1\0.(172.20.2.151).1.0 : -none- : 04/04/14 - 07:38:29 : 00h
	Items: -none-
	Type: READ
	Mfg: Allen-Bradley
	PlcType: Logix5000
	Desc: ControlLogix optimized packet response while in Initialized state:  dccbc8
	Number of occurrences: 1
	Last Error occurred: 04/04/14 - 07:38:29
AB_ETHIP-1\0.(172.20.2.151).1.0 : -none- : 04/04/14 - 07:38:42 : 00h
	Items: -none-
	Type: READ
	Mfg: Allen-Bradley
	PlcType: Logix5000
	Desc: ControlLogix connection 32542171 got disconnected.
	Number of occurrences: 1
	Last Error occurred: 04/04/14 - 07:38:42
AB_ETHIP-1\0.(172.20.2.151).1.0 : RxLgv[0],L10 : 04/04/14 - 07:38:42 : 00h
	Items: RxLgv[0],L10
	Type: READ
	Mfg: Allen-Bradley
	PlcType: Logix5000
	Desc: ControlLogix Optimized packet being reinitialized dcdcc0, connection 32542171, packet's connection 32542171, packet's read connection 0, packet's state --Creating Optimized Packet--Pending
	Number of occurrences: 1
	Last Error occurred: 04/04/14 - 07:38:42
AB_ETHIP-1\0.(172.20.2.151).1.0 : -none- : 04/04/14 - 07:38:42 : 00h
	Items: -none-
	Type: READ
	Mfg: Allen-Bradley
	PlcType: Logix5000
	Desc: ControlLogix connection 32542203 got disconnected.
	Number of occurrences: 1
	Last Error occurred: 04/04/14 - 07:38:42
AB_ETHIP-1\0.(172.20.2.151).1.0 : RxLgv[210],L200 : 04/04/14 - 07:38:42 : 00h
	Items: RxLgv[210],L200
	Type: READ
	Mfg: Allen-Bradley
	PlcType: Logix5000
	Desc: ControlLogix Optimized packet being reinitialized 682f008, connection 32542203, packet's connection 32542203, packet's read connection 0, packet's state --Creating Optimized Packet--Pending
	Number of occurrences: 1
	Last Error occurred: 04/04/14 - 07:38:42
AB_ETHIP-1\0.(172.20.2.151).1.0 : -none- : 04/04/14 - 07:38:42 : 00h
	Items: -none-
	Type: READ
	Mfg: Allen-Bradley
	PlcType: Logix5000
	Desc: ControlLogix connection 32542277 got disconnected.
	Number of occurrences: 1
	Last Error occurred: 04/04/14 - 07:38:42
AB_ETHIP-1\0.(172.20.2.151).1.0 : -none- : 04/04/14 - 07:38:42 : 00h
	Items: -none-
	Type: READ
	Mfg: Allen-Bradley
	PlcType: Logix5000
	Desc: ControlLogix connection 32542283 got disconnected.
	Number of occurrences: 1
	Last Error occurred: 04/04/14 - 07:38:42
AB_ETHIP-1\0.(172.20.2.151).1.0 : TxLgv[0],L210 : 04/04/14 - 07:38:42 : 00h
	Items: TxLgv[0],L210
	Type: READ
	Mfg: Allen-Bradley
	PlcType: Logix5000
	Desc: ControlLogix Optimized packet being reinitialized dccbc8, connection 32542277, packet's connection 32542277, packet's read connection 0, packet's state --Creating Optimized Packet--Pending
	Number of occurrences: 1
	Last Error occurred: 04/04/14 - 07:38:42
AB_ETHIP-1\0.(172.20.2.151).1.0 : RxLgv[10],L200 : 04/04/14 - 07:38:42 : 00h
	Items: RxLgv[10],L200
	Type: READ
	Mfg: Allen-Bradley
	PlcType: Logix5000
	Desc: ControlLogix Optimized packet being reinitialized 682e658, connection 32542283, packet's connection 32542283, packet's read connection 0, packet's state --Creating Optimized Packet--Pending
	Number of occurrences: 1
	Last Error occurred: 04/04/14 - 07:38:42
TransferPoint2 : RxLgv[210],L200 : 04/04/14 - 07:38:57 : 1E00204h
	Items: RxLgv[210],L200
	Type: WRITE
	Mfg: Allen-Bradley
	PlcType: Logix5000
	Desc: CIP Messaging Error: a message timed out waiting for a response
	Number of occurrences: 2
	Last Error occurred: 04/04/14 - 08:31:21
AB_ETHIP-1\0.(172.20.2.151).1.0 : RxLgv[0],L10 : 04/04/14 - 07:38:59 : 00h
	Items: RxLgv[0],L10
	Type: READ
	Mfg: Allen-Bradley
	PlcType: Logix5000
	Desc: ControlLogix Optimized packet being reinitialized dcdcc0, connection 0, packet's connection 32544549, packet's read connection 32544549, packet's state --Add_Remove_Read
	Number of occurrences: 1
	Last Error occurred: 04/04/14 - 07:38:59
AB_ETHIP-1\0.(172.20.2.151).1.0 : RxLgv[210],L200 : 04/04/14 - 07:38:59 : 00h
	Items: RxLgv[210],L200
	Type: READ
	Mfg: Allen-Bradley
	PlcType: Logix5000
	Desc: ControlLogix Optimized packet being reinitialized 682f008, connection 0, packet's connection 32544565, packet's read connection 32544659, packet's state --Add_Remove_Read
	Number of occurrences: 1
	Last Error occurred: 04/04/14 - 07:38:59
AB_ETHIP-1\0.(172.20.2.151).1.0 : RxLgv[10],L200 : 04/04/14 - 07:38:59 : 00h
	Items: RxLgv[10],L200
	Type: READ
	Mfg: Allen-Bradley
	PlcType: Logix5000
	Desc: ControlLogix Optimized packet being reinitialized 682e658, connection 0, packet's connection 32544665, packet's read connection 32544549, packet's state --Add_Remove_Read
	Number of occurrences: 1
	Last Error occurred: 04/04/14 - 07:38:59
AB_ETH-1\0.(172.23.97.66).1.0 : -none- : 04/04/14 - 08:03:36 : 00h
	Items: -none-
	Type: READ
	Mfg: Allen-Bradley
	PlcType: Logix5000
	Desc: Online change was made to tag information.
	Number of occurrences: 1
	Last Error occurred: 04/04/14 - 08:03:36
AB_ETHIP-1\0.(172.20.2.207).1.0 : Lgv_Tx[0],L210 : 04/04/14 - 08:06:01 : 1E00204h
	Items: Lgv_Tx[0],L210, Lgv_Rx[0],L10
	Type: READ
	Mfg: Allen-Bradley
	PlcType: Logix5000
	Desc: CIP Messaging Error: a message timed out waiting for a response
	Number of occurrences: 9
	Last Error occurred: 04/04/14 - 08:29:04
E80PLTZ : Lgv_Rx[0],L10 : 04/04/14 - 08:06:01 : 1E00204h
	Items: Lgv_Rx[0],L10
	Type: WRITE
	Mfg: Allen-Bradley
	PlcType: Logix5000
	Desc: CIP Messaging Error: a message timed out waiting for a response
	Number of occurrences: 3
	Last Error occurred: 04/04/14 - 08:28:53
AB_ETHIP-1\0.(172.20.2.207).1.0 : -none- : 04/04/14 - 08:06:17 : 00h
	Items: -none-
	Type: READ
	Mfg: Allen-Bradley
	PlcType: Logix5000
	Desc: ControlLogix connection 815 got disconnected.
	Number of occurrences: 1
	Last Error occurred: 04/04/14 - 08:06:17
AB_ETHIP-1\0.(172.20.2.207).1.0 : -none- : 04/04/14 - 08:06:30 : 00h
	Items: -none-
	Type: READ
	Mfg: Allen-Bradley
	PlcType: Logix5000
	Desc: ControlLogix connection 32864713 got disconnected.
	Number of occurrences: 1
	Last Error occurred: 04/04/14 - 08:06:30
AB_ETHIP-1\0.(172.20.2.207).1.0 : -none- : 04/04/14 - 08:06:47 : 00h
	Items: -none-
	Type: READ
	Mfg: Allen-Bradley
	PlcType: Logix5000
	Desc: Connection dropped while attempting to read a ControlLogix Optimized Packet.
	Number of occurrences: 3
	Last Error occurred: 04/04/14 - 08:29:39
AB_ETHIP-1\0.(172.20.2.207).1.0 : Lgv_Tx[0],L210 : 04/04/14 - 08:06:47 : 00h
	Items: Lgv_Tx[0],L210
	Type: READ
	Mfg: Allen-Bradley
	PlcType: Logix5000
	Desc: ControlLogix Optimized packet being reinitialized 686ed38, connection 0, packet's connection 0, packet's read connection 0, packet's state
	Number of occurrences: 3
	Last Error occurred: 04/04/14 - 08:29:39
AB_ETHIP-1\0.(172.20.2.207).1.0 : -none- : 04/04/14 - 08:06:54 : 00h
	Items: -none-
	Type: READ
	Mfg: Allen-Bradley
	PlcType: Logix5000
	Desc: ControlLogix connection 32869215 got disconnected.
	Number of occurrences: 1
	Last Error occurred: 04/04/14 - 08:06:54
AB_ETHIP-1\0.(172.20.2.207).1.0 : -none- : 04/04/14 - 08:14:11 : 00h
	Items: -none-
	Type: READ
	Mfg: Allen-Bradley
	PlcType: Logix5000
	Desc: ControlLogix connection 32873667 got disconnected.
	Number of occurrences: 1
	Last Error occurred: 04/04/14 - 08:14:11
AB_ETHIP-1\0.(172.20.2.207).1.0 : -none- : 04/04/14 - 08:14:24 : 00h
	Items: -none-
	Type: READ
	Mfg: Allen-Bradley
	PlcType: Logix5000
	Desc: ControlLogix connection 32956929 got disconnected.
	Number of occurrences: 1
	Last Error occurred: 04/04/14 - 08:14:24
AB_ETHIP-1\0.(172.20.2.207).1.0 : -none- : 04/04/14 - 08:29:09 : 00h
	Items: -none-
	Type: READ
	Mfg: Allen-Bradley
	PlcType: Logix5000
	Desc: ControlLogix connection 32961395 got disconnected.
	Number of occurrences: 1
	Last Error occurred: 04/04/14 - 08:29:09
AB_ETHIP-1\0.(172.20.2.207).1.0 : -none- : 04/04/14 - 08:29:22 : 00h
	Items: -none-
	Type: READ
	Mfg: Allen-Bradley
	PlcType: Logix5000
	Desc: ControlLogix connection 33129365 got disconnected.
	Number of occurrences: 1
	Last Error occurred: 04/04/14 - 08:29:22
AB_ETHIP-1\0.(172.20.2.151).1.0 : -none- : 04/04/14 - 08:29:25 : 00h
	Items: -none-
	Type: READ
	Mfg: Allen-Bradley
	PlcType: Logix5000
	Desc: ControlLogix connection 32544549 got disconnected.
	Number of occurrences: 1
	Last Error occurred: 04/04/14 - 08:29:25
AB_ETHIP-1\0.(172.20.2.151).1.0 : -none- : 04/04/14 - 08:29:25 : 00h
	Items: -none-
	Type: READ
	Mfg: Allen-Bradley
	PlcType: Logix5000
	Desc: ControlLogix connection 32544565 got disconnected.
	Number of occurrences: 1
	Last Error occurred: 04/04/14 - 08:29:25
AB_ETHIP-1\0.(172.20.2.151).1.0 : -none- : 04/04/14 - 08:29:25 : 00h
	Items: -none-
	Type: READ
	Mfg: Allen-Bradley
	PlcType: Logix5000
	Desc: ControlLogix connection 32544659 got disconnected.
	Number of occurrences: 1
	Last Error occurred: 04/04/14 - 08:29:25
AB_ETHIP-1\0.(172.20.2.151).1.0 : -none- : 04/04/14 - 08:29:25 : 00h
	Items: -none-
	Type: READ
	Mfg: Allen-Bradley
	PlcType: Logix5000
	Desc: ControlLogix connection 32544665 got disconnected.
	Number of occurrences: 1
	Last Error occurred: 04/04/14 - 08:29:25
AB_ETHIP-1\0.(172.20.2.151).1.0 : RxLgv[0],L10 : 04/04/14 - 08:29:25 : 00h
	Items: RxLgv[0],L10
	Type: READ
	Mfg: Allen-Bradley
	PlcType: Logix5000
	Desc: ControlLogix Optimized packet being reinitialized dcdcc0, connection 32544549, packet's connection 32544549, packet's read connection 32544659, packet's state --Add_Remove_Read--Pending
	Number of occurrences: 1
	Last Error occurred: 04/04/14 - 08:29:25
AB_ETHIP-1\0.(172.20.2.151).1.0 : RxLgv[210],L200 : 04/04/14 - 08:29:25 : 00h
	Items: RxLgv[210],L200
	Type: READ
	Mfg: Allen-Bradley
	PlcType: Logix5000
	Desc: ControlLogix Optimized packet being reinitialized 682f008, connection 32544565, packet's connection 32544565, packet's read connection 32544665, packet's state --Add_Remove_Read--Pending
	Number of occurrences: 1
	Last Error occurred: 04/04/14 - 08:29:25
AB_ETHIP-1\0.(172.20.2.151).1.0 : -none- : 04/04/14 - 08:29:25 : 00h
	Items: -none-
	Type: READ
	Mfg: Allen-Bradley
	PlcType: Logix5000
	Desc: ControlLogix optimized packet response while in Initialized state:  dcdcc0
	Number of occurrences: 1
	Last Error occurred: 04/04/14 - 08:29:25
AB_ETHIP-1\0.(172.20.2.151).1.0 : -none- : 04/04/14 - 08:29:25 : 00h
	Items: -none-
	Type: READ
	Mfg: Allen-Bradley
	PlcType: Logix5000
	Desc: ControlLogix optimized packet response while in Initialized state:  682f008
	Number of occurrences: 1
	Last Error occurred: 04/04/14 - 08:29:25
AB_ETHIP-1\0.(172.20.2.150).1.0 : -none- : 04/04/14 - 08:29:25 : 00h
	Items: -none-
	Type: READ
	Mfg: Allen-Bradley
	PlcType: Logix5000
	Desc: ControlLogix connection 24868097 got disconnected.
	Number of occurrences: 1
	Last Error occurred: 04/04/14 - 08:29:25
AB_ETHIP-1\0.(172.20.2.150).1.0 : -none- : 04/04/14 - 08:29:25 : 00h
	Items: -none-
	Type: READ
	Mfg: Allen-Bradley
	PlcType: Logix5000
	Desc: ControlLogix connection 24868103 got disconnected.
	Number of occurrences: 1
	Last Error occurred: 04/04/14 - 08:29:25
AB_ETHIP-1\0.(172.20.2.150).1.0 : -none- : 04/04/14 - 08:29:25 : 00h
	Items: -none-
	Type: READ
	Mfg: Allen-Bradley
	PlcType: Logix5000
	Desc: ControlLogix connection 24868109 got disconnected.
	Number of occurrences: 1
	Last Error occurred: 04/04/14 - 08:29:25
AB_ETHIP-1\0.(172.20.2.150).1.0 : -none- : 04/04/14 - 08:29:25 : 00h
	Items: -none-
	Type: READ
	Mfg: Allen-Bradley
	PlcType: Logix5000
	Desc: ControlLogix connection 24868199 got disconnected.
	Number of occurrences: 1
	Last Error occurred: 04/04/14 - 08:29:25
AB_ETHIP-1\0.(172.20.2.150).1.0 : RxLgv[0],L10 : 04/04/14 - 08:29:25 : 00h
	Items: RxLgv[0],L10
	Type: READ
	Mfg: Allen-Bradley
	PlcType: Logix5000
	Desc: ControlLogix Optimized packet being reinitialized dc0268, connection 24868097, packet's connection 24868097, packet's read connection 24868109, packet's state --Add_Remove_Read--Pending
	Number of occurrences: 1
	Last Error occurred: 04/04/14 - 08:29:25
AB_ETHIP-1\0.(172.20.2.150).1.0 : RxLgv[210],L50 : 04/04/14 - 08:29:25 : 00h
	Items: RxLgv[210],L50
	Type: READ
	Mfg: Allen-Bradley
	PlcType: Logix5000
	Desc: ControlLogix Optimized packet being reinitialized dc1380, connection 24868097, packet's connection 24868097, packet's read connection 24868103, packet's state --Add_Remove_Read--Pending
	Number of occurrences: 1
	Last Error occurred: 04/04/14 - 08:29:25
AB_ETHIP-1\0.(172.20.2.150).1.0 : RxLgv[10],L200 : 04/04/14 - 08:29:25 : 00h
	Items: RxLgv[10],L200
	Type: READ
	Mfg: Allen-Bradley
	PlcType: Logix5000
	Desc: ControlLogix Optimized packet being reinitialized 6826e38, connection 24868103, packet's connection 24868103, packet's read connection 24868199, packet's state --Add_Remove_Read--Pending
	Number of occurrences: 1
	Last Error occurred: 04/04/14 - 08:29:25
AB_ETHIP-1\0.(172.20.2.150).1.0 : -none- : 04/04/14 - 08:29:25 : 00h
	Items: -none-
	Type: READ
	Mfg: Allen-Bradley
	PlcType: Logix5000
	Desc: ControlLogix optimized packet response while in Initialized state:  6826e38
	Number of occurrences: 1
	Last Error occurred: 04/04/14 - 08:29:25
AB_ETHIP-1\0.(172.20.2.151).1.0 : RxLgv[10],L200 : 04/04/14 - 08:29:35 : 00h
	Items: RxLgv[10],L200
	Type: READ
	Mfg: Allen-Bradley
	PlcType: Logix5000
	Desc: ControlLogix Optimized packet being reinitialized 682e658, connection 0, packet's connection 33131933, packet's read connection 0, packet's state --Creating Optimized Packet--Pending
	Number of occurrences: 1
	Last Error occurred: 04/04/14 - 08:29:35
AB_ETHIP-1\0.(172.20.2.151).1.0 : TxLgv[0],L210 : 04/04/14 - 08:29:35 : 00h
	Items: TxLgv[0],L210
	Type: READ
	Mfg: Allen-Bradley
	PlcType: Logix5000
	Desc: ControlLogix Optimized packet being reinitialized dccbc8, connection 0, packet's connection 33131921, packet's read connection 0, packet's state --Creating Optimized Packet--Pending
	Number of occurrences: 1
	Last Error occurred: 04/04/14 - 08:29:35
AB_ETHIP-1\0.(172.20.2.150).1.0 : RxLgv[210],L200 : 04/04/14 - 08:29:35 : 00h
	Items: RxLgv[210],L200
	Type: READ
	Mfg: Allen-Bradley
	PlcType: Logix5000
	Desc: ControlLogix Optimized packet being reinitialized 68278b8, connection 0, packet's connection 33131979, packet's read connection 0, packet's state --Creating Optimized Packet--Pending
	Number of occurrences: 1
	Last Error occurred: 04/04/14 - 08:29:35
AB_ETHIP-1\0.(172.20.2.150).1.0 : TxLgv[0],L210 : 04/04/14 - 08:29:35 : 00h
	Items: TxLgv[0],L210
	Type: READ
	Mfg: Allen-Bradley
	PlcType: Logix5000
	Desc: ControlLogix Optimized packet being reinitialized dbf190, connection 0, packet's connection 33131979, packet's read connection 0, packet's state --Add_Remove_Read--Adding Items--Pending
	Number of occurrences: 1
	Last Error occurred: 04/04/14 - 08:29:35
TransferPoint1 : RxLgv[10],L200 : 04/04/14 - 08:29:44 : 1E00204h
	Items: RxLgv[10],L200
	Type: WRITE
	Mfg: Allen-Bradley
	PlcType: Logix5000
	Desc: CIP Messaging Error: a message timed out waiting for a response
	Number of occurrences: 2
	Last Error occurred: 04/04/14 - 09:53:30
AB_ETHIP-1\0.(172.20.2.207).1.0 : -none- : 04/04/14 - 08:29:45 : 00h
	Items: -none-
	Type: READ
	Mfg: Allen-Bradley
	PlcType: Logix5000
	Desc: ControlLogix connection 33133115 got disconnected.
	Number of occurrences: 1
	Last Error occurred: 04/04/14 - 08:29:45
AB_ETHIP-1\0.(172.20.2.207).1.0 : -none- : 04/04/14 - 08:30:08 : 00h
	Items: -none-
	Type: READ
	Mfg: Allen-Bradley
	PlcType: Logix5000
	Desc: ControlLogix connection 33137291 got disconnected.
	Number of occurrences: 1
	Last Error occurred: 04/04/14 - 08:30:08
AB_ETHIP-1\0.(172.20.2.207).1.0 : -none- : 04/04/14 - 08:30:31 : 00h
	Items: -none-
	Type: READ
	Mfg: Allen-Bradley
	PlcType: Logix5000
	Desc: ControlLogix connection 33141405 got disconnected.
	Number of occurrences: 1
	Last Error occurred: 04/04/14 - 08:30:31
AB_ETHIP-1\0.(172.20.2.207).1.0 : -none- : 04/04/14 - 08:30:54 : 00h
	Items: -none-
	Type: READ
	Mfg: Allen-Bradley
	PlcType: Logix5000
	Desc: ControlLogix connection 33145305 got disconnected.
	Number of occurrences: 1
	Last Error occurred: 04/04/14 - 08:30:54
AB_ETHIP-1\0.(172.20.2.151).1.0 : -none- : 04/04/14 - 08:31:13 : 00h
	Items: -none-
	Type: READ
	Mfg: Allen-Bradley
	PlcType: Logix5000
	Desc: ControlLogix connection 33131939 got disconnected.
	Number of occurrences: 1
	Last Error occurred: 04/04/14 - 08:31:13
AB_ETHIP-1\0.(172.20.2.151).1.0 : -none- : 04/04/14 - 08:31:13 : 00h
	Items: -none-
	Type: READ
	Mfg: Allen-Bradley
	PlcType: Logix5000
	Desc: ControlLogix connection 33131921 got disconnected.
	Number of occurrences: 1
	Last Error occurred: 04/04/14 - 08:31:13
AB_ETHIP-1\0.(172.20.2.151).1.0 : RxLgv[210],L200 : 04/04/14 - 08:31:13 : 00h
	Items: RxLgv[210],L200
	Type: READ
	Mfg: Allen-Bradley
	PlcType: Logix5000
	Desc: ControlLogix Optimized packet being reinitialized 682f008, connection 33131939, packet's connection 33131939, packet's read connection 33131933, packet's state --Add_Remove_Read--Pending
	Number of occurrences: 1
	Last Error occurred: 04/04/14 - 08:31:13
AB_ETHIP-1\0.(172.20.2.151).1.0 : -none- : 04/04/14 - 08:31:13 : 00h
	Items: -none-
	Type: READ
	Mfg: Allen-Bradley
	PlcType: Logix5000
	Desc: ControlLogix connection 33131927 got disconnected.
	Number of occurrences: 1
	Last Error occurred: 04/04/14 - 08:31:13
AB_ETHIP-1\0.(172.20.2.151).1.0 : -none- : 04/04/14 - 08:31:13 : 00h
	Items: -none-
	Type: READ
	Mfg: Allen-Bradley
	PlcType: Logix5000
	Desc: ControlLogix connection 33131933 got disconnected.
	Number of occurrences: 1
	Last Error occurred: 04/04/14 - 08:31:13
AB_ETHIP-1\0.(172.20.2.207).1.0 : -none- : 04/04/14 - 08:31:17 : 00h
	Items: -none-
	Type: READ
	Mfg: Allen-Bradley
	PlcType: Logix5000
	Desc: ControlLogix connection 33149195 got disconnected.
	Number of occurrences: 1
	Last Error occurred: 04/04/14 - 08:31:17
AB_ETHIP-1\0.(172.20.2.151).1.0 : -none- : 04/04/14 - 08:31:26 : 00h
	Items: -none-
	Type: READ
	Mfg: Allen-Bradley
	PlcType: Logix5000
	Desc: ControlLogix connection 33150685 got disconnected.
	Number of occurrences: 1
	Last Error occurred: 04/04/14 - 08:31:26
AB_ETHIP-1\0.(172.20.2.151).1.0 : -none- : 04/04/14 - 08:31:26 : 00h
	Items: -none-
	Type: READ
	Mfg: Allen-Bradley
	PlcType: Logix5000
	Desc: ControlLogix connection 33150691 got disconnected.
	Number of occurrences: 1
	Last Error occurred: 04/04/14 - 08:31:26
AB_ETHIP-1\0.(172.20.2.151).1.0 : TxLgv[0],L210 : 04/04/14 - 08:31:26 : 00h
	Items: TxLgv[0],L210
	Type: READ
	Mfg: Allen-Bradley
	PlcType: Logix5000
	Desc: ControlLogix Optimized packet being reinitialized dccbc8, connection 33150685, packet's connection 33150685, packet's read connection 0, packet's state --Creating Optimized Packet--Pending
	Number of occurrences: 1
	Last Error occurred: 04/04/14 - 08:31:26
AB_ETHIP-1\0.(172.20.2.151).1.0 : -none- : 04/04/14 - 08:31:26 : 00h
	Items: -none-
	Type: READ
	Mfg: Allen-Bradley
	PlcType: Logix5000
	Desc: ControlLogix connection 33150697 got disconnected.
	Number of occurrences: 1
	Last Error occurred: 04/04/14 - 08:31:26
AB_ETHIP-1\0.(172.20.2.151).1.0 : RxLgv[10],L200 : 04/04/14 - 08:31:26 : 00h
	Items: RxLgv[10],L200
	Type: READ
	Mfg: Allen-Bradley
	PlcType: Logix5000
	Desc: ControlLogix Optimized packet being reinitialized 682e658, connection 33150691, packet's connection 33150691, packet's read connection 0, packet's state --Creating Optimized Packet--Pending
	Number of occurrences: 1
	Last Error occurred: 04/04/14 - 08:31:26
AB_ETHIP-1\0.(172.20.2.151).1.0 : RxLgv[210],L200 : 04/04/14 - 08:31:26 : 00h
	Items: RxLgv[210],L200
	Type: READ
	Mfg: Allen-Bradley
	PlcType: Logix5000
	Desc: ControlLogix Optimized packet being reinitialized 682f008, connection 33150697, packet's connection 33150697, packet's read connection 0, packet's state --Creating Optimized Packet--Pending
	Number of occurrences: 1
	Last Error occurred: 04/04/14 - 08:31:26
AB_ETHIP-1\0.(172.20.2.151).1.0 : -none- : 04/04/14 - 08:31:26 : 00h
	Items: -none-
	Type: READ
	Mfg: Allen-Bradley
	PlcType: Logix5000
	Desc: ControlLogix connection 33150773 got disconnected.
	Number of occurrences: 1
	Last Error occurred: 04/04/14 - 08:31:26
AB_ETHIP-1\0.(172.20.2.151).1.0 : RxLgv[0],L10 : 04/04/14 - 08:31:26 : 00h
	Items: RxLgv[0],L10
	Type: READ
	Mfg: Allen-Bradley
	PlcType: Logix5000
	Desc: ControlLogix Optimized packet being reinitialized dcdcc0, connection 33150773, packet's connection 33150773, packet's read connection 0, packet's state --Creating Optimized Packet--Pending
	Number of occurrences: 1
	Last Error occurred: 04/04/14 - 08:31:26
AB_ETHIP-1\0.(172.20.2.151).1.0 : TxLgv[0],L210 : 04/04/14 - 08:31:43 : 00h
	Items: TxLgv[0],L210
	Type: READ
	Mfg: Allen-Bradley
	PlcType: Logix5000
	Desc: ControlLogix Optimized packet being reinitialized dccbc8, connection 0, packet's connection 33153029, packet's read connection 33153041, packet's state --Add_Remove_Read
	Number of occurrences: 1
	Last Error occurred: 04/04/14 - 08:31:43
AB_ETHIP-1\0.(172.20.2.151).1.0 : RxLgv[10],L200 : 04/04/14 - 08:31:43 : 00h
	Items: RxLgv[10],L200
	Type: READ
	Mfg: Allen-Bradley
	PlcType: Logix5000
	Desc: ControlLogix Optimized packet being reinitialized 682e658, connection 0, packet's connection 33153035, packet's read connection 33153135, packet's state --Add_Remove_Read
	Number of occurrences: 1
	Last Error occurred: 04/04/14 - 08:31:43
AB_ETHIP-1\0.(172.20.2.151).1.0 : RxLgv[0],L10 : 04/04/14 - 08:31:43 : 00h
	Items: RxLgv[0],L10
	Type: READ
	Mfg: Allen-Bradley
	PlcType: Logix5000
	Desc: ControlLogix Optimized packet being reinitialized dcdcc0, connection 0, packet's connection 33153135, packet's read connection 33153035, packet's state --Add_Remove_Read
	Number of occurrences: 1
	Last Error occurred: 04/04/14 - 08:31:43
AB_ETHIP-1\0.(172.20.2.150).1.0 : -none- : 04/04/14 - 09:53:21 : 00h
	Items: -none-
	Type: READ
	Mfg: Allen-Bradley
	PlcType: Logix5000
	Desc: ControlLogix connection 33131985 got disconnected.
	Number of occurrences: 1
	Last Error occurred: 04/04/14 - 09:53:21
AB_ETHIP-1\0.(172.20.2.150).1.0 : -none- : 04/04/14 - 09:53:21 : 00h
	Items: -none-
	Type: READ
	Mfg: Allen-Bradley
	PlcType: Logix5000
	Desc: ControlLogix connection 33131991 got disconnected.
	Number of occurrences: 1
	Last Error occurred: 04/04/14 - 09:53:21
AB_ETHIP-1\0.(172.20.2.150).1.0 : -none- : 04/04/14 - 09:53:21 : 00h
	Items: -none-
	Type: READ
	Mfg: Allen-Bradley
	PlcType: Logix5000
	Desc: ControlLogix connection 33131997 got disconnected.
	Number of occurrences: 1
	Last Error occurred: 04/04/14 - 09:53:21
AB_ETHIP-1\0.(172.20.2.150).1.0 : RxLgv[210],L50 : 04/04/14 - 09:53:21 : 00h
	Items: RxLgv[210],L50
	Type: READ
	Mfg: Allen-Bradley
	PlcType: Logix5000
	Desc: ControlLogix Optimized packet being reinitialized dc1380, connection 33131991, packet's connection 33131991, packet's read connection 33131997, packet's state --Add_Remove_Read--Pending
	Number of occurrences: 1
	Last Error occurred: 04/04/14 - 09:53:21
AB_ETHIP-1\0.(172.20.2.150).1.0 : -none- : 04/04/14 - 09:53:21 : 00h
	Items: -none-
	Type: READ
	Mfg: Allen-Bradley
	PlcType: Logix5000
	Desc: ControlLogix optimized packet response while in Initialized state:  dc1380
	Number of occurrences: 1
	Last Error occurred: 04/04/14 - 09:53:21
AB_ETHIP-1\0.(172.20.2.150).1.0 : -none- : 04/04/14 - 09:53:21 : 00h
	Items: -none-
	Type: READ
	Mfg: Allen-Bradley
	PlcType: Logix5000
	Desc: ControlLogix connection 33131979 got disconnected.
	Number of occurrences: 1
	Last Error occurred: 04/04/14 - 09:53:21
AB_ETHIP-1\0.(172.20.2.150).1.0 : RxLgv[210],L200 : 04/04/14 - 09:53:21 : 00h
	Items: RxLgv[210],L200
	Type: READ
	Mfg: Allen-Bradley
	PlcType: Logix5000
	Desc: ControlLogix Optimized packet being reinitialized 68278b8, connection 33131979, packet's connection 33131979, packet's read connection 33131979, packet's state --Add_Remove_Read--Pending
	Number of occurrences: 1
	Last Error occurred: 04/04/14 - 09:53:21
AB_ETHIP-1\0.(172.20.2.150).1.0 : -none- : 04/04/14 - 09:53:34 : 00h
	Items: -none-
	Type: READ
	Mfg: Allen-Bradley
	PlcType: Logix5000
	Desc: ControlLogix connection 34102301 got disconnected.
	Number of occurrences: 1
	Last Error occurred: 04/04/14 - 09:53:34
AB_ETHIP-1\0.(172.20.2.150).1.0 : RxLgv[0],L10 : 04/04/14 - 09:53:34 : 00h
	Items: RxLgv[0],L10
	Type: READ
	Mfg: Allen-Bradley
	PlcType: Logix5000
	Desc: ControlLogix Optimized packet being reinitialized dc0268, connection 34102301, packet's connection 34102301, packet's read connection 0, packet's state --Creating Optimized Packet--Pending
	Number of occurrences: 1
	Last Error occurred: 04/04/14 - 09:53:34
AB_ETHIP-1\0.(172.20.2.150).1.0 : -none- : 04/04/14 - 09:53:34 : 00h
	Items: -none-
	Type: READ
	Mfg: Allen-Bradley
	PlcType: Logix5000
	Desc: ControlLogix connection 34102311 got disconnected.
	Number of occurrences: 1
	Last Error occurred: 04/04/14 - 09:53:34
AB_ETHIP-1\0.(172.20.2.150).1.0 : RxLgv[210],L200 : 04/04/14 - 09:53:34 : 00h
	Items: RxLgv[210],L200
	Type: READ
	Mfg: Allen-Bradley
	PlcType: Logix5000
	Desc: ControlLogix Optimized packet being reinitialized 68278b8, connection 34102301, packet's connection 34102301, packet's read connection 0, packet's state --Creating Optimized Packet--Pending
	Number of occurrences: 1
	Last Error occurred: 04/04/14 - 09:53:34
AB_ETHIP-1\0.(172.20.2.150).1.0 : -none- : 04/04/14 - 09:53:34 : 00h
	Items: -none-
	Type: READ
	Mfg: Allen-Bradley
	PlcType: Logix5000
	Desc: ControlLogix connection 34102321 got disconnected.
	Number of occurrences: 1
	Last Error occurred: 04/04/14 - 09:53:34
AB_ETHIP-1\0.(172.20.2.150).1.0 : RxLgv[210],L50 : 04/04/14 - 09:53:34 : 00h
	Items: RxLgv[210],L50
	Type: READ
	Mfg: Allen-Bradley
	PlcType: Logix5000
	Desc: ControlLogix Optimized packet being reinitialized dc1380, connection 34102311, packet's connection 34102311, packet's read connection 0, packet's state --Creating Optimized Packet--Pending
	Number of occurrences: 1
	Last Error occurred: 04/04/14 - 09:53:34
AB_ETHIP-1\0.(172.20.2.150).1.0 : RxLgv[10],L200 : 04/04/14 - 09:53:34 : 00h
	Items: RxLgv[10],L200
	Type: READ
	Mfg: Allen-Bradley
	PlcType: Logix5000
	Desc: ControlLogix Optimized packet being reinitialized 6826e38, connection 34102321, packet's connection 34102321, packet's read connection 0, packet's state --Creating Optimized Packet--Pending
	Number of occurrences: 1
	Last Error occurred: 04/04/14 - 09:53:34
AB_ETHIP-1\0.(172.20.2.150).1.0 : -none- : 04/04/14 - 09:53:34 : 00h
	Items: -none-
	Type: READ
	Mfg: Allen-Bradley
	PlcType: Logix5000
	Desc: ControlLogix connection 34102345 got disconnected.
	Number of occurrences: 1
	Last Error occurred: 04/04/14 - 09:53:34
AB_ETHIP-1\0.(172.20.2.150).1.0 : TxLgv[0],L210 : 04/04/14 - 09:53:34 : 00h
	Items: TxLgv[0],L210
	Type: READ
	Mfg: Allen-Bradley
	PlcType: Logix5000
	Desc: ControlLogix Optimized packet being reinitialized dbf190, connection 34102345, packet's connection 34102345, packet's read connection 0, packet's state --Creating Optimized Packet--Pending
	Number of occurrences: 1
	Last Error occurred: 04/04/14 - 09:53:34
AB_ETHIP-1\0.(172.20.2.150).1.0 : RxLgv[0],L10 : 04/04/14 - 09:53:51 : 00h
	Items: RxLgv[0],L10
	Type: READ
	Mfg: Allen-Bradley
	PlcType: Logix5000
	Desc: ControlLogix Optimized packet being reinitialized dc0268, connection 0, packet's connection 34104645, packet's read connection 34104645, packet's state --Add_Remove_Read
	Number of occurrences: 1
	Last Error occurred: 04/04/14 - 09:53:51
AB_ETHIP-1\0.(172.20.2.150).1.0 : RxLgv[10],L200 : 04/04/14 - 09:53:51 : 00h
	Items: RxLgv[10],L200
	Type: READ
	Mfg: Allen-Bradley
	PlcType: Logix5000
	Desc: ControlLogix Optimized packet being reinitialized 6826e38, connection 0, packet's connection 34104657, packet's read connection 34104651, packet's state --Add_Remove_Read
	Number of occurrences: 1
	Last Error occurred: 04/04/14 - 09:53:51
AB_ETHIP-1\0.(172.20.2.150).1.0 : TxLgv[0],L210 : 04/04/14 - 09:53:51 : 00h
	Items: TxLgv[0],L210
	Type: READ
	Mfg: Allen-Bradley
	PlcType: Logix5000
	Desc: ControlLogix Optimized packet being reinitialized dbf190, connection 0, packet's connection 34104645, packet's read connection 34104663, packet's state --Add_Remove_Read
	Number of occurrences: 1
	Last Error occurred: 04/04/14 - 09:53:51
AB_ETH-1\0.(172.23.97.66).1.0 : -none- : 04/04/14 - 10:31:16 : 00h
	Items: -none-
	Type: READ
	Mfg: Allen-Bradley
	PlcType: Logix5000
	Desc: Online change was made to tag information.
	Number of occurrences: 1
	Last Error occurred: 04/04/14 - 10:31:16
AB_ETH-1\0.(172.23.97.66).1.0 : -none- : 04/04/14 - 10:31:35 : 00h
	Items: -none-
	Type: READ
	Mfg: Allen-Bradley
	PlcType: Logix5000
	Desc: Online change was made to tag information.
	Number of occurrences: 1
	Last Error occurred: 04/04/14 - 10:31:35
AB_ETH-1\0.(172.23.97.66).1.0 : -none- : 04/04/14 - 10:33:47 : 00h
	Items: -none-
	Type: READ
	Mfg: Allen-Bradley
	PlcType: Logix5000
	Desc: ControlLogix connection 467 got disconnected.
	Number of occurrences: 1
	Last Error occurred: 04/04/14 - 10:33:47
AB_ETHIP-1\0.(172.20.2.151).1.0 : -none- : 04/04/14 - 10:33:47 : 00h
	Items: -none-
	Type: READ
	Mfg: Allen-Bradley
	PlcType: Logix5000
	Desc: ControlLogix connection 33153135 got disconnected.
	Number of occurrences: 1
	Last Error occurred: 04/04/14 - 10:33:47
AB_ETHIP-1\0.(172.20.2.151).1.0 : -none- : 04/04/14 - 10:33:47 : 00h
	Items: -none-
	Type: READ
	Mfg: Allen-Bradley
	PlcType: Logix5000
	Desc: ControlLogix connection 33153029 got disconnected.
	Number of occurrences: 1
	Last Error occurred: 04/04/14 - 10:33:47
AB_ETHIP-1\0.(172.20.2.136).1.0 : -none- : 04/04/14 - 10:33:47 : 00h
	Items: -none-
	Type: READ
	Mfg: Allen-Bradley
	PlcType: Logix5000
	Desc: ControlLogix connection 93 got disconnected.
	Number of occurrences: 1
	Last Error occurred: 04/04/14 - 10:33:47
AB_ETHIP-1\0.(172.20.2.136).1.0 : -none- : 04/04/14 - 10:33:47 : 00h
	Items: -none-
	Type: READ
	Mfg: Allen-Bradley
	PlcType: Logix5000
	Desc: ControlLogix connection 99 got disconnected.
	Number of occurrences: 1
	Last Error occurred: 04/04/14 - 10:33:47
AB_ETHIP-1\0.(172.20.2.136).1.0 : -none- : 04/04/14 - 10:33:47 : 00h
	Items: -none-
	Type: READ
	Mfg: Allen-Bradley
	PlcType: Logix5000
	Desc: ControlLogix connection 105 got disconnected.
	Number of occurrences: 1
	Last Error occurred: 04/04/14 - 10:33:47
AB_ETHIP-1\0.(172.20.2.136).1.0 : -none- : 04/04/14 - 10:33:47 : 00h
	Items: -none-
	Type: READ
	Mfg: Allen-Bradley
	PlcType: Logix5000
	Desc: ControlLogix connection 111 got disconnected.
	Number of occurrences: 1
	Last Error occurred: 04/04/14 - 10:33:47
AB_ETHIP-1\0.(172.20.2.146).1.0 : -none- : 04/04/14 - 10:33:47 : 00h
	Items: -none-
	Type: READ
	Mfg: Allen-Bradley
	PlcType: Logix5000
	Desc: ControlLogix connection 43 got disconnected.
	Number of occurrences: 1
	Last Error occurred: 04/04/14 - 10:33:47
AB_ETHIP-1\0.(172.20.2.146).1.0 : -none- : 04/04/14 - 10:33:47 : 00h
	Items: -none-
	Type: READ
	Mfg: Allen-Bradley
	PlcType: Logix5000
	Desc: ControlLogix connection 69 got disconnected.
	Number of occurrences: 1
	Last Error occurred: 04/04/14 - 10:33:47
AB_ETHIP-1\0.(172.20.2.146).1.0 : -none- : 04/04/14 - 10:33:47 : 00h
	Items: -none-
	Type: READ
	Mfg: Allen-Bradley
	PlcType: Logix5000
	Desc: ControlLogix connection 563 got disconnected.
	Number of occurrences: 1
	Last Error occurred: 04/04/14 - 10:33:47
AB_ETHIP-1\0.(172.20.2.146).1.0 : -none- : 04/04/14 - 10:33:47 : 00h
	Items: -none-
	Type: READ
	Mfg: Allen-Bradley
	PlcType: Logix5000
	Desc: ControlLogix connection 7 got disconnected.
	Number of occurrences: 1
	Last Error occurred: 04/04/14 - 10:33:47
AB_ETHIP-1\0.(172.20.2.153).1.0 : -none- : 04/04/14 - 10:33:47 : 00h
	Items: -none-
	Type: READ
	Mfg: Allen-Bradley
	PlcType: Logix5000
	Desc: ControlLogix connection 627 got disconnected.
	Number of occurrences: 1
	Last Error occurred: 04/04/14 - 10:33:47
AB_ETHIP-1\0.(172.20.2.153).1.0 : -none- : 04/04/14 - 10:33:47 : 00h
	Items: -none-
	Type: READ
	Mfg: Allen-Bradley
	PlcType: Logix5000
	Desc: ControlLogix connection 11 got disconnected.
	Number of occurrences: 1
	Last Error occurred: 04/04/14 - 10:33:47
AB_ETHIP-1\0.(172.20.2.153).1.0 : -none- : 04/04/14 - 10:33:47 : 00h
	Items: -none-
	Type: READ
	Mfg: Allen-Bradley
	PlcType: Logix5000
	Desc: ControlLogix connection 47 got disconnected.
	Number of occurrences: 1
	Last Error occurred: 04/04/14 - 10:33:47
AB_ETHIP-1\0.(172.20.2.153).1.0 : -none- : 04/04/14 - 10:33:47 : 00h
	Items: -none-
	Type: READ
	Mfg: Allen-Bradley
	PlcType: Logix5000
	Desc: ControlLogix connection 75 got disconnected.
	Number of occurrences: 1
	Last Error occurred: 04/04/14 - 10:33:47
AB_ETHIP-1\0.(172.20.2.150).1.0 : -none- : 04/04/14 - 10:33:47 : 00h
	Items: -none-
	Type: READ
	Mfg: Allen-Bradley
	PlcType: Logix5000
	Desc: ControlLogix connection 34104645 got disconnected.
	Number of occurrences: 1
	Last Error occurred: 04/04/14 - 10:33:47
AB_ETHIP-1\0.(172.20.2.150).1.0 : -none- : 04/04/14 - 10:33:47 : 00h
	Items: -none-
	Type: READ
	Mfg: Allen-Bradley
	PlcType: Logix5000
	Desc: ControlLogix connection 34104651 got disconnected.
	Number of occurrences: 1
	Last Error occurred: 04/04/14 - 10:33:47
AB_ETHIP-1\0.(172.20.2.155).1.0 : -none- : 04/04/14 - 10:33:47 : 00h
	Items: -none-
	Type: READ
	Mfg: Allen-Bradley
	PlcType: Logix5000
	Desc: ControlLogix connection 5 got disconnected.
	Number of occurrences: 1
	Last Error occurred: 04/04/14 - 10:33:47
AB_ETHIP-1\0.(172.20.2.154).1.0 : -none- : 04/04/14 - 10:33:48 : 00h
	Items: -none-
	Type: READ
	Mfg: Allen-Bradley
	PlcType: Logix5000
	Desc: ControlLogix connection 537 got disconnected.
	Number of occurrences: 1
	Last Error occurred: 04/04/14 - 10:33:48
AB_ETHIP-1\0.(172.20.2.154).1.0 : -none- : 04/04/14 - 10:33:48 : 00h
	Items: -none-
	Type: READ
	Mfg: Allen-Bradley
	PlcType: Logix5000
	Desc: ControlLogix connection 525 got disconnected.
	Number of occurrences: 1
	Last Error occurred: 04/04/14 - 10:33:48
AB_ETHIP-1\0.(172.20.2.154).1.0 : -none- : 04/04/14 - 10:33:48 : 00h
	Items: -none-
	Type: READ
	Mfg: Allen-Bradley
	PlcType: Logix5000
	Desc: ControlLogix connection 531 got disconnected.
	Number of occurrences: 1
	Last Error occurred: 04/04/14 - 10:33:48
AB_ETHIP-1\0.(172.20.2.151).1.0 : -none- : 04/04/14 - 10:33:48 : 00h
	Items: -none-
	Type: READ
	Mfg: Allen-Bradley
	PlcType: Logix5000
	Desc: ControlLogix connection 33153035 got disconnected.
	Number of occurrences: 1
	Last Error occurred: 04/04/14 - 10:33:48
AB_ETHIP-1\0.(172.20.2.151).1.0 : -none- : 04/04/14 - 10:33:48 : 00h
	Items: -none-
	Type: READ
	Mfg: Allen-Bradley
	PlcType: Logix5000
	Desc: ControlLogix connection 33153041 got disconnected.
	Number of occurrences: 1
	Last Error occurred: 04/04/14 - 10:33:48
AB_ETHIP-1\0.(172.20.2.152).1.0 : -none- : 04/04/14 - 10:33:48 : 00h
	Items: -none-
	Type: READ
	Mfg: Allen-Bradley
	PlcType: Logix5000
	Desc: ControlLogix connection 77 got disconnected.
	Number of occurrences: 1
	Last Error occurred: 04/04/14 - 10:33:48
AB_ETHIP-1\0.(172.20.2.152).1.0 : -none- : 04/04/14 - 10:33:48 : 00h
	Items: -none-
	Type: READ
	Mfg: Allen-Bradley
	PlcType: Logix5000
	Desc: ControlLogix connection 619 got disconnected.
	Number of occurrences: 1
	Last Error occurred: 04/04/14 - 10:33:48
AB_ETHIP-1\0.(172.20.2.152).1.0 : -none- : 04/04/14 - 10:33:48 : 00h
	Items: -none-
	Type: READ
	Mfg: Allen-Bradley
	PlcType: Logix5000
	Desc: ControlLogix connection 9 got disconnected.
	Number of occurrences: 1
	Last Error occurred: 04/04/14 - 10:33:48
AB_ETHIP-1\0.(172.20.2.152).1.0 : -none- : 04/04/14 - 10:33:48 : 00h
	Items: -none-
	Type: READ
	Mfg: Allen-Bradley
	PlcType: Logix5000
	Desc: ControlLogix connection 49 got disconnected.
	Number of occurrences: 1
	Last Error occurred: 04/04/14 - 10:33:48
AB_ETHIP-1\0.(172.20.2.150).1.0 : -none- : 04/04/14 - 10:33:48 : 00h
	Items: -none-
	Type: READ
	Mfg: Allen-Bradley
	PlcType: Logix5000
	Desc: ControlLogix connection 34104657 got disconnected.
	Number of occurrences: 1
	Last Error occurred: 04/04/14 - 10:33:48
AB_ETHIP-1\0.(172.20.2.150).1.0 : -none- : 04/04/14 - 10:33:48 : 00h
	Items: -none-
	Type: READ
	Mfg: Allen-Bradley
	PlcType: Logix5000
	Desc: ControlLogix connection 34104663 got disconnected.
	Number of occurrences: 1
	Last Error occurred: 04/04/14 - 10:33:48
AB_ETHIP-1\0.(172.20.2.207).1.0 : -none- : 04/04/14 - 10:33:49 : 00h
	Items: -none-
	Type: READ
	Mfg: Allen-Bradley
	PlcType: Logix5000
	Desc: ControlLogix connection 33153395 got disconnected.
	Number of occurrences: 1
	Last Error occurred: 04/04/14 - 10:33:49
AB_ETHIP-1\0.(172.20.2.146).1.0 : TxLgv[0],L210 : 04/04/14 - 10:33:51 : 00h
	Items: TxLgv[0],L210
	Type: READ
	Mfg: Allen-Bradley
	PlcType: Logix5000
	Desc: ControlLogix Optimized packet being reinitialized d88280, connection 0, packet's connection 7, packet's read connection 43, packet's state --Add_Remove_Read--Pending
	Number of occurrences: 1
	Last Error occurred: 04/04/14 - 10:33:51
AB_ETHIP-1\0.(172.20.2.146).1.0 : RxLgv[0],L10 : 04/04/14 - 10:33:51 : 00h
	Items: RxLgv[0],L10
	Type: READ
	Mfg: Allen-Bradley
	PlcType: Logix5000
	Desc: ControlLogix Optimized packet being reinitialized d89118, connection 0, packet's connection 43, packet's read connection 69, packet's state --Add_Remove_Read--Pending
	Number of occurrences: 1
	Last Error occurred: 04/04/14 - 10:33:51
AB_ETHIP-1\0.(172.20.2.146).1.0 : RxLgv[10],L200 : 04/04/14 - 10:33:51 : 00h
	Items: RxLgv[10],L200
	Type: READ
	Mfg: Allen-Bradley
	PlcType: Logix5000
	Desc: ControlLogix Optimized packet being reinitialized 68065b0, connection 0, packet's connection 563, packet's read connection 563, packet's state --Add_Remove_Read--Pending
	Number of occurrences: 1
	Last Error occurred: 04/04/14 - 10:33:51
AB_ETHIP-1\0.(172.20.2.146).1.0 : RxLgv[210],L200 : 04/04/14 - 10:33:51 : 00h
	Items: RxLgv[210],L200
	Type: READ
	Mfg: Allen-Bradley
	PlcType: Logix5000
	Desc: ControlLogix Optimized packet being reinitialized 6807060, connection 0, packet's connection 7, packet's read connection 7, packet's state --Add_Remove_Read--Pending
	Number of occurrences: 1
	Last Error occurred: 04/04/14 - 10:33:51
AB_ETHIP-1\0.(172.20.2.154).1.0 : TxLgv[0],L210 : 04/04/14 - 10:33:52 : 00h
	Items: TxLgv[0],L210
	Type: READ
	Mfg: Allen-Bradley
	PlcType: Logix5000
	Desc: ControlLogix Optimized packet being reinitialized 680caa0, connection 0, packet's connection 525, packet's read connection 537, packet's state --Add_Remove_Read--Pending
	Number of occurrences: 1
	Last Error occurred: 04/04/14 - 10:33:52
AB_ETHIP-1\0.(172.20.2.154).1.0 : RxLgv[0],L10 : 04/04/14 - 10:33:52 : 00h
	Items: RxLgv[0],L10
	Type: READ
	Mfg: Allen-Bradley
	PlcType: Logix5000
	Desc: ControlLogix Optimized packet being reinitialized 680dd58, connection 0, packet's connection 531, packet's read connection 525, packet's state --Add_Remove_Read--Pending
	Number of occurrences: 1
	Last Error occurred: 04/04/14 - 10:33:52
AB_ETHIP-1\0.(172.20.2.154).1.0 : RxLgv[210],L200 : 04/04/14 - 10:33:52 : 00h
	Items: RxLgv[210],L200
	Type: READ
	Mfg: Allen-Bradley
	PlcType: Logix5000
	Desc: ControlLogix Optimized packet being reinitialized 680e5e8, connection 0, packet's connection 537, packet's read connection 531, packet's state --Add_Remove_Read--Pending
	Number of occurrences: 1
	Last Error occurred: 04/04/14 - 10:33:52
AB_ETHIP-1\0.(172.20.2.155).1.0 : RxLgv[0],L10 : 04/04/14 - 10:33:52 : 00h
	Items: RxLgv[0],L10
	Type: READ
	Mfg: Allen-Bradley
	PlcType: Logix5000
	Desc: ControlLogix Optimized packet being reinitialized dbdbf8, connection 0, packet's connection 5, packet's read connection 5, packet's state --Add_Remove_Read--Pending
	Number of occurrences: 1
	Last Error occurred: 04/04/14 - 10:33:52
AB_ETHIP-1\0.(172.20.2.136).1.0 : U1_Tx_LGV[0],L10 : 04/04/14 - 10:33:52 : 00h
	Items: U1_Tx_LGV[0],L10
	Type: READ
	Mfg: Allen-Bradley
	PlcType: Logix5000
	Desc: ControlLogix Optimized packet being reinitialized de8538, connection 0, packet's connection 105, packet's read connection 99, packet's state --Add_Remove_Read--Pending
	Number of occurrences: 1
	Last Error occurred: 04/04/14 - 10:33:52
AB_ETHIP-1\0.(172.20.2.136).1.0 : A09_Tx_LGV[0],L210 : 04/04/14 - 10:33:52 : 00h
	Items: A09_Tx_LGV[0],L210
	Type: READ
	Mfg: Allen-Bradley
	PlcType: Logix5000
	Desc: ControlLogix Optimized packet being reinitialized 684c200, connection 0, packet's connection 111, packet's read connection 105, packet's state --Add_Remove_Read--Pending
	Number of occurrences: 1
	Last Error occurred: 04/04/14 - 10:33:52
AB_ETHIP-1\0.(172.20.2.136).1.0 : U1_Tx_LGV[0],L210 : 04/04/14 - 10:33:52 : 00h
	Items: U1_Tx_LGV[0],L210
	Type: READ
	Mfg: Allen-Bradley
	PlcType: Logix5000
	Desc: ControlLogix Optimized packet being reinitialized 684fed0, connection 0, packet's connection 111, packet's read connection 111, packet's state --Add_Remove_Read--Pending
	Number of occurrences: 1
	Last Error occurred: 04/04/14 - 10:33:52
AB_ETHIP-1\0.(172.20.2.153).1.0 : TxLgv[0],L210 : 04/04/14 - 10:33:52 : 00h
	Items: TxLgv[0],L210
	Type: READ
	Mfg: Allen-Bradley
	PlcType: Logix5000
	Desc: ControlLogix Optimized packet being reinitialized de5620, connection 0, packet's connection 11, packet's read connection 627, packet's state --Add_Remove_Read--Pending
	Number of occurrences: 1
	Last Error occurred: 04/04/14 - 10:33:52
AB_ETHIP-1\0.(172.20.2.153).1.0 : RxLgv[0],L10 : 04/04/14 - 10:33:52 : 00h
	Items: RxLgv[0],L10
	Type: READ
	Mfg: Allen-Bradley
	PlcType: Logix5000
	Desc: ControlLogix Optimized packet being reinitialized de6718, connection 0, packet's connection 47, packet's read connection 11, packet's state --Add_Remove_Read--Pending
	Number of occurrences: 1
	Last Error occurred: 04/04/14 - 10:33:52
AB_ETHIP-1\0.(172.20.2.153).1.0 : RxLgv[10],L200 : 04/04/14 - 10:33:52 : 00h
	Items: RxLgv[10],L200
	Type: READ
	Mfg: Allen-Bradley
	PlcType: Logix5000
	Desc: ControlLogix Optimized packet being reinitialized 6842460, connection 0, packet's connection 627, packet's read connection 47, packet's state --Add_Remove_Read--Pending
	Number of occurrences: 1
	Last Error occurred: 04/04/14 - 10:33:52
AB_ETHIP-1\0.(172.20.2.153).1.0 : RxLgv[210],L200 : 04/04/14 - 10:33:52 : 00h
	Items: RxLgv[210],L200
	Type: READ
	Mfg: Allen-Bradley
	PlcType: Logix5000
	Desc: ControlLogix Optimized packet being reinitialized 6842eb8, connection 0, packet's connection 11, packet's read connection 75, packet's state --Add_Remove_Read--Pending
	Number of occurrences: 1
	Last Error occurred: 04/04/14 - 10:33:52
AB_ETHIP-1\0.(172.20.2.150).1.0 : TxLgv[0],L210 : 04/04/14 - 10:33:52 : 00h
	Items: TxLgv[0],L210
	Type: READ
	Mfg: Allen-Bradley
	PlcType: Logix5000
	Desc: ControlLogix Optimized packet being reinitialized dbf190, connection 0, packet's connection 34104645, packet's read connection 34104657, packet's state --Add_Remove_Read--Pending
	Number of occurrences: 1
	Last Error occurred: 04/04/14 - 10:33:52
AB_ETHIP-1\0.(172.20.2.150).1.0 : RxLgv[0],L10 : 04/04/14 - 10:33:52 : 00h
	Items: RxLgv[0],L10
	Type: READ
	Mfg: Allen-Bradley
	PlcType: Logix5000
	Desc: ControlLogix Optimized packet being reinitialized dc0268, connection 0, packet's connection 34104645, packet's read connection 34104663, packet's state --Add_Remove_Read--Pending
	Number of occurrences: 1
	Last Error occurred: 04/04/14 - 10:33:52
AB_ETHIP-1\0.(172.20.2.150).1.0 : RxLgv[10],L200 : 04/04/14 - 10:33:52 : 00h
	Items: RxLgv[10],L200
	Type: READ
	Mfg: Allen-Bradley
	PlcType: Logix5000
	Desc: ControlLogix Optimized packet being reinitialized 6826e38, connection 0, packet's connection 34104657, packet's read connection 34104645, packet's state --Add_Remove_Read--Pending
	Number of occurrences: 1
	Last Error occurred: 04/04/14 - 10:33:52
AB_ETHIP-1\0.(172.20.2.150).1.0 : RxLgv[210],L200 : 04/04/14 - 10:33:52 : 00h
	Items: RxLgv[210],L200
	Type: READ
	Mfg: Allen-Bradley
	PlcType: Logix5000
	Desc: ControlLogix Optimized packet being reinitialized 68278b8, connection 0, packet's connection 34104663, packet's read connection 34104651, packet's state --Add_Remove_Read--Pending
	Number of occurrences: 1
	Last Error occurred: 04/04/14 - 10:33:52
AB_ETHIP-1\0.(172.20.2.151).1.0 : TxLgv[0],L210 : 04/04/14 - 10:33:52 : 00h
	Items: TxLgv[0],L210
	Type: READ
	Mfg: Allen-Bradley
	PlcType: Logix5000
	Desc: ControlLogix Optimized packet being reinitialized dccbc8, connection 0, packet's connection 33153029, packet's read connection 33153035, packet's state --Add_Remove_Read--Pending
	Number of occurrences: 1
	Last Error occurred: 04/04/14 - 10:33:52
AB_ETHIP-1\0.(172.20.2.151).1.0 : RxLgv[0],L10 : 04/04/14 - 10:33:52 : 00h
	Items: RxLgv[0],L10
	Type: READ
	Mfg: Allen-Bradley
	PlcType: Logix5000
	Desc: ControlLogix Optimized packet being reinitialized dcdcc0, connection 0, packet's connection 33153135, packet's read connection 33153041, packet's state --Add_Remove_Read--Pending
	Number of occurrences: 1
	Last Error occurred: 04/04/14 - 10:33:52
AB_ETHIP-1\0.(172.20.2.152).1.0 : TxLgv[0],L210 : 04/04/14 - 10:33:52 : 00h
	Items: TxLgv[0],L210
	Type: READ
	Mfg: Allen-Bradley
	PlcType: Logix5000
	Desc: ControlLogix Optimized packet being reinitialized ddcdb0, connection 0, packet's connection 9, packet's read connection 49, packet's state --Add_Remove_Read--Pending
	Number of occurrences: 1
	Last Error occurred: 04/04/14 - 10:33:52
AB_ETHIP-1\0.(172.20.2.152).1.0 : RxLgv[0],L10 : 04/04/14 - 10:33:52 : 00h
	Items: RxLgv[0],L10
	Type: READ
	Mfg: Allen-Bradley
	PlcType: Logix5000
	Desc: ControlLogix Optimized packet being reinitialized ddde20, connection 0, packet's connection 49, packet's read connection 77, packet's state --Add_Remove_Read--Pending
	Number of occurrences: 1
	Last Error occurred: 04/04/14 - 10:33:52
AB_ETHIP-1\0.(172.20.2.152).1.0 : RxLgv[210],L50 : 04/04/14 - 10:33:52 : 00h
	Items: RxLgv[210],L50
	Type: READ
	Mfg: Allen-Bradley
	PlcType: Logix5000
	Desc: ControlLogix Optimized packet being reinitialized ddee98, connection 0, packet's connection 77, packet's read connection 619, packet's state --Add_Remove_Read--Pending
	Number of occurrences: 1
	Last Error occurred: 04/04/14 - 10:33:52
AB_ETHIP-1\0.(172.20.2.152).1.0 : RxLgv[10],L200 : 04/04/14 - 10:33:52 : 00h
	Items: RxLgv[10],L200
	Type: READ
	Mfg: Allen-Bradley
	PlcType: Logix5000
	Desc: ControlLogix Optimized packet being reinitialized 683ac58, connection 0, packet's connection 619, packet's read connection 9, packet's state --Add_Remove_Read--Pending
	Number of occurrences: 1
	Last Error occurred: 04/04/14 - 10:33:52
AB_ETHIP-1\0.(172.20.2.152).1.0 : RxLgv[210],L200 : 04/04/14 - 10:33:52 : 00h
	Items: RxLgv[210],L200
	Type: READ
	Mfg: Allen-Bradley
	PlcType: Logix5000
	Desc: ControlLogix Optimized packet being reinitialized 683b738, connection 0, packet's connection 9, packet's read connection 49, packet's state --Add_Remove_Read--Pending
	Number of occurrences: 1
	Last Error occurred: 04/04/14 - 10:33:52
AB_ETHIP-1\0.(172.20.2.207).1.0 : Lgv_Tx[0],L210 : 04/04/14 - 10:33:53 : 00h
	Items: Lgv_Tx[0],L210
	Type: READ
	Mfg: Allen-Bradley
	PlcType: Logix5000
	Desc: ControlLogix Optimized packet being reinitialized 686ed38, connection 0, packet's connection 33153395, packet's read connection 33153395, packet's state --Add_Remove_Read--Pending
	Number of occurrences: 1
	Last Error occurred: 04/04/14 - 10:33:53
AB_ETHIP-1\0.(172.20.2.154).1.0 : -none- : 04/04/14 - 10:34:23 : 00h
	Items: -none-
	Type: READ
	Mfg: Allen-Bradley
	PlcType: Logix5000
	Desc: ControlLogix connection 34564891 got disconnected.
	Number of occurrences: 1
	Last Error occurred: 04/04/14 - 10:34:23
AB_ETHIP-1\0.(172.20.2.155).1.0 : -none- : 04/04/14 - 10:34:23 : 00h
	Items: -none-
	Type: READ
	Mfg: Allen-Bradley
	PlcType: Logix5000
	Desc: ControlLogix connection 34564901 got disconnected.
	Number of occurrences: 1
	Last Error occurred: 04/04/14 - 10:34:23
AB_ETHIP-1\0.(172.20.2.146).1.0 : RxLgv[210],L50 : 04/04/14 - 10:34:24 : 00h
	Items: RxLgv[210],L50
	Type: READ
	Mfg: Allen-Bradley
	PlcType: Logix5000
	Desc: ControlLogix Optimized packet being reinitialized d8a620, connection 0, packet's connection 69, packet's read connection 43, packet's state --Add_Remove_Read--Pending
	Number of occurrences: 1
	Last Error occurred: 04/04/14 - 10:34:24
AB_ETHIP-1\0.(172.20.2.150).1.0 : RxLgv[210],L50 : 04/04/14 - 10:34:24 : 00h
	Items: RxLgv[210],L50
	Type: READ
	Mfg: Allen-Bradley
	PlcType: Logix5000
	Desc: ControlLogix Optimized packet being reinitialized dc1380, connection 0, packet's connection 34104651, packet's read connection 34104645, packet's state --Add_Remove_Read--Pending
	Number of occurrences: 1
	Last Error occurred: 04/04/14 - 10:34:24
AB_ETHIP-1\0.(172.20.2.151).1.0 : RxLgv[10],L200 : 04/04/14 - 10:34:24 : 00h
	Items: RxLgv[10],L200
	Type: READ
	Mfg: Allen-Bradley
	PlcType: Logix5000
	Desc: ControlLogix Optimized packet being reinitialized 682e658, connection 0, packet's connection 33153035, packet's read connection 33153135, packet's state --Add_Remove_Read--Pending
	Number of occurrences: 1
	Last Error occurred: 04/04/14 - 10:34:24
AB_ETHIP-1\0.(172.20.2.151).1.0 : RxLgv[210],L200 : 04/04/14 - 10:34:24 : 00h
	Items: RxLgv[210],L200
	Type: READ
	Mfg: Allen-Bradley
	PlcType: Logix5000
	Desc: ControlLogix Optimized packet being reinitialized 682f008, connection 0, packet's connection 33153041, packet's read connection 33153029, packet's state --Add_Remove_Read--Pending
	Number of occurrences: 1
	Last Error occurred: 04/04/14 - 10:34:24
AB_ETHIP-1\0.(172.20.2.153).1.0 : RxLgv[210],L50 : 04/04/14 - 10:34:24 : 00h
	Items: RxLgv[210],L50
	Type: READ
	Mfg: Allen-Bradley
	PlcType: Logix5000
	Desc: ControlLogix Optimized packet being reinitialized de78a0, connection 0, packet's connection 75, packet's read connection 627, packet's state --Add_Remove_Read--Pending
	Number of occurrences: 1
	Last Error occurred: 04/04/14 - 10:34:24
AB_ETHIP-1\0.(172.20.2.136).1.0 : A09_Tx_LGV[0],L10 : 04/04/14 - 10:34:24 : 00h
	Items: A09_Tx_LGV[0],L10
	Type: READ
	Mfg: Allen-Bradley
	PlcType: Logix5000
	Desc: ControlLogix Optimized packet being reinitialized da78a8, connection 0, packet's connection 93, packet's read connection 93, packet's state --Add_Remove_Read--Pending
	Number of occurrences: 1
	Last Error occurred: 04/04/14 - 10:34:24
AB_ETHIP-1\0.(172.20.2.136).1.0 : U7_Tx_LGV[0],L10 : 04/04/14 - 10:34:24 : 00h
	Items: U7_Tx_LGV[0],L10
	Type: READ
	Mfg: Allen-Bradley
	PlcType: Logix5000
	Desc: ControlLogix Optimized packet being reinitialized daa4a8, connection 0, packet's connection 99, packet's read connection 99, packet's state --Add_Remove_Read--Pending
	Number of occurrences: 1
	Last Error occurred: 04/04/14 - 10:34:24
AB_ETHIP-1\0.(172.20.2.136).1.0 : U6_Tx_LGV[0],L10 : 04/04/14 - 10:34:24 : 00h
	Items: U6_Tx_LGV[0],L10
	Type: READ
	Mfg: Allen-Bradley
	PlcType: Logix5000
	Desc: ControlLogix Optimized packet being reinitialized dac648, connection 0, packet's connection 105, packet's read connection 105, packet's state --Add_Remove_Read--Pending
	Number of occurrences: 1
	Last Error occurred: 04/04/14 - 10:34:24
AB_ETHIP-1\0.(172.20.2.136).1.0 : C03_Tx_LGV[0],L10 : 04/04/14 - 10:34:24 : 00h
	Items: C03_Tx_LGV[0],L10
	Type: READ
	Mfg: Allen-Bradley
	PlcType: Logix5000
	Desc: ControlLogix Optimized packet being reinitialized dae480, connection 0, packet's connection 111, packet's read connection 111, packet's state --Add_Remove_Read--Pending
	Number of occurrences: 1
	Last Error occurred: 04/04/14 - 10:34:24
AB_ETHIP-1\0.(172.20.2.136).1.0 : A03_Tx_LGV[0],L10 : 04/04/14 - 10:34:24 : 00h
	Items: A03_Tx_LGV[0],L10
	Type: READ
	Mfg: Allen-Bradley
	PlcType: Logix5000
	Desc: ControlLogix Optimized packet being reinitialized db02f8, connection 0, packet's connection 93, packet's read connection 93, packet's state --Add_Remove_Read--Pending
	Number of occurrences: 1
	Last Error occurred: 04/04/14 - 10:34:24
AB_ETHIP-1\0.(172.20.2.136).1.0 : A01_Tx_LGV[0],L10 : 04/04/14 - 10:34:24 : 00h
	Items: A01_Tx_LGV[0],L10
	Type: READ
	Mfg: Allen-Bradley
	PlcType: Logix5000
	Desc: ControlLogix Optimized packet being reinitialized db2038, connection 0, packet's connection 99, packet's read connection 99, packet's state --Add_Remove_Read--Pending
	Number of occurrences: 1
	Last Error occurred: 04/04/14 - 10:34:24
AB_ETHIP-1\0.(172.20.2.136).1.0 : A05_Tx_LGV[0],L10 : 04/04/14 - 10:34:24 : 00h
	Items: A05_Tx_LGV[0],L10
	Type: READ
	Mfg: Allen-Bradley
	PlcType: Logix5000
	Desc: ControlLogix Optimized packet being reinitialized db5210, connection 0, packet's connection 105, packet's read connection 105, packet's state --Add_Remove_Read--Pending
	Number of occurrences: 1
	Last Error occurred: 04/04/14 - 10:34:24
AB_ETHIP-1\0.(172.20.2.136).1.0 : A08_Tx_LGV[0],L10 : 04/04/14 - 10:34:24 : 00h
	Items: A08_Tx_LGV[0],L10
	Type: READ
	Mfg: Allen-Bradley
	PlcType: Logix5000
	Desc: ControlLogix Optimized packet being reinitialized db6f50, connection 0, packet's connection 111, packet's read connection 111, packet's state --Add_Remove_Read--Pending
	Number of occurrences: 1
	Last Error occurred: 04/04/14 - 10:34:24
AB_ETHIP-1\0.(172.20.2.136).1.0 : C04A_Tx_LGV[0],L10 : 04/04/14 - 10:34:24 : 00h
	Items: C04A_Tx_LGV[0],L10
	Type: READ
	Mfg: Allen-Bradley
	PlcType: Logix5000
	Desc: ControlLogix Optimized packet being reinitialized dc21a8, connection 0, packet's connection 93, packet's read connection 93, packet's state --Add_Remove_Read--Pending
	Number of occurrences: 1
	Last Error occurred: 04/04/14 - 10:34:24
AB_ETHIP-1\0.(172.20.2.136).1.0 : C04B_Tx_LGV[0],L10 : 04/04/14 - 10:34:24 : 00h
	Items: C04B_Tx_LGV[0],L10
	Type: READ
	Mfg: Allen-Bradley
	PlcType: Logix5000
	Desc: ControlLogix Optimized packet being reinitialized dc3e08, connection 0, packet's connection 99, packet's read connection 99, packet's state --Add_Remove_Read--Pending
	Number of occurrences: 1
	Last Error occurred: 04/04/14 - 10:34:24
AB_ETHIP-1\0.(172.20.2.136).1.0 : A01_Tx_LGV[0],L210 : 04/04/14 - 10:34:24 : 00h
	Items: A01_Tx_LGV[0],L210
	Type: READ
	Mfg: Allen-Bradley
	PlcType: Logix5000
	Desc: ControlLogix Optimized packet being reinitialized 6849ab8, connection 0, packet's connection 111, packet's read connection 105, packet's state --Add_Remove_Read--Pending
	Number of occurrences: 1
	Last Error occurred: 04/04/14 - 10:34:24
AB_ETHIP-1\0.(172.20.2.136).1.0 : A03_Tx_LGV[0],L210 : 04/04/14 - 10:34:24 : 00h
	Items: A03_Tx_LGV[0],L210
	Type: READ
	Mfg: Allen-Bradley
	PlcType: Logix5000
	Desc: ControlLogix Optimized packet being reinitialized 684a4e0, connection 0, packet's connection 93, packet's read connection 111, packet's state --Add_Remove_Read--Pending
	Number of occurrences: 1
	Last Error occurred: 04/04/14 - 10:34:24
AB_ETHIP-1\0.(172.20.2.136).1.0 : A05_Tx_LGV[0],L210 : 04/04/14 - 10:34:24 : 00h
	Items: A05_Tx_LGV[0],L210
	Type: READ
	Mfg: Allen-Bradley
	PlcType: Logix5000
	Desc: ControlLogix Optimized packet being reinitialized 684aeb0, connection 0, packet's connection 99, packet's read connection 93, packet's state --Add_Remove_Read--Pending
	Number of occurrences: 1
	Last Error occurred: 04/04/14 - 10:34:24
AB_ETHIP-1\0.(172.20.2.136).1.0 : A08_Tx_LGV[0],L210 : 04/04/14 - 10:34:24 : 00h
	Items: A08_Tx_LGV[0],L210
	Type: READ
	Mfg: Allen-Bradley
	PlcType: Logix5000
	Desc: ControlLogix Optimized packet being reinitialized 684b830, connection 0, packet's connection 105, packet's read connection 99, packet's state --Add_Remove_Read--Pending
	Number of occurrences: 1
	Last Error occurred: 04/04/14 - 10:34:24
AB_ETHIP-1\0.(172.20.2.136).1.0 : C03_Tx_LGV[0],L210 : 04/04/14 - 10:34:24 : 00h
	Items: C03_Tx_LGV[0],L210
	Type: READ
	Mfg: Allen-Bradley
	PlcType: Logix5000
	Desc: ControlLogix Optimized packet being reinitialized 684cb48, connection 0, packet's connection 93, packet's read connection 105, packet's state --Add_Remove_Read--Pending
	Number of occurrences: 1
	Last Error occurred: 04/04/14 - 10:34:24
AB_ETHIP-1\0.(172.20.2.136).1.0 : C04A_Tx_LGV[0],L210 : 04/04/14 - 10:34:24 : 00h
	Items: C04A_Tx_LGV[0],L210
	Type: READ
	Mfg: Allen-Bradley
	PlcType: Logix5000
	Desc: ControlLogix Optimized packet being reinitialized 684d628, connection 0, packet's connection 99, packet's read connection 111, packet's state --Add_Remove_Read--Pending
	Number of occurrences: 1
	Last Error occurred: 04/04/14 - 10:34:24
AB_ETHIP-1\0.(172.20.2.136).1.0 : C04B_Tx_LGV[0],L210 : 04/04/14 - 10:34:24 : 00h
	Items: C04B_Tx_LGV[0],L210
	Type: READ
	Mfg: Allen-Bradley
	PlcType: Logix5000
	Desc: ControlLogix Optimized packet being reinitialized 684e0f0, connection 0, packet's connection 105, packet's read connection 93, packet's state --Add_Remove_Read--Pending
	Number of occurrences: 1
	Last Error occurred: 04/04/14 - 10:34:24
AB_ETHIP-1\0.(172.20.2.136).1.0 : U6_Tx_LGV[0],L210 : 04/04/14 - 10:34:24 : 00h
	Items: U6_Tx_LGV[0],L210
	Type: READ
	Mfg: Allen-Bradley
	PlcType: Logix5000
	Desc: ControlLogix Optimized packet being reinitialized 68508a0, connection 0, packet's connection 93, packet's read connection 99, packet's state --Add_Remove_Read--Pending
	Number of occurrences: 1
	Last Error occurred: 04/04/14 - 10:34:24
AB_ETHIP-1\0.(172.20.2.136).1.0 : U7_Tx_LGV[0],L210 : 04/04/14 - 10:34:24 : 00h
	Items: U7_Tx_LGV[0],L210
	Type: READ
	Mfg: Allen-Bradley
	PlcType: Logix5000
	Desc: ControlLogix Optimized packet being reinitialized 68512f8, connection 0, packet's connection 99, packet's read connection 105, packet's state --Add_Remove_Read--Pending
	Number of occurrences: 1
	Last Error occurred: 04/04/14 - 10:34:24
AB_ETHIP-1\0.(172.20.2.207).1.0 : -none- : 04/04/14 - 10:34:28 : 00h
	Items: -none-
	Type: READ
	Mfg: Allen-Bradley
	PlcType: Logix5000
	Desc: ControlLogix connection 34564943 got disconnected.
	Number of occurrences: 1
	Last Error occurred: 04/04/14 - 10:34:28
