2014-09-12 12.32.45.4667 | Error | Unexpected exception during TryToSendFile  | System.Net.WebException: The remote server returned an error: (426) Connection closed; transfer aborted.
   at System.Net.FtpWebRequest.GetResponse()
   at Elettric80.WMS.FtpProcess.FtpProcess.TryToSendSubInventoryFile(Int32 nrMaxFile) in C:\Elettric80\Source\WMS\Elettric80.WMS.FtpProcess\FtpProcess.cs:line 513
2014-09-12 18.17.59.5928 | Error | Unexpected error in LgvcsProcess.GetMessage(). | System.Messaging.MessageQueueException (0x80004005)
   at System.Messaging.MessageQueue.MQCacheableInfo.get_ReadHandle()
   at System.Messaging.MessageQueue.StaleSafeReceiveMessage(UInt32 timeout, Int32 action, MQPROPS properties, NativeOverlapped* overlapped, ReceiveCallback receiveCallback, CursorHandle cursorHandle, IntPtr transaction)
   at System.Messaging.MessageQueue.ReceiveCurrent(TimeSpan timeout, Int32 action, CursorHandle cursor, MessagePropertyFilter filter, MessageQueueTransaction internalTransaction, MessageQueueTransactionType transactionType)
   at System.Messaging.MessageQueue.Peek(TimeSpan timeout)
   at Elettric80.Communication.MSMQChannel.MSMQChannel.Peek(Int32 timeOut) in C:\Elettric80\Source\WMS\Elettric80.Communication\Elettric80.Communication\Providers\MSMQChannel.cs:line 289
   at Elettric80.WMS.LgvcsProcess.LgvcsProcess.GetMessage() in C:\Elettric80\Source\WMS\Elettric80.WMS.LgvcsProcess\LgvcsProcess.cs:line 530
2014-09-12 18.23.02.2016 | Error | Unexpected error in LgvcsProcess.GetMessage(). | System.Messaging.MessageQueueException (0x80004005)
   at System.Messaging.MessageQueue.MQCacheableInfo.get_ReadHandle()
   at System.Messaging.MessageQueue.StaleSafeReceiveMessage(UInt32 timeout, Int32 action, MQPROPS properties, NativeOverlapped* overlapped, ReceiveCallback receiveCallback, CursorHandle cursorHandle, IntPtr transaction)
   at System.Messaging.MessageQueue.ReceiveCurrent(TimeSpan timeout, Int32 action, CursorHandle cursor, MessagePropertyFilter filter, MessageQueueTransaction internalTransaction, MessageQueueTransactionType transactionType)
   at System.Messaging.MessageQueue.Peek(TimeSpan timeout)
   at Elettric80.Communication.MSMQChannel.MSMQChannel.Peek(Int32 timeOut) in C:\Elettric80\Source\WMS\Elettric80.Communication\Elettric80.Communication\Providers\MSMQChannel.cs:line 289
   at Elettric80.WMS.LgvcsProcess.LgvcsProcess.GetMessage() in C:\Elettric80\Source\WMS\Elettric80.WMS.LgvcsProcess\LgvcsProcess.cs:line 530
2014-09-12 18.28.04.7168 | Error | Unexpected error in LgvcsProcess.GetMessage(). | System.Messaging.MessageQueueException (0x80004005)
   at System.Messaging.MessageQueue.MQCacheableInfo.get_ReadHandle()
   at System.Messaging.MessageQueue.StaleSafeReceiveMessage(UInt32 timeout, Int32 action, MQPROPS properties, NativeOverlapped* overlapped, ReceiveCallback receiveCallback, CursorHandle cursorHandle, IntPtr transaction)
   at System.Messaging.MessageQueue.ReceiveCurrent(TimeSpan timeout, Int32 action, CursorHandle cursor, MessagePropertyFilter filter, MessageQueueTransaction internalTransaction, MessageQueueTransactionType transactionType)
   at System.Messaging.MessageQueue.Peek(TimeSpan timeout)
   at Elettric80.Communication.MSMQChannel.MSMQChannel.Peek(Int32 timeOut) in C:\Elettric80\Source\WMS\Elettric80.Communication\Elettric80.Communication\Providers\MSMQChannel.cs:line 289
   at Elettric80.WMS.LgvcsProcess.LgvcsProcess.GetMessage() in C:\Elettric80\Source\WMS\Elettric80.WMS.LgvcsProcess\LgvcsProcess.cs:line 530
2014-09-12 18.33.07.2164 | Error | Unexpected error in LgvcsProcess.GetMessage(). | System.Messaging.MessageQueueException (0x80004005)
   at System.Messaging.MessageQueue.MQCacheableInfo.get_ReadHandle()
   at System.Messaging.MessageQueue.StaleSafeReceiveMessage(UInt32 timeout, Int32 action, MQPROPS properties, NativeOverlapped* overlapped, ReceiveCallback receiveCallback, CursorHandle cursorHandle, IntPtr transaction)
   at System.Messaging.MessageQueue.ReceiveCurrent(TimeSpan timeout, Int32 action, CursorHandle cursor, MessagePropertyFilter filter, MessageQueueTransaction internalTransaction, MessageQueueTransactionType transactionType)
   at System.Messaging.MessageQueue.Peek(TimeSpan timeout)
   at Elettric80.Communication.MSMQChannel.MSMQChannel.Peek(Int32 timeOut) in C:\Elettric80\Source\WMS\Elettric80.Communication\Elettric80.Communication\Providers\MSMQChannel.cs:line 289
   at Elettric80.WMS.LgvcsProcess.LgvcsProcess.GetMessage() in C:\Elettric80\Source\WMS\Elettric80.WMS.LgvcsProcess\LgvcsProcess.cs:line 530
2014-09-12 18.38.09.7784 | Error | Unexpected error in LgvcsProcess.GetMessage(). | System.Messaging.MessageQueueException (0x80004005)
   at System.Messaging.MessageQueue.MQCacheableInfo.get_ReadHandle()
   at System.Messaging.MessageQueue.StaleSafeReceiveMessage(UInt32 timeout, Int32 action, MQPROPS properties, NativeOverlapped* overlapped, ReceiveCallback receiveCallback, CursorHandle cursorHandle, IntPtr transaction)
   at System.Messaging.MessageQueue.ReceiveCurrent(TimeSpan timeout, Int32 action, CursorHandle cursor, MessagePropertyFilter filter, MessageQueueTransaction internalTransaction, MessageQueueTransactionType transactionType)
   at System.Messaging.MessageQueue.Peek(TimeSpan timeout)
   at Elettric80.Communication.MSMQChannel.MSMQChannel.Peek(Int32 timeOut) in C:\Elettric80\Source\WMS\Elettric80.Communication\Elettric80.Communication\Providers\MSMQChannel.cs:line 289
   at Elettric80.WMS.LgvcsProcess.LgvcsProcess.GetMessage() in C:\Elettric80\Source\WMS\Elettric80.WMS.LgvcsProcess\LgvcsProcess.cs:line 530
2014-09-12 18.43.12.6680 | Error | Unexpected error in LgvcsProcess.GetMessage(). | System.Messaging.MessageQueueException (0x80004005)
   at System.Messaging.MessageQueue.MQCacheableInfo.get_ReadHandle()
   at System.Messaging.MessageQueue.StaleSafeReceiveMessage(UInt32 timeout, Int32 action, MQPROPS properties, NativeOverlapped* overlapped, ReceiveCallback receiveCallback, CursorHandle cursorHandle, IntPtr transaction)
   at System.Messaging.MessageQueue.ReceiveCurrent(TimeSpan timeout, Int32 action, CursorHandle cursor, MessagePropertyFilter filter, MessageQueueTransaction internalTransaction, MessageQueueTransactionType transactionType)
   at System.Messaging.MessageQueue.Peek(TimeSpan timeout)
   at Elettric80.Communication.MSMQChannel.MSMQChannel.Peek(Int32 timeOut) in C:\Elettric80\Source\WMS\Elettric80.Communication\Elettric80.Communication\Providers\MSMQChannel.cs:line 289
   at Elettric80.WMS.LgvcsProcess.LgvcsProcess.GetMessage() in C:\Elettric80\Source\WMS\Elettric80.WMS.LgvcsProcess\LgvcsProcess.cs:line 530
2014-09-12 18.48.15.1520 | Error | Unexpected error in LgvcsProcess.GetMessage(). | System.Messaging.MessageQueueException (0x80004005)
   at System.Messaging.MessageQueue.MQCacheableInfo.get_ReadHandle()
   at System.Messaging.MessageQueue.StaleSafeReceiveMessage(UInt32 timeout, Int32 action, MQPROPS properties, NativeOverlapped* overlapped, ReceiveCallback receiveCallback, CursorHandle cursorHandle, IntPtr transaction)
   at System.Messaging.MessageQueue.ReceiveCurrent(TimeSpan timeout, Int32 action, CursorHandle cursor, MessagePropertyFilter filter, MessageQueueTransaction internalTransaction, MessageQueueTransactionType transactionType)
   at System.Messaging.MessageQueue.Peek(TimeSpan timeout)
   at Elettric80.Communication.MSMQChannel.MSMQChannel.Peek(Int32 timeOut) in C:\Elettric80\Source\WMS\Elettric80.Communication\Elettric80.Communication\Providers\MSMQChannel.cs:line 289
   at Elettric80.WMS.LgvcsProcess.LgvcsProcess.GetMessage() in C:\Elettric80\Source\WMS\Elettric80.WMS.LgvcsProcess\LgvcsProcess.cs:line 530
2014-09-12 18.53.17.6828 | Error | Unexpected error in LgvcsProcess.GetMessage(). | System.Messaging.MessageQueueException (0x80004005)
   at System.Messaging.MessageQueue.MQCacheableInfo.get_ReadHandle()
   at System.Messaging.MessageQueue.StaleSafeReceiveMessage(UInt32 timeout, Int32 action, MQPROPS properties, NativeOverlapped* overlapped, ReceiveCallback receiveCallback, CursorHandle cursorHandle, IntPtr transaction)
   at System.Messaging.MessageQueue.ReceiveCurrent(TimeSpan timeout, Int32 action, CursorHandle cursor, MessagePropertyFilter filter, MessageQueueTransaction internalTransaction, MessageQueueTransactionType transactionType)
   at System.Messaging.MessageQueue.Peek(TimeSpan timeout)
   at Elettric80.Communication.MSMQChannel.MSMQChannel.Peek(Int32 timeOut) in C:\Elettric80\Source\WMS\Elettric80.Communication\Elettric80.Communication\Providers\MSMQChannel.cs:line 289
   at Elettric80.WMS.LgvcsProcess.LgvcsProcess.GetMessage() in C:\Elettric80\Source\WMS\Elettric80.WMS.LgvcsProcess\LgvcsProcess.cs:line 530
2014-09-12 18.58.20.1824 | Error | Unexpected error in LgvcsProcess.GetMessage(). | System.Messaging.MessageQueueException (0x80004005)
   at System.Messaging.MessageQueue.MQCacheableInfo.get_ReadHandle()
   at System.Messaging.MessageQueue.StaleSafeReceiveMessage(UInt32 timeout, Int32 action, MQPROPS properties, NativeOverlapped* overlapped, ReceiveCallback receiveCallback, CursorHandle cursorHandle, IntPtr transaction)
   at System.Messaging.MessageQueue.ReceiveCurrent(TimeSpan timeout, Int32 action, CursorHandle cursor, MessagePropertyFilter filter, MessageQueueTransaction internalTransaction, MessageQueueTransactionType transactionType)
   at System.Messaging.MessageQueue.Peek(TimeSpan timeout)
   at Elettric80.Communication.MSMQChannel.MSMQChannel.Peek(Int32 timeOut) in C:\Elettric80\Source\WMS\Elettric80.Communication\Elettric80.Communication\Providers\MSMQChannel.cs:line 289
   at Elettric80.WMS.LgvcsProcess.LgvcsProcess.GetMessage() in C:\Elettric80\Source\WMS\Elettric80.WMS.LgvcsProcess\LgvcsProcess.cs:line 530
2014-09-12 19.03.22.7132 | Error | Unexpected error in LgvcsProcess.GetMessage(). | System.Messaging.MessageQueueException (0x80004005)
   at System.Messaging.MessageQueue.MQCacheableInfo.get_ReadHandle()
   at System.Messaging.MessageQueue.StaleSafeReceiveMessage(UInt32 timeout, Int32 action, MQPROPS properties, NativeOverlapped* overlapped, ReceiveCallback receiveCallback, CursorHandle cursorHandle, IntPtr transaction)
   at System.Messaging.MessageQueue.ReceiveCurrent(TimeSpan timeout, Int32 action, CursorHandle cursor, MessagePropertyFilter filter, MessageQueueTransaction internalTransaction, MessageQueueTransactionType transactionType)
   at System.Messaging.MessageQueue.Peek(TimeSpan timeout)
   at Elettric80.Communication.MSMQChannel.MSMQChannel.Peek(Int32 timeOut) in C:\Elettric80\Source\WMS\Elettric80.Communication\Elettric80.Communication\Providers\MSMQChannel.cs:line 289
   at Elettric80.WMS.LgvcsProcess.LgvcsProcess.GetMessage() in C:\Elettric80\Source\WMS\Elettric80.WMS.LgvcsProcess\LgvcsProcess.cs:line 530
2014-09-12 19.08.25.2596 | Error | Unexpected error in LgvcsProcess.GetMessage(). | System.Messaging.MessageQueueException (0x80004005)
   at System.Messaging.MessageQueue.MQCacheableInfo.get_ReadHandle()
   at System.Messaging.MessageQueue.StaleSafeReceiveMessage(UInt32 timeout, Int32 action, MQPROPS properties, NativeOverlapped* overlapped, ReceiveCallback receiveCallback, CursorHandle cursorHandle, IntPtr transaction)
   at System.Messaging.MessageQueue.ReceiveCurrent(TimeSpan timeout, Int32 action, CursorHandle cursor, MessagePropertyFilter filter, MessageQueueTransaction internalTransaction, MessageQueueTransactionType transactionType)
   at System.Messaging.MessageQueue.Peek(TimeSpan timeout)
   at Elettric80.Communication.MSMQChannel.MSMQChannel.Peek(Int32 timeOut) in C:\Elettric80\Source\WMS\Elettric80.Communication\Elettric80.Communication\Providers\MSMQChannel.cs:line 289
   at Elettric80.WMS.LgvcsProcess.LgvcsProcess.GetMessage() in C:\Elettric80\Source\WMS\Elettric80.WMS.LgvcsProcess\LgvcsProcess.cs:line 530
2014-09-12 19.13.27.8060 | Error | Unexpected error in LgvcsProcess.GetMessage(). | System.Messaging.MessageQueueException (0x80004005)
   at System.Messaging.MessageQueue.MQCacheableInfo.get_ReadHandle()
   at System.Messaging.MessageQueue.StaleSafeReceiveMessage(UInt32 timeout, Int32 action, MQPROPS properties, NativeOverlapped* overlapped, ReceiveCallback receiveCallback, CursorHandle cursorHandle, IntPtr transaction)
   at System.Messaging.MessageQueue.ReceiveCurrent(TimeSpan timeout, Int32 action, CursorHandle cursor, MessagePropertyFilter filter, MessageQueueTransaction internalTransaction, MessageQueueTransactionType transactionType)
   at System.Messaging.MessageQueue.Peek(TimeSpan timeout)
   at Elettric80.Communication.MSMQChannel.MSMQChannel.Peek(Int32 timeOut) in C:\Elettric80\Source\WMS\Elettric80.Communication\Elettric80.Communication\Providers\MSMQChannel.cs:line 289
   at Elettric80.WMS.LgvcsProcess.LgvcsProcess.GetMessage() in C:\Elettric80\Source\WMS\Elettric80.WMS.LgvcsProcess\LgvcsProcess.cs:line 530
2014-09-12 19.14.02.5004 | Error | Unexpected error in LgvcsProcess.GetMessage(). | System.Messaging.MessageQueueException (0x80004005)
   at System.Messaging.MessageQueue.MQCacheableInfo.get_ReadHandle()
   at System.Messaging.MessageQueue.StaleSafeReceiveMessage(UInt32 timeout, Int32 action, MQPROPS properties, NativeOverlapped* overlapped, ReceiveCallback receiveCallback, CursorHandle cursorHandle, IntPtr transaction)
   at System.Messaging.MessageQueue.ReceiveCurrent(TimeSpan timeout, Int32 action, CursorHandle cursor, MessagePropertyFilter filter, MessageQueueTransaction internalTransaction, MessageQueueTransactionType transactionType)
   at System.Messaging.MessageQueue.Peek(TimeSpan timeout)
   at Elettric80.Communication.MSMQChannel.MSMQChannel.Peek(Int32 timeOut) in C:\Elettric80\Source\WMS\Elettric80.Communication\Elettric80.Communication\Providers\MSMQChannel.cs:line 289
   at Elettric80.WMS.LgvcsProcess.LgvcsProcess.GetMessage() in C:\Elettric80\Source\WMS\Elettric80.WMS.LgvcsProcess\LgvcsProcess.cs:line 530
2014-09-12 19.14.24.0752 | Error | Unexpected error in LgvcsProcess.GetMessage(). | System.Messaging.MessageQueueException (0x80004005)
   at System.Messaging.MessageQueue.ReceiveCurrent(TimeSpan timeout, Int32 action, CursorHandle cursor, MessagePropertyFilter filter, MessageQueueTransaction internalTransaction, MessageQueueTransactionType transactionType)
   at System.Messaging.MessageQueue.Peek(TimeSpan timeout)
   at Elettric80.Communication.MSMQChannel.MSMQChannel.Peek(Int32 timeOut) in C:\Elettric80\Source\WMS\Elettric80.Communication\Elettric80.Communication\Providers\MSMQChannel.cs:line 289
   at Elettric80.WMS.LgvcsProcess.LgvcsProcess.GetMessage() in C:\Elettric80\Source\WMS\Elettric80.WMS.LgvcsProcess\LgvcsProcess.cs:line 530
