LPN: KWS05L24PDMN.H000008252
Task: W00000444157
History:
Dbf_l_Id	Dbf_l_Version	Dbf_s_OrderRef	Dbf_s_MessageType	Dbf_s_Sender	Dbf_dt_MessageDateTime	Dbf_s_Text
20606953	1	W00000444157	CMIS	WMS	2014-11-03 14:16:14.000	20141103201614HOU-E80-APP1        3695045     CMISW00000444157
20606952	1	W00000444157	DPAL	LGVCS	2014-11-03 14:16:13.000	20141103201613HOU-E80-TRFC        8884181     DPALW0000044415703RWRK.DRP.001                  004800070000201901550
20606888	1	W00000444157	ARWD	LGVCS	2014-11-03 14:13:39.000	20141103201339HOU-E80-TRFC        8884110     ARWDW00000444157RWRK.DRP.001                  03
20606889	1	W00000444157	DPOS	WMS	2014-11-03 14:13:39.000	20141103201339HOU-E80-APP1        3695010     DPOSW000004441570048RWRK.DRP.001                  000700000000000000000
20606833	1	W00000444157	ARWD	LGVCS	2014-11-03 14:11:29.000	20141103201129HOU-E80-TRFC        8884053     ARWDW00000444157RWRK.DRP.001                  03
20606834	1	W00000444157	DPOS	WMS	2014-11-03 14:11:29.000	20141103201129HOU-E80-APP1        3694982     DPOSW000004441570048RWRK.DRP.001                  000700000000000000000
20606688	1	W00000444157	ARWD	LGVCS	2014-11-03 14:05:02.000	20141103200502HOU-E80-TRFC        8883897     ARWDW00000444157RWRK.DRP.001                  03
20606689	1	W00000444157	DPOS	WMS	2014-11-03 14:05:02.000	20141103200502HOU-E80-APP1        3694907     DPOSW000004441570048RWRK.DRP.001                  000700000000000000000
20606515	1	W00000444157	ARWD	LGVCS	2014-11-03 13:50:34.000	20141103195034HOU-E80-TRFC        8883719     ARWDW00000444157CHK.022                       03
20606516	1	W00000444157	MMIS	WMS	2014-11-03 13:50:34.000	20141103195034HOU-E80-APP1        3694822     MMISW00000444157                              RWRK.DRP.001                  00480109990520141103195034
20606456	1	W00000444157	MMIS	WMS	2014-11-03 13:47:48.000	20141103194748HOU-E80-APP1        3694788     MMISW00000444157SSR.028                       CHK.022                       00160100500520141103194748
20606455	1	W00000444157	PKUP	LGVCS	2014-11-03 13:47:47.000	20141103194748HOU-E80-TRFC        8883657     PKUPW0000044415703SSR.028                       000300011930
20606430	1	W00000444157	ARWP	LGVCS	2014-11-03 13:46:56.000	20141103194656HOU-E80-TRFC        8883633     ARWPW0000044415703SSR.028                       0003                                                                                                                                                                                    000001010101
20606431	1	W00000444157	PPOS	WMS	2014-11-03 13:46:56.000	20141103194656HOU-E80-APP1        3694775     PPOSW00000444157SSR.028                       00030001193001011016121910161219101612191092125700
20606419	1	W00000444157	AWRK	LGVCS	2014-11-03 13:46:07.000	20141103194607HOU-E80-TRFC        8883623     AWRKW00000444157
20606417	1	W00000444157	AMIS	WMS	2014-11-03 13:46:06.000	20141103194606HOU-E80-APP1        3694770     AMISW00000444157SSR.028                       STAGE.022                     000300502014110319460600010000

