﻿RecordId,BatchId,TransactionDate,LastProcessDate,Status,TransactionType,TransactionData
409735,NULL,2014-09-16 12:47:53.000,2014-09-16 12:47:55.570,2,DKFR,<DockFree><Site>DI</Site><LoadId>11605818</LoadId><DockBay>D134</DockBay></DockFree>
409146,NULL,2014-09-16 00:40:45.000,2014-09-16 00:40:52.600,2,DKIS,<DockInUse><Site>DI</Site><LoadId>11605818</LoadId><DockBay>D134</DockBay></DockInUse>
409136,NULL,2014-09-16 00:17:41.000,2014-09-16 00:17:51.947,2,SHHD,<ShippingHeader><Site>DI</Site><LoadId>11605818</LoadId><VehicleId /><LoadByDate>2014-09-17T13:15:00</LoadByDate><LoadPriority /><DockBay>D134</DockBay><LoadZone>Q</LoadZone><VehicleType>53TF</VehicleType><VehicleLength>0</VehicleLength><VehicleWidth>0</VehicleWidth><VehicleHeight>0</VehicleHeight><OneTouch>false</OneTouch><Deleted>false</Deleted></ShippingHeader>
409137,NULL,2014-09-16 00:17:42.000,2014-09-16 00:17:52.013,2,SHHD,<ShippingHeader><Site>DI</Site><LoadId>11605818</LoadId><VehicleId>CRCR221193</VehicleId><LoadByDate>2014-09-17T13:15:00</LoadByDate><LoadPriority /><DockBay>D134</DockBay><LoadZone>Q</LoadZone><VehicleType>53TF</VehicleType><VehicleLength>20224</VehicleLength><VehicleWidth>3232</VehicleWidth><VehicleHeight>3584</VehicleHeight><OneTouch>false</OneTouch><Deleted>false</Deleted></ShippingHeader>
406043,NULL,2014-09-12 10:35:09.000,2014-09-12 10:35:15.227,2,SHTM,<ShippingItem><Site>DI</Site><LoadId>11605818</LoadId><OrderNumber>0BALRT</OrderNumber><OrderLine>01</OrderLine><ProductCode>96361/02</ProductCode><ProductQty>28</ProductQty><Deleted>false</Deleted></ShippingItem>
407802,NULL,2014-09-14 20:16:25.000,2014-09-14 20:16:37.760,2,SHHD,<ShippingHeader><Site>DI</Site><LoadId>11605818</LoadId><VehicleId>CRCR219193</VehicleId><LoadByDate>2014-09-17T13:15:00</LoadByDate><LoadPriority /><DockBay /><LoadZone>Q</LoadZone><VehicleType>53TF</VehicleType><VehicleLength>20192</VehicleLength><VehicleWidth>3232</VehicleWidth><VehicleHeight>3552</VehicleHeight><OneTouch>false</OneTouch><Deleted>false</Deleted></ShippingHeader>
407797,NULL,2014-09-14 20:16:25.000,2014-09-14 20:16:37.470,2,SHHD,<ShippingHeader><Site>DI</Site><LoadId>11605818</LoadId><VehicleId /><LoadByDate>2014-09-17T13:15:00</LoadByDate><LoadPriority /><DockBay /><LoadZone>Q</LoadZone><VehicleType>53TF</VehicleType><VehicleLength>0</VehicleLength><VehicleWidth>0</VehicleWidth><VehicleHeight>0</VehicleHeight><OneTouch>false</OneTouch><Deleted>false</Deleted></ShippingHeader>
406042,NULL,2014-09-12 10:35:09.000,2014-09-12 10:35:15.180,2,SHHD,<ShippingHeader><Site>DI</Site><LoadId>11605818</LoadId><VehicleId /><LoadByDate>2014-09-17T13:15:00</LoadByDate><LoadPriority /><DockBay /><LoadZone /><VehicleType>53TF</VehicleType><VehicleLength>0</VehicleLength><VehicleWidth>0</VehicleWidth><VehicleHeight>0</VehicleHeight><OneTouch>false</OneTouch><Deleted>false</Deleted></ShippingHeader>
