RecordId	BatchId	TransactionDate	LastProcessDate	Status	TransactionType	TransactionData
1615310	NULL	6/19/12 11:24	6/19/12 16:25	2	DKFR	<DockFree><LoadId>15271145</LoadId><DockBay>T113</DockBay></DockFree>
1615284	NULL	6/19/12 11:08	6/19/12 16:08	2	LDST	<LoadingStatus><LoadId>15271145</LoadId><StagingBay>SH6</StagingBay><Quantity>0</Quantity><LoadComplete>true</LoadComplete></LoadingStatus>
1615254	NULL	6/19/12 10:59	6/19/12 15:59	2	LDPL	<PalletLoaded><PalletId>GPCX2F1900014</PalletId><LoadId>15271145</LoadId><OrderNumber>04C4JJ</OrderNumber><OrderLine>01</OrderLine></PalletLoaded>
1615184	NULL	6/19/12 10:45	6/19/12 15:45	2	LDPL	<PalletLoaded><PalletId>GPCX2F1800021</PalletId><LoadId>15271145</LoadId><OrderNumber>04C4JJ</OrderNumber><OrderLine>01</OrderLine></PalletLoaded>
1615180	NULL	6/19/12 10:44	6/19/12 15:45	2	LDPL	<PalletLoaded><PalletId>GPCX2F1800027</PalletId><LoadId>15271145</LoadId><OrderNumber>04C4JJ</OrderNumber><OrderLine>01</OrderLine></PalletLoaded>
1615149	NULL	6/19/12 10:36	6/19/12 15:36	2	LDPL	<PalletLoaded><PalletId>GPCX2F1900008</PalletId><LoadId>15271145</LoadId><OrderNumber>04C4JJ</OrderNumber><OrderLine>01</OrderLine></PalletLoaded>
1615131	NULL	6/19/12 10:33	6/19/12 15:33	2	LDPL	<PalletLoaded><PalletId>GPCX2F1800063</PalletId><LoadId>15271145</LoadId><OrderNumber>04C4JJ</OrderNumber><OrderLine>01</OrderLine></PalletLoaded>
1615128	NULL	6/19/12 10:32	6/19/12 15:33	2	LDPL	<PalletLoaded><PalletId>GPCX2F1900013</PalletId><LoadId>15271145</LoadId><OrderNumber>04C4JJ</OrderNumber><OrderLine>01</OrderLine></PalletLoaded>
1615116	NULL	6/19/12 10:30	6/19/12 15:30	2	LDPL	<PalletLoaded><PalletId>GPCX2F1900012</PalletId><LoadId>15271145</LoadId><OrderNumber>04C4JJ</OrderNumber><OrderLine>01</OrderLine></PalletLoaded>
1615110	NULL	6/19/12 10:28	6/19/12 15:29	2	LDPL	<PalletLoaded><PalletId>GPCX2F1800070</PalletId><LoadId>15271145</LoadId><OrderNumber>04C4JJ</OrderNumber><OrderLine>01</OrderLine></PalletLoaded>
1615103	NULL	6/19/12 10:26	6/19/12 15:27	2	LDPL	<PalletLoaded><PalletId>GPCX2F1900006</PalletId><LoadId>15271145</LoadId><OrderNumber>04C4JJ</OrderNumber><OrderLine>01</OrderLine></PalletLoaded>
1615101	NULL	6/19/12 10:26	6/19/12 15:27	2	LDPL	<PalletLoaded><PalletId>GPCX2F1900010</PalletId><LoadId>15271145</LoadId><OrderNumber>04C4JJ</OrderNumber><OrderLine>01</OrderLine></PalletLoaded>
1615062	NULL	6/19/12 10:24	6/19/12 15:25	2	LDPL	<PalletLoaded><PalletId>GPCX2F1900011</PalletId><LoadId>15271145</LoadId><OrderNumber>04C4JJ</OrderNumber><OrderLine>01</OrderLine></PalletLoaded>
1615063	NULL	6/19/12 10:24	6/19/12 15:25	2	LDPL	<PalletLoaded><PalletId>GPCX2F1900009</PalletId><LoadId>15271145</LoadId><OrderNumber>04C4JJ</OrderNumber><OrderLine>01</OrderLine></PalletLoaded>
1615056	NULL	6/19/12 10:21	6/19/12 15:22	2	LDPL	<PalletLoaded><PalletId>GPCX2F1800065</PalletId><LoadId>15271145</LoadId><OrderNumber>04C4JJ</OrderNumber><OrderLine>01</OrderLine></PalletLoaded>
1615057	NULL	6/19/12 10:21	6/19/12 15:22	2	LDPL	<PalletLoaded><PalletId>GPCX2F1800069</PalletId><LoadId>15271145</LoadId><OrderNumber>04C4JJ</OrderNumber><OrderLine>01</OrderLine></PalletLoaded>
1615055	NULL	6/19/12 10:21	6/19/12 15:21	2	LDPL	<PalletLoaded><PalletId>GPCX2F1900004</PalletId><LoadId>15271145</LoadId><OrderNumber>04C4JJ</OrderNumber><OrderLine>01</OrderLine></PalletLoaded>
1615048	NULL	6/19/12 10:16	6/19/12 15:17	2	LDPL	<PalletLoaded><PalletId>GPCX2F1800072</PalletId><LoadId>15271145</LoadId><OrderNumber>04C4JJ</OrderNumber><OrderLine>01</OrderLine></PalletLoaded>
1615047	NULL	6/19/12 10:16	6/19/12 15:17	2	LDPL	<PalletLoaded><PalletId>GPCX2F1800073</PalletId><LoadId>15271145</LoadId><OrderNumber>04C4JJ</OrderNumber><OrderLine>01</OrderLine></PalletLoaded>
1615046	NULL	6/19/12 10:16	6/19/12 15:17	2	LDPL	<PalletLoaded><PalletId>GPCX2F1800060</PalletId><LoadId>15271145</LoadId><OrderNumber>04C4JJ</OrderNumber><OrderLine>01</OrderLine></PalletLoaded>
1615045	NULL	6/19/12 10:16	6/19/12 15:17	2	LDPL	<PalletLoaded><PalletId>GPCX2F1900007</PalletId><LoadId>15271145</LoadId><OrderNumber>04C4JJ</OrderNumber><OrderLine>01</OrderLine></PalletLoaded>
1615026	NULL	6/19/12 10:11	6/19/12 15:11	2	LDPL	<PalletLoaded><PalletId>GPCX2F1800071</PalletId><LoadId>15271145</LoadId><OrderNumber>04C4JJ</OrderNumber><OrderLine>01</OrderLine></PalletLoaded>
1615027	NULL	6/19/12 10:11	6/19/12 15:11	2	LDPL	<PalletLoaded><PalletId>GPCX2F1800031</PalletId><LoadId>15271145</LoadId><OrderNumber>04C4JJ</OrderNumber><OrderLine>01</OrderLine></PalletLoaded>
1615021	NULL	6/19/12 10:08	6/19/12 15:08	2	LDPL	<PalletLoaded><PalletId>GPCX2F1900001</PalletId><LoadId>15271145</LoadId><OrderNumber>04C4JJ</OrderNumber><OrderLine>01</OrderLine></PalletLoaded>
1615019	NULL	6/19/12 10:08	6/19/12 15:08	2	LDPL	<PalletLoaded><PalletId>GPCX2F1800058</PalletId><LoadId>15271145</LoadId><OrderNumber>04C4JJ</OrderNumber><OrderLine>01</OrderLine></PalletLoaded>
1615020	NULL	6/19/12 10:08	6/19/12 15:08	2	LDPL	<PalletLoaded><PalletId>GPCX2F1800074</PalletId><LoadId>15271145</LoadId><OrderNumber>04C4JJ</OrderNumber><OrderLine>01</OrderLine></PalletLoaded>
1615002	NULL	6/19/12 10:05	6/19/12 15:05	2	LDPL	<PalletLoaded><PalletId>GPCX2F1800062</PalletId><LoadId>15271145</LoadId><OrderNumber>04C4JJ</OrderNumber><OrderLine>01</OrderLine></PalletLoaded>
1614997	NULL	6/19/12 10:04	6/19/12 15:04	2	LDPL	<PalletLoaded><PalletId>GPCX2F1800061</PalletId><LoadId>15271145</LoadId><OrderNumber>04C4JJ</OrderNumber><OrderLine>01</OrderLine></PalletLoaded>
1614996	NULL	6/19/12 10:04	6/19/12 15:04	2	LDPL	<PalletLoaded><PalletId>GPCX2F1800068</PalletId><LoadId>15271145</LoadId><OrderNumber>04C4JJ</OrderNumber><OrderLine>01</OrderLine></PalletLoaded>
1614990	NULL	6/19/12 10:00	6/19/12 15:00	2	LDPL	<PalletLoaded><PalletId>GPCX2F1800057</PalletId><LoadId>15271145</LoadId><OrderNumber>04C4JJ</OrderNumber><OrderLine>01</OrderLine></PalletLoaded>
1614992	NULL	6/19/12 10:00	6/19/12 15:00	2	LDPL	<PalletLoaded><PalletId>GPCX2F1800075</PalletId><LoadId>15271145</LoadId><OrderNumber>04C4JJ</OrderNumber><OrderLine>01</OrderLine></PalletLoaded>
1614986	NULL	6/19/12 9:58	6/19/12 14:58	2	LDPL	<PalletLoaded><PalletId>GPCX2F1800064</PalletId><LoadId>15271145</LoadId><OrderNumber>04C4JJ</OrderNumber><OrderLine>01</OrderLine></PalletLoaded>
1614517	NULL	6/19/12 7:56	6/19/12 12:56	99	SHHD	<ShippingHeader><LoadId>15271145</LoadId><VehicleId>JBHU244476</VehicleId><LoadByDate>2012-06-20T00:01:00</LoadByDate><LoadPriority>99</LoadPriority><DockBay>T113</DockBay><LoadZone>P</LoadZone><VehicleType>53CN</VehicleType><VehicleLength>20352</VehicleLength><VehicleWidth>3200</VehicleWidth><VehicleHeight>39168</VehicleHeight><OneTouch>false</OneTouch><Deleted>false</Deleted></ShippingHeader>
1614466	NULL	6/19/12 7:42	6/19/12 12:42	99	SHHD	<ShippingHeader><LoadId>15271145</LoadId><VehicleId /><LoadByDate>2012-06-20T00:01:00</LoadByDate><LoadPriority>99</LoadPriority><DockBay>T113</DockBay><LoadZone>P</LoadZone><VehicleType>53CN</VehicleType><VehicleLength>0</VehicleLength><VehicleWidth>0</VehicleWidth><VehicleHeight>0</VehicleHeight><OneTouch>false</OneTouch><Deleted>false</Deleted></ShippingHeader>
1614408	NULL	6/19/12 7:33	6/19/12 12:34	2	LDPL	<PalletLoaded><PalletId>GPCX2F1900001</PalletId><LoadId>15271145</LoadId><OrderNumber>04C4JJ</OrderNumber><OrderLine>01</OrderLine></PalletLoaded>
1614407	NULL	6/19/12 7:33	6/19/12 12:34	2	LDPL	<PalletLoaded><PalletId>GPCX2F1800075</PalletId><LoadId>15271145</LoadId><OrderNumber>04C4JJ</OrderNumber><OrderLine>01</OrderLine></PalletLoaded>
1614406	NULL	6/19/12 7:33	6/19/12 12:34	2	LDPL	<PalletLoaded><PalletId>GPCX2F1800074</PalletId><LoadId>15271145</LoadId><OrderNumber>04C4JJ</OrderNumber><OrderLine>01</OrderLine></PalletLoaded>
1614404	NULL	6/19/12 7:33	6/19/12 12:34	2	LDPL	<PalletLoaded><PalletId>GPCX2F1800072</PalletId><LoadId>15271145</LoadId><OrderNumber>04C4JJ</OrderNumber><OrderLine>01</OrderLine></PalletLoaded>
1614405	NULL	6/19/12 7:33	6/19/12 12:34	2	LDPL	<PalletLoaded><PalletId>GPCX2F1800073</PalletId><LoadId>15271145</LoadId><OrderNumber>04C4JJ</OrderNumber><OrderLine>01</OrderLine></PalletLoaded>
1614402	NULL	6/19/12 7:33	6/19/12 12:34	2	LDPL	<PalletLoaded><PalletId>GPCX2F1800069</PalletId><LoadId>15271145</LoadId><OrderNumber>04C4JJ</OrderNumber><OrderLine>01</OrderLine></PalletLoaded>
1614403	NULL	6/19/12 7:33	6/19/12 12:34	2	LDPL	<PalletLoaded><PalletId>GPCX2F1800071</PalletId><LoadId>15271145</LoadId><OrderNumber>04C4JJ</OrderNumber><OrderLine>01</OrderLine></PalletLoaded>
1614399	NULL	6/19/12 7:33	6/19/12 12:34	2	LDPL	<PalletLoaded><PalletId>GPCX2F1800060</PalletId><LoadId>15271145</LoadId><OrderNumber>04C4JJ</OrderNumber><OrderLine>01</OrderLine></PalletLoaded>
1614400	NULL	6/19/12 7:33	6/19/12 12:34	2	LDPL	<PalletLoaded><PalletId>GPCX2F1800061</PalletId><LoadId>15271145</LoadId><OrderNumber>04C4JJ</OrderNumber><OrderLine>01</OrderLine></PalletLoaded>
1614401	NULL	6/19/12 7:33	6/19/12 12:34	2	LDPL	<PalletLoaded><PalletId>GPCX2F1800062</PalletId><LoadId>15271145</LoadId><OrderNumber>04C4JJ</OrderNumber><OrderLine>01</OrderLine></PalletLoaded>
1614398	NULL	6/19/12 7:33	6/19/12 12:34	2	LDPL	<PalletLoaded><PalletId>GPCX2F1800058</PalletId><LoadId>15271145</LoadId><OrderNumber>04C4JJ</OrderNumber><OrderLine>01</OrderLine></PalletLoaded>
1614396	NULL	6/19/12 7:33	6/19/12 12:34	2	LDPL	<PalletLoaded><PalletId>GPCX2F1800031</PalletId><LoadId>15271145</LoadId><OrderNumber>04C4JJ</OrderNumber><OrderLine>01</OrderLine></PalletLoaded>
1614397	NULL	6/19/12 7:33	6/19/12 12:34	2	LDPL	<PalletLoaded><PalletId>GPCX2F1800057</PalletId><LoadId>15271145</LoadId><OrderNumber>04C4JJ</OrderNumber><OrderLine>01</OrderLine></PalletLoaded>
1614194	NULL	6/19/12 6:55	6/19/12 11:56	2	SHHD	<ShippingHeader><LoadId>15271145</LoadId><VehicleId>JBHU239974</VehicleId><LoadByDate>2012-06-20T00:01:00</LoadByDate><LoadPriority>99</LoadPriority><DockBay /><LoadZone>P</LoadZone><VehicleType>53CN</VehicleType><VehicleLength>20352</VehicleLength><VehicleWidth>3200</VehicleWidth><VehicleHeight>39168</VehicleHeight><OneTouch>false</OneTouch><Deleted>false</Deleted></ShippingHeader>
1614171	NULL	6/19/12 6:51	6/19/12 11:51	2	SHHD	<ShippingHeader><LoadId>15271145</LoadId><VehicleId /><LoadByDate>2012-06-20T00:01:00</LoadByDate><LoadPriority>99</LoadPriority><DockBay /><LoadZone>P</LoadZone><VehicleType>53CN</VehicleType><VehicleLength>0</VehicleLength><VehicleWidth>0</VehicleWidth><VehicleHeight>0</VehicleHeight><OneTouch>false</OneTouch><Deleted>false</Deleted></ShippingHeader>
1596285	NULL	6/15/12 16:54	6/15/12 21:55	2	SHTM	<ShippingItem><LoadId>15271145</LoadId><OrderNumber>04C4JJ</OrderNumber><OrderLine>01</OrderLine><ProductCode>76546/03</ProductCode><ProductQty>30</ProductQty><Deleted>false</Deleted></ShippingItem>
1596284	NULL	6/15/12 16:54	6/15/12 21:55	2	SHHD	<ShippingHeader><LoadId>15271145</LoadId><VehicleId /><LoadByDate>2012-06-20T00:01:00</LoadByDate><LoadPriority>99</LoadPriority><DockBay /><LoadZone /><VehicleType>53CN</VehicleType><VehicleLength>0</VehicleLength><VehicleWidth>0</VehicleWidth><VehicleHeight>0</VehicleHeight><OneTouch>false</OneTouch><Deleted>false</Deleted></ShippingHeader>
